step: 1 0.001
minmax 400.0 400.0 1 0.001
step: 2 0.002
minmax 400.0 725.3694647 2 0.002
step: 3 0.003
minmax 400.0 776.014435831 3 0.003
step: 4 0.004
minmax 400.0 747.475296384 4 0.004
step: 5 0.005
minmax 400.0 721.745460367 5 0.005
step: 6 0.006
minmax 400.0 699.731016332 6 0.006
step: 7 0.007
minmax 400.0 681.021827332 7 0.007
step: 8 0.008
minmax 400.0 665.031256194 8 0.008
step: 9 0.009000000000000001
minmax 400.0 651.22657784 9 0.009000000000000001
step: 10 0.010000000000000002
minmax 400.0 639.171343972 10 0.010000000000000002
step: 11 0.011000000000000003
minmax 400.0 628.520220463 11 0.011000000000000003
step: 12 0.012000000000000004
minmax 400.0 619.002976888 12 0.012000000000000004
step: 13 0.013000000000000005
minmax 400.0 610.408237661 13 0.013000000000000005
step: 14 0.014000000000000005
minmax 400.0 602.570367071 14 0.014000000000000005
step: 15 0.015000000000000006
minmax 400.0 595.358942315 15 0.015000000000000006
step: 16 0.016000000000000007
minmax 400.0 588.670809655 16 0.016000000000000007
step: 17 0.017000000000000008
minmax 400.0 582.424021521 17 0.017000000000000008
step: 18 0.01800000000000001
minmax 400.0 576.553198408 18 0.01800000000000001
step: 19 0.01900000000000001
minmax 400.0 571.005960079 19 0.01900000000000001
step: 20 0.02000000000000001
minmax 400.0 565.740162379 20 0.02000000000000001
step: 21 0.02100000000000001
minmax 400.0 560.721745704 21 0.02100000000000001
step: 22 0.022000000000000013
minmax 400.0 555.923051767 22 0.022000000000000013
step: 23 0.023000000000000013
minmax 400.0 551.32150173 23 0.023000000000000013
step: 24 0.024000000000000014
minmax 400.0 546.898555021 24 0.024000000000000014
step: 25 0.025000000000000015
minmax 400.0 542.638887336 25 0.025000000000000015
step: 26 0.026000000000000016
minmax 400.0 538.52974055 26 0.026000000000000016
step: 27 0.027000000000000017
minmax 400.0 534.560407857 27 0.027000000000000017
step: 28 0.028000000000000018
minmax 400.0 530.721825575 28 0.028000000000000018
step: 29 0.02900000000000002
minmax 400.0 527.006249227 29 0.02900000000000002
step: 30 0.03000000000000002
minmax 400.0 523.406996295 30 0.03000000000000002
step: 31 0.03100000000000002
minmax 400.0 519.918241786 31 0.03100000000000002
step: 32 0.03200000000000002
minmax 400.0 516.534855654 32 0.03200000000000002
step: 33 0.03300000000000002
minmax 400.0 513.252273412 33 0.03300000000000002
step: 34 0.03400000000000002
minmax 400.0 510.066393081 34 0.03400000000000002
step: 35 0.035000000000000024
minmax 400.0 506.973493043 35 0.035000000000000024
step: 36 0.036000000000000025
minmax 400.0 503.970166481 36 0.036000000000000025
step: 37 0.037000000000000026
minmax 400.0 501.053268999 37 0.037000000000000026
step: 38 0.03800000000000003
minmax 400.0 498.21987671 38 0.03800000000000003
step: 39 0.03900000000000003
minmax 400.0 495.467252636 39 0.03900000000000003
step: 40 0.04000000000000003
minmax 400.0 492.792819714 40 0.04000000000000003
step: 41 0.04100000000000003
minmax 400.0 490.19413906 41 0.04100000000000003
step: 42 0.04200000000000003
minmax 400.0 487.668892405 42 0.04200000000000003
step: 43 0.04300000000000003
minmax 400.0 485.214867862 43 0.04300000000000003
step: 44 0.04400000000000003
minmax 400.0 482.829948329 44 0.04400000000000003
step: 45 0.04500000000000003
minmax 400.0 480.512102006 45 0.04500000000000003
step: 46 0.046000000000000034
minmax 400.0 478.259374591 46 0.046000000000000034
step: 47 0.047000000000000035
minmax 400.0 476.069882816 47 0.047000000000000035
step: 48 0.048000000000000036
minmax 400.0 473.941809054 48 0.048000000000000036
step: 49 0.04900000000000004
minmax 400.0 471.87339678 49 0.04900000000000004
step: 50 0.05000000000000004
minmax 400.0 469.86294673 50 0.05000000000000004
step: 51 0.05100000000000004
minmax 400.0 467.908813594 51 0.05100000000000004
step: 52 0.05200000000000004
minmax 400.0 466.009403172 52 0.05200000000000004
step: 53 0.05300000000000004
minmax 400.0 464.163169876 53 0.05300000000000004
step: 54 0.05400000000000004
minmax 400.0 462.36861453 54 0.05400000000000004
step: 55 0.05500000000000004
minmax 400.0 460.624282403 55 0.05500000000000004
step: 56 0.05600000000000004
minmax 400.0 458.928761438 56 0.05600000000000004
step: 57 0.057000000000000044
minmax 400.0 457.280680644 57 0.057000000000000044
step: 58 0.058000000000000045
minmax 400.0 455.678708612 58 0.058000000000000045
step: 59 0.059000000000000045
minmax 400.0 454.12155215 59 0.059000000000000045
step: 60 0.060000000000000046
minmax 400.0 452.607955004 60 0.060000000000000046
step: 61 0.06100000000000005
minmax 400.0 451.136696667 61 0.06100000000000005
step: 62 0.06200000000000005
minmax 400.0 449.706591246 62 0.06200000000000005
step: 63 0.06300000000000004
minmax 400.0 448.316486392 63 0.06300000000000004
step: 64 0.06400000000000004
minmax 400.0 446.965262285 64 0.06400000000000004
step: 65 0.06500000000000004
minmax 400.0 445.651830656 65 0.06500000000000004
step: 66 0.06600000000000004
minmax 400.0 444.375133858 66 0.06600000000000004
step: 67 0.06700000000000005
minmax 400.0 443.134143971 67 0.06700000000000005
step: 68 0.06800000000000005
minmax 400.0 441.927861936 68 0.06800000000000005
step: 69 0.06900000000000005
minmax 400.0 440.755316726 69 0.06900000000000005
step: 70 0.07000000000000005
minmax 400.0 439.615564541 70 0.07000000000000005
step: 71 0.07100000000000005
minmax 400.0 438.507688034 71 0.07100000000000005
step: 72 0.07200000000000005
minmax 400.0 437.430795557 72 0.07200000000000005
step: 73 0.07300000000000005
minmax 400.0 436.384020434 73 0.07300000000000005
step: 74 0.07400000000000005
minmax 400.0 435.366520256 74 0.07400000000000005
step: 75 0.07500000000000005
minmax 400.0 434.377476195 75 0.07500000000000005
step: 76 0.07600000000000005
minmax 400.0 433.416092339 76 0.07600000000000005
step: 77 0.07700000000000005
minmax 400.0 432.481595052 77 0.07700000000000005
step: 78 0.07800000000000006
minmax 400.0 431.573232345 78 0.07800000000000006
step: 79 0.07900000000000006
minmax 400.0 430.690273268 79 0.07900000000000006
step: 80 0.08000000000000006
minmax 400.0 429.83200732 80 0.08000000000000006
step: 81 0.08100000000000006
minmax 400.0 428.99774388 81 0.08100000000000006
step: 82 0.08200000000000006
minmax 400.0 428.186811643 82 0.08200000000000006
step: 83 0.08300000000000006
minmax 400.0 427.398558084 83 0.08300000000000006
step: 84 0.08400000000000006
minmax 400.0 426.632348932 84 0.08400000000000006
step: 85 0.08500000000000006
minmax 400.0 425.887567655 85 0.08500000000000006
step: 86 0.08600000000000006
minmax 400.0 425.163614969 86 0.08600000000000006
step: 87 0.08700000000000006
minmax 400.0 424.45990835 87 0.08700000000000006
step: 88 0.08800000000000006
minmax 400.0 423.775881569 88 0.08800000000000006
step: 89 0.08900000000000007
minmax 400.0 423.110984233 89 0.08900000000000007
step: 90 0.09000000000000007
minmax 400.0 422.464681345 90 0.09000000000000007
step: 91 0.09100000000000007
minmax 400.0 421.83645287 91 0.09100000000000007
step: 92 0.09200000000000007
minmax 400.0 421.225793321 92 0.09200000000000007
step: 93 0.09300000000000007
minmax 400.0 420.632211346 93 0.09300000000000007
step: 94 0.09400000000000007
minmax 400.0 420.055229336 94 0.09400000000000007
step: 95 0.09500000000000007
minmax 400.0 419.494383044 95 0.09500000000000007
step: 96 0.09600000000000007
minmax 400.0 418.949221202 96 0.09600000000000007
step: 97 0.09700000000000007
minmax 400.0 418.419305167 97 0.09700000000000007
step: 98 0.09800000000000007
minmax 400.0 417.904208564 98 0.09800000000000007
step: 99 0.09900000000000007
minmax 400.0 417.403516942 99 0.09900000000000007
step: 100 0.10000000000000007
minmax 400.0 416.916827442 100 0.10000000000000007
step: 101 0.10100000000000008
minmax 400.0 416.443748474 101 0.10100000000000008
step: 102 0.10200000000000008
minmax 400.0 415.983899397 102 0.10200000000000008
step: 103 0.10300000000000008
minmax 400.0 415.536910218 103 0.10300000000000008
step: 104 0.10400000000000008
minmax 400.0 415.102421292 104 0.10400000000000008
step: 105 0.10500000000000008
minmax 400.0 414.680083033 105 0.10500000000000008
step: 106 0.10600000000000008
minmax 400.0 414.26955563 106 0.10600000000000008
step: 107 0.10700000000000008
minmax 400.0 413.870508778 107 0.10700000000000008
step: 108 0.10800000000000008
minmax 400.0 413.482621409 108 0.10800000000000008
step: 109 0.10900000000000008
minmax 400.0 413.105581435 109 0.10900000000000008
step: 110 0.11000000000000008
minmax 400.0 412.739085496 110 0.11000000000000008
step: 111 0.11100000000000008
minmax 400.0 412.382838718 111 0.11100000000000008
step: 112 0.11200000000000009
minmax 400.0 412.03655447 112 0.11200000000000009
step: 113 0.11300000000000009
minmax 400.0 411.699954141 113 0.11300000000000009
step: 114 0.11400000000000009
minmax 400.0 411.372766911 114 0.11400000000000009
step: 115 0.11500000000000009
minmax 400.0 411.054729534 115 0.11500000000000009
step: 116 0.11600000000000009
minmax 400.0 410.745586126 116 0.11600000000000009
step: 117 0.11700000000000009
minmax 400.0 410.445087959 117 0.11700000000000009
step: 118 0.11800000000000009
minmax 400.0 410.152993262 118 0.11800000000000009
step: 119 0.11900000000000009
minmax 400.0 409.869067027 119 0.11900000000000009
step: 120 0.12000000000000009
minmax 400.0 409.593080814 120 0.12000000000000009
step: 121 0.1210000000000001
minmax 400.0 409.324812578 121 0.1210000000000001
step: 122 0.1220000000000001
minmax 400.0 409.064046478 122 0.1220000000000001
step: 123 0.1230000000000001
minmax 400.0 408.810572713 123 0.1230000000000001
step: 124 0.1240000000000001
minmax 400.0 408.564187349 124 0.1240000000000001
step: 125 0.12500000000000008
minmax 400.0 408.324692153 125 0.12500000000000008
step: 126 0.12600000000000008
minmax 400.0 408.09189444 126 0.12600000000000008
step: 127 0.12700000000000009
minmax 400.0 407.86560691 127 0.12700000000000009
step: 128 0.12800000000000009
minmax 400.0 407.645647503 128 0.12800000000000009
step: 129 0.1290000000000001
minmax 400.0 407.431839249 129 0.1290000000000001
step: 130 0.1300000000000001
minmax 400.0 407.224010131 130 0.1300000000000001
step: 131 0.1310000000000001
minmax 400.0 407.021992937 131 0.1310000000000001
step: 132 0.1320000000000001
minmax 400.0 406.825625137 132 0.1320000000000001
step: 133 0.1330000000000001
minmax 400.0 406.634748742 133 0.1330000000000001
step: 134 0.1340000000000001
minmax 400.0 406.449210184 134 0.1340000000000001
step: 135 0.1350000000000001
minmax 400.0 406.268860188 135 0.1350000000000001
step: 136 0.1360000000000001
minmax 400.0 406.093553655 136 0.1360000000000001
step: 137 0.1370000000000001
minmax 400.0 405.923149543 137 0.1370000000000001
step: 138 0.1380000000000001
minmax 400.0 405.757510755 138 0.1380000000000001
step: 139 0.1390000000000001
minmax 400.0 405.596504027 139 0.1390000000000001
step: 140 0.1400000000000001
minmax 400.0 405.439999824 140 0.1400000000000001
step: 141 0.1410000000000001
minmax 400.0 405.28787223 141 0.1410000000000001
step: 142 0.1420000000000001
minmax 400.0 405.139998854 142 0.1420000000000001
step: 143 0.1430000000000001
minmax 400.0 404.996260727 143 0.1430000000000001
step: 144 0.1440000000000001
minmax 400.0 404.856542204 144 0.1440000000000001
step: 145 0.1450000000000001
minmax 400.0 404.720730878 145 0.1450000000000001
step: 146 0.1460000000000001
minmax 400.0 404.588717483 146 0.1460000000000001
step: 147 0.1470000000000001
minmax 400.0 404.460395811 147 0.1470000000000001
step: 148 0.1480000000000001
minmax 400.0 404.335662622 148 0.1480000000000001
step: 149 0.1490000000000001
minmax 400.0 404.214417563 149 0.1490000000000001
step: 150 0.1500000000000001
minmax 400.0 404.09656309 150 0.1500000000000001
step: 151 0.1510000000000001
minmax 400.0 403.982004385 151 0.1510000000000001
step: 152 0.1520000000000001
minmax 400.0 403.870649281 152 0.1520000000000001
step: 153 0.1530000000000001
minmax 400.0 403.76240819 153 0.1530000000000001
step: 154 0.1540000000000001
minmax 400.0 403.657194029 154 0.1540000000000001
step: 155 0.1550000000000001
minmax 400.0 403.55492215 155 0.1550000000000001
step: 156 0.1560000000000001
minmax 400.0 403.455510272 156 0.1560000000000001
step: 157 0.1570000000000001
minmax 400.0 403.358878416 157 0.1570000000000001
step: 158 0.1580000000000001
minmax 400.0 403.264948838 158 0.1580000000000001
step: 159 0.1590000000000001
minmax 400.0 403.17364597 159 0.1590000000000001
step: 160 0.16000000000000011
minmax 400.0 403.084896355 160 0.16000000000000011
step: 161 0.16100000000000012
minmax 400.0 402.998628594 161 0.16100000000000012
step: 162 0.16200000000000012
minmax 400.0 402.91477328 162 0.16200000000000012
step: 163 0.16300000000000012
minmax 400.0 402.83326295 163 0.16300000000000012
step: 164 0.16400000000000012
minmax 400.0 402.754032028 164 0.16400000000000012
step: 165 0.16500000000000012
minmax 400.0 402.677016769 165 0.16500000000000012
step: 166 0.16600000000000012
minmax 400.0 402.602155214 166 0.16600000000000012
step: 167 0.16700000000000012
minmax 400.0 402.529387135 167 0.16700000000000012
step: 168 0.16800000000000012
minmax 400.0 402.458653987 168 0.16800000000000012
step: 169 0.16900000000000012
minmax 400.0 402.389898864 169 0.16900000000000012
step: 170 0.17000000000000012
minmax 400.0 402.323066452 170 0.17000000000000012
step: 171 0.17100000000000012
minmax 400.0 402.258102983 171 0.17100000000000012
step: 172 0.17200000000000013
minmax 400.0 402.194956191 172 0.17200000000000013
step: 173 0.17300000000000013
minmax 400.0 402.133575274 173 0.17300000000000013
step: 174 0.17400000000000013
minmax 400.0 402.073910849 174 0.17400000000000013
step: 175 0.17500000000000013
minmax 400.0 402.015914916 175 0.17500000000000013
step: 176 0.17600000000000013
minmax 400.0 401.959540815 176 0.17600000000000013
step: 177 0.17700000000000013
minmax 400.0 401.904743193 177 0.17700000000000013
step: 178 0.17800000000000013
minmax 400.0 401.851477963 178 0.17800000000000013
step: 179 0.17900000000000013
minmax 400.0 401.799702273 179 0.17900000000000013
step: 180 0.18000000000000013
minmax 400.0 401.749374468 180 0.18000000000000013
step: 181 0.18100000000000013
minmax 400.0 401.700454059 181 0.18100000000000013
step: 182 0.18200000000000013
minmax 400.0 401.652901688 182 0.18200000000000013
step: 183 0.18300000000000013
minmax 400.0 401.606679098 183 0.18300000000000013
step: 184 0.18400000000000014
minmax 400.0 401.561749103 184 0.18400000000000014
step: 185 0.18500000000000014
minmax 400.0 401.518075555 185 0.18500000000000014
step: 186 0.18600000000000014
minmax 400.0 401.475623319 186 0.18600000000000014
step: 187 0.18700000000000014
minmax 400.0 401.43435824 187 0.18700000000000014
step: 188 0.18800000000000014
minmax 400.0 401.394247122 188 0.18800000000000014
step: 189 0.18900000000000014
minmax 400.0 401.355257692 189 0.18900000000000014
step: 190 0.19000000000000014
minmax 400.0 401.317358584 190 0.19000000000000014
step: 191 0.19100000000000014
minmax 400.0 401.280519308 191 0.19100000000000014
step: 192 0.19200000000000014
minmax 400.0 401.244710225 192 0.19200000000000014
step: 193 0.19300000000000014
minmax 400.0 401.209902526 193 0.19300000000000014
step: 194 0.19400000000000014
minmax 400.0 401.176068209 194 0.19400000000000014
step: 195 0.19500000000000015
minmax 400.0 401.143180052 195 0.19500000000000015
step: 196 0.19600000000000015
minmax 400.0 401.111211598 196 0.19600000000000015
step: 197 0.19700000000000015
minmax 400.0 401.080137127 197 0.19700000000000015
step: 198 0.19800000000000015
minmax 400.0 401.049931638 198 0.19800000000000015
step: 199 0.19900000000000015
minmax 400.0 401.020570832 199 0.19900000000000015
step: 200 0.20000000000000015
minmax 400.0 400.992031086 200 0.20000000000000015
step: 201 0.20100000000000015
minmax 400.0 400.964289441 201 0.20100000000000015

