minmax 400.0 649.393371331 1 0.001
step: 2 0.002
minmax 400.0 572.446398869 2 0.002
step: 3 0.003
minmax 400.0 535.762269178 3 0.003
step: 4 0.004
minmax 400.0 514.781632581 4 0.004
step: 5 0.005
minmax 400.0 501.054060402 5 0.005
step: 6 0.006
minmax 400.0 491.227661326 6 0.006
step: 7 0.007
minmax 400.0 483.761250391 7 0.007
step: 8 0.008
minmax 400.0 477.841848563 8 0.008
step: 9 0.009000000000000001
minmax 400.0 472.996382424 9 0.009000000000000001
step: 10 0.010000000000000002
minmax 400.0 468.928831044 10 0.010000000000000002
step: 11 0.011000000000000003
minmax 400.0 465.443267754 11 0.011000000000000003
step: 12 0.012000000000000004
minmax 400.0 462.404200207 12 0.012000000000000004
step: 13 0.013000000000000005
minmax 400.0 459.714648669 13 0.013000000000000005
step: 14 0.014000000000000005
minmax 400.0 457.303300252 14 0.014000000000000005
step: 15 0.015000000000000006
minmax 400.0 455.11659548 15 0.015000000000000006
step: 16 0.016000000000000007
minmax 400.0 453.113636129 16 0.016000000000000007
step: 17 0.017000000000000008
minmax 400.0 451.262780892 17 0.017000000000000008
step: 18 0.01800000000000001
minmax 400.0 449.539292452 18 0.01800000000000001
step: 19 0.01900000000000001
minmax 400.0 447.923664226 19 0.01900000000000001
step: 20 0.02000000000000001
minmax 400.0 446.400444545 20 0.02000000000000001
step: 21 0.02100000000000001
minmax 400.0 444.957759778 21 0.02100000000000001
step: 22 0.022000000000000013
minmax 400.0 443.584986892 22 0.022000000000000013
step: 23 0.023000000000000013
minmax 400.0 442.274080048 23 0.023000000000000013
step: 24 0.024000000000000014
minmax 400.0 441.018489444 24 0.024000000000000014
step: 25 0.025000000000000015
minmax 400.0 439.812849116 25 0.025000000000000015
step: 26 0.026000000000000016
minmax 400.0 438.652732862 26 0.026000000000000016
step: 27 0.027000000000000017
minmax 400.0 437.534462607 27 0.027000000000000017
step: 28 0.028000000000000018
minmax 400.0 436.454957431 28 0.028000000000000018
step: 29 0.02900000000000002
minmax 400.0 435.411614333 29 0.02900000000000002
step: 30 0.03000000000000002
minmax 400.0 434.402726041 30 0.03000000000000002
step: 31 0.03100000000000002
minmax 400.0 433.426391419 31 0.03100000000000002
step: 32 0.03200000000000002
minmax 400.0 432.480261204 32 0.03200000000000002
step: 33 0.03300000000000002
minmax 400.0 431.563063366 33 0.03300000000000002
step: 34 0.03400000000000002
minmax 400.0 430.673741864 34 0.03400000000000002
step: 35 0.035000000000000024
minmax 400.0 429.810687253 35 0.035000000000000024
step: 36 0.036000000000000025
minmax 400.0 428.972875937 36 0.036000000000000025
step: 37 0.037000000000000026
minmax 400.0 428.159372663 37 0.037000000000000026
step: 38 0.03800000000000003
minmax 400.0 427.369315703 38 0.03800000000000003
step: 39 0.03900000000000003
minmax 400.0 426.601905019 39 0.03900000000000003
step: 40 0.04000000000000003
minmax 400.0 425.856392763 40 0.04000000000000003
step: 41 0.04100000000000003
minmax 400.0 425.132075669 41 0.04100000000000003
step: 42 0.04200000000000003
minmax 400.0 424.42828891 42 0.04200000000000003
step: 43 0.04300000000000003
minmax 400.0 423.744401148 43 0.04300000000000003
step: 44 0.04400000000000003
minmax 400.0 423.079810524 44 0.04400000000000003
step: 45 0.04500000000000003
minmax 400.0 422.433941389 45 0.04500000000000003
step: 46 0.046000000000000034
minmax 400.0 421.806241636 46 0.046000000000000034
step: 47 0.047000000000000035
minmax 400.0 421.196180503 47 0.047000000000000035
step: 48 0.048000000000000036
minmax 400.0 420.603246758 48 0.048000000000000036
step: 49 0.04900000000000004
minmax 400.0 420.026947184 49 0.04900000000000004
step: 50 0.05000000000000004
minmax 400.0 419.466805308 50 0.05000000000000004
step: 51 0.05100000000000004
minmax 400.0 418.922360323 51 0.05100000000000004
step: 52 0.05200000000000004
minmax 400.0 418.393166169 52 0.05200000000000004
step: 53 0.05300000000000004
minmax 400.0 417.878790731 53 0.05300000000000004
step: 54 0.05400000000000004
minmax 400.0 417.37881515 54 0.05400000000000004
step: 55 0.05500000000000004
minmax 400.0 416.892833208 55 0.05500000000000004
step: 56 0.05600000000000004
minmax 400.0 416.420450785 56 0.05600000000000004
step: 57 0.057000000000000044
minmax 400.0 415.961285366 57 0.057000000000000044
step: 58 0.058000000000000045
minmax 400.0 415.514965594 58 0.058000000000000045
step: 59 0.059000000000000045
minmax 400.0 415.08113087 59 0.059000000000000045
step: 60 0.060000000000000046
minmax 400.0 414.659430967 60 0.060000000000000046
step: 61 0.06100000000000005
minmax 400.0 414.249525684 61 0.06100000000000005
step: 62 0.06200000000000005
minmax 400.0 413.851084518 62 0.06200000000000005
step: 63 0.06300000000000004
minmax 400.0 413.463786355 63 0.06300000000000004
step: 64 0.06400000000000004
minmax 400.0 413.087319173 64 0.06400000000000004
step: 65 0.06500000000000004
minmax 400.0 412.72137977 65 0.06500000000000004
step: 66 0.06600000000000004
minmax 400.0 412.365673494 66 0.06600000000000004
step: 67 0.06700000000000005
minmax 400.0 412.019913991 67 0.06700000000000005
step: 68 0.06800000000000005
minmax 400.0 411.683822958 68 0.06800000000000005
step: 69 0.06900000000000005
minmax 400.0 411.357129913 69 0.06900000000000005
step: 70 0.07000000000000005
minmax 400.0 411.039571965 70 0.07000000000000005
step: 71 0.07100000000000005
minmax 400.0 410.730893598 71 0.07100000000000005
step: 72 0.07200000000000005
minmax 400.0 410.430846457 72 0.07200000000000005
step: 73 0.07300000000000005
minmax 400.0 410.139189147 73 0.07300000000000005
step: 74 0.07400000000000005
minmax 400.0 409.855687036 74 0.07400000000000005
step: 75 0.07500000000000005
minmax 400.0 409.580112059 75 0.07500000000000005
step: 76 0.07600000000000005
minmax 400.0 409.312242537 76 0.07600000000000005
step: 77 0.07700000000000005
minmax 400.0 409.051862995 77 0.07700000000000005
step: 78 0.07800000000000006
minmax 400.0 408.798763988 78 0.07800000000000006
step: 79 0.07900000000000006
minmax 400.0 408.552741929 79 0.07900000000000006
step: 80 0.08000000000000006
minmax 400.0 408.31359893 80 0.08000000000000006
step: 81 0.08100000000000006
minmax 400.0 408.081142635 81 0.08100000000000006
step: 82 0.08200000000000006
minmax 400.0 407.85518607 82 0.08200000000000006
step: 83 0.08300000000000006
minmax 400.0 407.63554749 83 0.08300000000000006
step: 84 0.08400000000000006
minmax 400.0 407.422050235 84 0.08400000000000006
step: 85 0.08500000000000006
minmax 400.0 407.214522582 85 0.08500000000000006
step: 86 0.08600000000000006
minmax 400.0 407.012797612 86 0.08600000000000006
step: 87 0.08700000000000006
minmax 400.0 406.816713076 87 0.08700000000000006
step: 88 0.08800000000000006
minmax 400.0 406.626111258 88 0.08800000000000006
step: 89 0.08900000000000007
minmax 400.0 406.440838855 89 0.08900000000000007
step: 90 0.09000000000000007
minmax 400.0 406.260746851 90 0.09000000000000007
step: 91 0.09100000000000007
minmax 400.0 406.085690395 91 0.09100000000000007
step: 92 0.09200000000000007
minmax 400.0 405.915528687 92 0.09200000000000007
step: 93 0.09300000000000007
minmax 400.0 405.750124866 93 0.09300000000000007
step: 94 0.09400000000000007
minmax 400.0 405.589345896 94 0.09400000000000007
step: 95 0.09500000000000007
minmax 400.0 405.433062461 95 0.09500000000000007
step: 96 0.09600000000000007
minmax 400.0 405.28114886 96 0.09600000000000007
step: 97 0.09700000000000007
minmax 400.0 405.13348291 97 0.09700000000000007
step: 98 0.09800000000000007
minmax 400.0 404.989945842 98 0.09800000000000007
step: 99 0.09900000000000007
minmax 400.0 404.850422207 99 0.09900000000000007
step: 100 0.10000000000000007
minmax 400.0 404.714799787 100 0.10000000000000007
step: 101 0.10100000000000008
minmax 400.0 404.582969499 101 0.10100000000000008
step: 102 0.10200000000000008
minmax 400.0 404.454825312 102 0.10200000000000008
step: 103 0.10300000000000008
minmax 400.0 404.330264159 103 0.10300000000000008
step: 104 0.10400000000000008
minmax 400.0 404.209185854 104 0.10400000000000008
step: 105 0.10500000000000008
minmax 400.0 404.091493014 105 0.10500000000000008
step: 106 0.10600000000000008
minmax 400.0 403.977090978 106 0.10600000000000008
step: 107 0.10700000000000008
minmax 400.0 403.865887732 107 0.10700000000000008
step: 108 0.10800000000000008
minmax 400.0 403.757793835 108 0.10800000000000008
step: 109 0.10900000000000008
minmax 400.0 403.652722346 109 0.10900000000000008
step: 110 0.11000000000000008
minmax 400.0 403.550588756 110 0.11000000000000008
step: 111 0.11100000000000008
minmax 400.0 403.451310918 111 0.11100000000000008
step: 112 0.11200000000000009
minmax 400.0 403.354808984 112 0.11200000000000009
step: 113 0.11300000000000009
minmax 400.0 403.261005335 113 0.11300000000000009
step: 114 0.11400000000000009
minmax 400.0 403.169824525 114 0.11400000000000009
step: 115 0.11500000000000009
minmax 400.0 403.081193218 115 0.11500000000000009
step: 116 0.11600000000000009
minmax 400.0 402.995040126 116 0.11600000000000009
step: 117 0.11700000000000009
minmax 400.0 402.911295956 117 0.11700000000000009
step: 118 0.11800000000000009
minmax 400.0 402.829893354 118 0.11800000000000009
step: 119 0.11900000000000009
minmax 400.0 402.750766845 119 0.11900000000000009
step: 120 0.12000000000000009
minmax 400.0 402.673852789 120 0.12000000000000009
step: 121 0.1210000000000001
minmax 400.0 402.599089323 121 0.1210000000000001
step: 122 0.1220000000000001
minmax 400.0 402.526416315 122 0.1220000000000001
step: 123 0.1230000000000001
minmax 400.0 402.455775313 123 0.1230000000000001
step: 124 0.1240000000000001
minmax 400.0 402.3871095 124 0.1240000000000001
step: 125 0.12500000000000008
minmax 400.0 402.320363649 125 0.12500000000000008
step: 126 0.12600000000000008
minmax 400.0 402.255484076 126 0.12600000000000008
step: 127 0.12700000000000009
minmax 400.0 402.192418597 127 0.12700000000000009
step: 128 0.12800000000000009
minmax 400.0 402.131116489 128 0.12800000000000009
step: 129 0.1290000000000001
minmax 400.0 402.071528446 129 0.1290000000000001
step: 130 0.1300000000000001
minmax 400.0 402.013606541 130 0.1300000000000001
step: 131 0.1310000000000001
minmax 400.0 401.957304188 131 0.1310000000000001
step: 132 0.1320000000000001
minmax 400.0 401.902576102 132 0.1320000000000001
step: 133 0.1330000000000001
minmax 400.0 401.849378266 133 0.1330000000000001
step: 134 0.1340000000000001
minmax 400.0 401.797667891 134 0.1340000000000001
step: 135 0.1350000000000001
minmax 400.0 401.747403388 135 0.1350000000000001
step: 136 0.1360000000000001
minmax 400.0 401.698544328 136 0.1360000000000001
step: 137 0.1370000000000001
minmax 400.0 401.651051414 137 0.1370000000000001
step: 138 0.1380000000000001
minmax 400.0 401.604886447 138 0.1380000000000001
step: 139 0.1390000000000001
minmax 400.0 401.560012296 139 0.1390000000000001
step: 140 0.1400000000000001
minmax 400.0 401.51639287 140 0.1400000000000001
step: 141 0.1410000000000001
minmax 400.0 401.473993083 141 0.1410000000000001
step: 142 0.1420000000000001
minmax 400.0 401.432778836 142 0.1420000000000001
step: 143 0.1430000000000001
minmax 400.0 401.392716977 143 0.1430000000000001
step: 144 0.1440000000000001
minmax 400.0 401.353775287 144 0.1440000000000001
step: 145 0.1450000000000001
minmax 400.0 401.315922443 145 0.1450000000000001
step: 146 0.1460000000000001
minmax 400.0 401.279128 146 0.1460000000000001
step: 147 0.1470000000000001
minmax 400.0 401.243362365 147 0.1470000000000001
step: 148 0.1480000000000001
minmax 400.0 401.208596772 148 0.1480000000000001
step: 149 0.1490000000000001
minmax 400.0 401.174803257 149 0.1490000000000001
step: 150 0.1500000000000001
minmax 400.0 401.141954641 150 0.1500000000000001
step: 151 0.1510000000000001
minmax 400.0 401.110024504 151 0.1510000000000001
step: 152 0.1520000000000001
minmax 400.0 401.078987163 152 0.1520000000000001
step: 153 0.1530000000000001
minmax 400.0 401.048817657 153 0.1530000000000001
step: 154 0.1540000000000001
minmax 400.0 401.019491718 154 0.1540000000000001
step: 155 0.1550000000000001
minmax 400.0 400.99098576 155 0.1550000000000001
step: 156 0.1560000000000001
minmax 400.0 400.963276856 156 0.1560000000000001
step: 157 0.1570000000000001
minmax 400.0 400.93634272 157 0.1570000000000001
step: 158 0.1580000000000001
minmax 400.0 400.910161687 158 0.1580000000000001
step: 159 0.1590000000000001
minmax 400.0 400.884712701 159 0.1590000000000001
step: 160 0.16000000000000011
minmax 400.0 400.859975293 160 0.16000000000000011
step: 161 0.16100000000000012
minmax 400.0 400.835929566 161 0.16100000000000012
step: 162 0.16200000000000012
minmax 400.0 400.812556181 162 0.16200000000000012
step: 163 0.16300000000000012
minmax 400.0 400.789836338 163 0.16300000000000012
step: 164 0.16400000000000012
minmax 400.0 400.767751763 164 0.16400000000000012
step: 165 0.16500000000000012
minmax 400.0 400.746284694 165 0.16500000000000012
step: 166 0.16600000000000012
minmax 400.0 400.725417864 166 0.16600000000000012
step: 167 0.16700000000000012
minmax 400.0 400.705134491 167 0.16700000000000012
step: 168 0.16800000000000012
minmax 400.0 400.685418261 168 0.16800000000000012
step: 169 0.16900000000000012
minmax 400.0 400.666253314 169 0.16900000000000012
step: 170 0.17000000000000012
minmax 400.0 400.647624238 170 0.17000000000000012
step: 171 0.17100000000000012
minmax 400.0 400.629516049 171 0.17100000000000012
step: 172 0.17200000000000013
minmax 400.0 400.611914182 172 0.17200000000000013
step: 173 0.17300000000000013
minmax 400.0 400.59480448 173 0.17300000000000013
step: 174 0.17400000000000013
minmax 400.0 400.578173181 174 0.17400000000000013
step: 175 0.17500000000000013
minmax 400.0 400.562006909 175 0.17500000000000013
step: 176 0.17600000000000013
minmax 400.0 400.546292662 176 0.17600000000000013
step: 177 0.17700000000000013
minmax 400.0 400.5310178 177 0.17700000000000013
step: 178 0.17800000000000013
minmax 400.0 400.516170037 178 0.17800000000000013
step: 179 0.17900000000000013
minmax 400.0 400.501737432 179 0.17900000000000013
step: 180 0.18000000000000013
minmax 400.0 400.487708377 180 0.18000000000000013
step: 181 0.18100000000000013
minmax 400.0 400.474071587 181 0.18100000000000013
step: 182 0.18200000000000013
minmax 400.0 400.460816095 182 0.18200000000000013
step: 183 0.18300000000000013
minmax 400.0 400.447931239 183 0.18300000000000013
step: 184 0.18400000000000014
minmax 400.0 400.435406655 184 0.18400000000000014
step: 185 0.18500000000000014
minmax 400.0 400.423232271 185 0.18500000000000014
step: 186 0.18600000000000014
minmax 400.0 400.411398295 186 0.18600000000000014
step: 187 0.18700000000000014
minmax 400.0 400.399895207 187 0.18700000000000014
step: 188 0.18800000000000014
minmax 400.0 400.388713757 188 0.18800000000000014
step: 189 0.18900000000000014
minmax 400.0 400.377844951 189 0.18900000000000014
step: 190 0.19000000000000014
minmax 400.0 400.367280047 190 0.19000000000000014
step: 191 0.19100000000000014
minmax 400.0 400.357010548 191 0.19100000000000014
step: 192 0.19200000000000014
minmax 400.0 400.347028193 192 0.19200000000000014
step: 193 0.19300000000000014
minmax 400.0 400.337324955 193 0.19300000000000014
step: 194 0.19400000000000014
minmax 400.0 400.327893029 194 0.19400000000000014
step: 195 0.19500000000000015
minmax 400.0 400.318724828 195 0.19500000000000015
step: 196 0.19600000000000015
minmax 400.0 400.309812979 196 0.19600000000000015
step: 197 0.19700000000000015
minmax 400.0 400.301150313 197 0.19700000000000015
step: 198 0.19800000000000015
minmax 400.0 400.292729864 198 0.19800000000000015
step: 199 0.19900000000000015
minmax 400.0 400.284544859 199 0.19900000000000015
step: 200 0.20000000000000015
minmax 400.0 400.276588714 200 0.20000000000000015
step: 201 0.20100000000000015
minmax 400.0 400.268855031 201 0.20100000000000015
step: 202 0.20200000000000015
minmax 400.0 400.261337589 202 0.20200000000000015
step: 203 0.20300000000000015
minmax 400.0 400.254030341 203 0.20300000000000015
step: 204 0.20400000000000015
minmax 400.0 400.246927411 204 0.20400000000000015
step: 205 0.20500000000000015
minmax 400.0 400.240023086 205 0.20500000000000015
step: 206 0.20600000000000016
minmax 400.0 400.233311813 206 0.20600000000000016
step: 207 0.20700000000000016
minmax 400.0 400.226788193 207 0.20700000000000016
step: 208 0.20800000000000016
minmax 400.0 400.220446979 208 0.20800000000000016
step: 209 0.20900000000000016
minmax 400.0 400.214283072 209 0.20900000000000016
step: 210 0.21000000000000016
minmax 400.0 400.208291514 210 0.21000000000000016
step: 211 0.21100000000000016
minmax 400.0 400.202467485 211 0.21100000000000016
step: 212 0.21200000000000016
minmax 400.0 400.196806302 212 0.21200000000000016
step: 213 0.21300000000000016
minmax 400.0 400.19130341 213 0.21300000000000016
step: 214 0.21400000000000016
minmax 400.0 400.185954385 214 0.21400000000000016
step: 215 0.21500000000000016
minmax 400.0 400.180754924 215 0.21500000000000016
step: 216 0.21600000000000016
minmax 400.0 400.175700844 216 0.21600000000000016
step: 217 0.21700000000000016
minmax 400.0 400.170788082 217 0.21700000000000016
step: 218 0.21800000000000017
minmax 400.0 400.166012684 218 0.21800000000000017
step: 219 0.21900000000000017
minmax 400.0 400.161370812 219 0.21900000000000017
step: 220 0.22000000000000017
minmax 400.0 400.156858731 220 0.22000000000000017
step: 221 0.22100000000000017
minmax 400.0 400.152472811 221 0.22100000000000017
step: 222 0.22200000000000017
minmax 400.0 400.148209527 222 0.22200000000000017
step: 223 0.22300000000000017
minmax 400.0 400.144065447 223 0.22300000000000017
step: 224 0.22400000000000017
minmax 400.0 400.140037241 224 0.22400000000000017
step: 225 0.22500000000000017
minmax 400.0 400.136121666 225 0.22500000000000017
step: 226 0.22600000000000017
minmax 400.0 400.132315575 226 0.22600000000000017
step: 227 0.22700000000000017
minmax 400.0 400.128615906 227 0.22700000000000017
step: 228 0.22800000000000017
minmax 400.0 400.125019683 228 0.22800000000000017
step: 229 0.22900000000000018
minmax 400.0 400.121524014 229 0.22900000000000018
step: 230 0.23000000000000018
minmax 400.0 400.118126087 230 0.23000000000000018
step: 231 0.23100000000000018
minmax 400.0 400.114823169 231 0.23100000000000018
step: 232 0.23200000000000018
minmax 400.0 400.111612604 232 0.23200000000000018
step: 233 0.23300000000000018
minmax 400.0 400.10849181 233 0.23300000000000018
step: 234 0.23400000000000018
minmax 400.0 400.105458275 234 0.23400000000000018
step: 235 0.23500000000000018
minmax 400.0 400.102509562 235 0.23500000000000018
step: 236 0.23600000000000018
minmax 400.0 400.099643297 236 0.23600000000000018
step: 237 0.23700000000000018
minmax 400.0 400.096857176 237 0.23700000000000018
step: 238 0.23800000000000018
minmax 400.0 400.094148957 238 0.23800000000000018
step: 239 0.23900000000000018
minmax 400.0 400.091516463 239 0.23900000000000018
step: 240 0.24000000000000019
minmax 400.0 400.088957575 240 0.24000000000000019
step: 241 0.2410000000000002
minmax 400.0 400.086470237 241 0.2410000000000002
step: 242 0.2420000000000002
minmax 400.0 400.084052447 242 0.2420000000000002
step: 243 0.2430000000000002
minmax 400.0 400.081702261 243 0.2430000000000002
step: 244 0.2440000000000002
minmax 400.0 400.079417788 244 0.2440000000000002
step: 245 0.2450000000000002
minmax 400.0 400.077197191 245 0.2450000000000002
step: 246 0.2460000000000002
minmax 400.0 400.075038684 246 0.2460000000000002
step: 247 0.2470000000000002
minmax 400.0 400.072940531 247 0.2470000000000002
step: 248 0.2480000000000002
minmax 400.0 400.070901045 248 0.2480000000000002
step: 249 0.2490000000000002
minmax 400.0 400.068918584 249 0.2490000000000002
step: 250 0.25000000000000017
minmax 400.0 400.066991555 250 0.25000000000000017
step: 251 0.25100000000000017
minmax 400.0 400.065118407 251 0.25100000000000017
step: 252 0.25200000000000017
minmax 400.0 400.063297635 252 0.25200000000000017
step: 253 0.25300000000000017
minmax 400.0 400.061527773 253 0.25300000000000017
step: 254 0.25400000000000017
minmax 400.0 400.059807398 254 0.25400000000000017
step: 255 0.25500000000000017
minmax 400.0 400.058135126 255 0.25500000000000017
step: 256 0.25600000000000017
minmax 400.0 400.056509613 256 0.25600000000000017
step: 257 0.2570000000000002
minmax 400.0 400.05492955 257 0.2570000000000002
step: 258 0.2580000000000002
minmax 400.0 400.053393668 258 0.2580000000000002
step: 259 0.2590000000000002
minmax 400.0 400.05190073 259 0.2590000000000002
step: 260 0.2600000000000002
minmax 400.0 400.050449536 260 0.2600000000000002
step: 261 0.2610000000000002
minmax 400.0 400.049038919 261 0.2610000000000002
step: 262 0.2620000000000002
minmax 400.0 400.047667744 262 0.2620000000000002
step: 263 0.2630000000000002
minmax 400.0 400.046334909 263 0.2630000000000002
step: 264 0.2640000000000002
minmax 400.0 400.045039341 264 0.2640000000000002
step: 265 0.2650000000000002
minmax 400.0 400.043779998 265 0.2650000000000002
step: 266 0.2660000000000002
minmax 400.0 400.042555868 266 0.2660000000000002
step: 267 0.2670000000000002
minmax 400.0 400.041365965 267 0.2670000000000002
step: 268 0.2680000000000002
minmax 400.0 400.040209333 268 0.2680000000000002
step: 269 0.2690000000000002
minmax 400.0 400.039085042 269 0.2690000000000002
step: 270 0.2700000000000002
minmax 400.0 400.037992187 270 0.2700000000000002
step: 271 0.2710000000000002
minmax 400.0 400.03692989 271 0.2710000000000002
step: 272 0.2720000000000002
minmax 400.0 400.035897295 272 0.2720000000000002
step: 273 0.2730000000000002
minmax 400.0 400.034893572 273 0.2730000000000002
step: 274 0.2740000000000002
minmax 400.0 400.033917915 274 0.2740000000000002
step: 275 0.2750000000000002
minmax 400.0 400.032969538 275 0.2750000000000002
step: 276 0.2760000000000002
minmax 400.0 400.032047678 276 0.2760000000000002
step: 277 0.2770000000000002
minmax 400.0 400.031151595 277 0.2770000000000002
step: 278 0.2780000000000002
minmax 400.0 400.030280566 278 0.2780000000000002
step: 279 0.2790000000000002
minmax 400.0 400.029433893 279 0.2790000000000002
step: 280 0.2800000000000002
minmax 400.0 400.028610893 280 0.2800000000000002
step: 281 0.2810000000000002
minmax 400.0 400.027810906 281 0.2810000000000002
step: 282 0.2820000000000002
minmax 400.0 400.027033286 282 0.2820000000000002
step: 283 0.2830000000000002
minmax 400.0 400.02627741 283 0.2830000000000002
step: 284 0.2840000000000002
minmax 400.0 400.025542668 284 0.2840000000000002
step: 285 0.2850000000000002
minmax 400.0 400.024828471 285 0.2850000000000002
step: 286 0.2860000000000002
minmax 400.0 400.024134244 286 0.2860000000000002
step: 287 0.2870000000000002
minmax 400.0 400.023459427 287 0.2870000000000002
step: 288 0.2880000000000002
minmax 400.0 400.022803479 288 0.2880000000000002
step: 289 0.2890000000000002
minmax 400.0 400.022165872 289 0.2890000000000002
step: 290 0.2900000000000002
minmax 400.0 400.021546093 290 0.2900000000000002
step: 291 0.2910000000000002
minmax 400.0 400.020943644 291 0.2910000000000002
step: 292 0.2920000000000002
minmax 400.0 400.02035804 292 0.2920000000000002
step: 293 0.2930000000000002
minmax 400.0 400.01978881 293 0.2930000000000002
step: 294 0.2940000000000002
minmax 400.0 400.019235496 294 0.2940000000000002
step: 295 0.2950000000000002
minmax 400.0 400.018697653 295 0.2950000000000002
step: 296 0.2960000000000002
minmax 400.0 400.018174849 296 0.2960000000000002
step: 297 0.2970000000000002
minmax 400.0 400.017666663 297 0.2970000000000002
step: 298 0.2980000000000002
minmax 400.0 400.017172686 298 0.2980000000000002
step: 299 0.2990000000000002
minmax 400.0 400.016692522 299 0.2990000000000002
step: 300 0.3000000000000002
minmax 400.0 400.016225783 300 0.3000000000000002

