fenics@a12bf1aae5a7:~/shared/thermoplastic_analysis/from_Marco/code$ sudo python3 thermal_analysis.py 
Machine: a12bf1aae5a7
2D-heat-DED version 1.0
xhi, grid_x, grid_d 1 1580 0.0006329113924050633
reading mesh from file input_mesh_files/small_cube_20_elem_0_0005_box_mesh.xml
step: 399 7e-05 n: 0
minmax 25.0 25.0 399 7e-05
step: 400 0.00014 n: 400
minmax 25.0 681.075543024 400 0.00014
step: 401 0.00020999999999999998 n: 401
minmax 25.0 568.379780395 401 0.00020999999999999998
step: 402 0.00028 n: 402
minmax 25.0 542.145116633 402 0.00028
step: 403 0.00034999999999999994 n: 403
minmax 25.0 534.02779138 403 0.00034999999999999994
step: 404 0.0004199999999999999 n: 404
minmax 25.0 531.242476616 404 0.0004199999999999999
step: 405 0.0004899999999999999 n: 405
minmax 25.0 530.24823476 405 0.0004899999999999999
step: 406 0.0005599999999999998 n: 406
minmax 25.0 529.88649421 406 0.0005599999999999998
step: 407 0.0006299999999999998 n: 407
minmax 25.0 529.753333413 407 0.0006299999999999998
step: 408 0.0006999999999999998 n: 408
minmax 25.0 529.703904 408 0.0006999999999999998
step: 409 0.0007699999999999997 n: 409
minmax 25.0 529.68543592 409 0.0007699999999999997
step: 410 0.0008399999999999997 n: 410
minmax 25.0 529.67849903 410 0.0008399999999999997
step: 411 0.0009099999999999997 n: 411
minmax 25.0 529.675881789 411 0.0009099999999999997
step: 412 0.0009799999999999998 n: 412
minmax 25.0 529.674890551 412 0.0009799999999999998
step: 413 0.0010499999999999997 n: 413
minmax 25.0 529.674513927 413 0.0010499999999999997
step: 414 0.0011199999999999997 n: 414
minmax 25.0 529.67437144 414 0.0011199999999999997
step: 415 0.0011899999999999997 n: 415
minmax 25.0 529.674347748 415 0.0011899999999999997
step: 416 0.0012599999999999996 n: 416
minmax 25.0 529.675263539 416 0.0012599999999999996
step: 417 0.0013299999999999996 n: 417
minmax 25.0 529.704051728 417 0.0013299999999999996
step: 418 0.0013999999999999996 n: 418
minmax 25.0 530.603872911 418 0.0013999999999999996
step: 419 0.0014699999999999995 n: 419
minmax 25.0 555.030923092 419 0.0014699999999999995
step: 420 0.0015399999999999995 n: 420
minmax 25.0 414.909976529 420 0.0015399999999999995
step: 421 0.0016099999999999995 n: 421
minmax 25.0 342.78566435 421 0.0016099999999999995
step: 422 0.0016799999999999994 n: 422
minmax 25.0 333.079273813 422 0.0016799999999999994
step: 423 0.0017499999999999994 n: 423
minmax 25.0 330.954272202 423 0.0017499999999999994
step: 424 0.0018199999999999994 n: 424
minmax 25.0 330.306486754 424 0.0018199999999999994
step: 425 0.0018899999999999993 n: 425
minmax 25.0 330.070701362 425 0.0018899999999999993
step: 426 0.0019599999999999995 n: 426
minmax 25.0 329.977893449 426 0.0019599999999999995
step: 427 0.0020299999999999997 n: 427
minmax 25.0 329.940089121 427 0.0020299999999999997
step: 428 0.0021 n: 428
minmax 25.0 329.924249416 428 0.0021
step: 429 0.00217 n: 429
minmax 25.0 329.916991365 429 0.00217
step: 430 0.0022400000000000002 n: 430
minmax 25.0 329.912492454 430 0.0022400000000000002
step: 431 0.0023100000000000004 n: 431
minmax 25.0 329.908020948 431 0.0023100000000000004
step: 432 0.0023800000000000006 n: 432
minmax 25.0 329.902356229 432 0.0023800000000000006
step: 433 0.002450000000000001 n: 433
minmax 25.0 329.895261425 433 0.002450000000000001
step: 434 0.002520000000000001 n: 434
minmax 25.0 329.88720724 434 0.002520000000000001
step: 435 0.002590000000000001 n: 435
minmax 25.0 329.879330057 435 0.002590000000000001
step: 436 0.0026600000000000013 n: 436
minmax 25.0 329.877666194 436 0.0026600000000000013
step: 437 0.0027300000000000015 n: 437
minmax 25.0 329.962923638 437 0.0027300000000000015
step: 438 0.0028000000000000017 n: 438
minmax 25.0 331.388829959 438 0.0028000000000000017
step: 439 0.002870000000000002 n: 439
minmax 25.0 354.126741666 439 0.002870000000000002
step: 440 0.002940000000000002 n: 440
minmax 25.0 413.100044832 440 0.002940000000000002
step: 441 0.0030100000000000023 n: 441
minmax 25.0 339.476216233 441 0.0030100000000000023
step: 442 0.0030800000000000024 n: 442
minmax 25.0 329.127746485 442 0.0030800000000000024
step: 443 0.0031500000000000026 n: 443
minmax 25.0 326.87450317 443 0.0031500000000000026
step: 444 0.003220000000000003 n: 444
minmax 25.0 326.246114714 444 0.003220000000000003
step: 445 0.003290000000000003 n: 445
minmax 25.0 326.04240912 445 0.003290000000000003
step: 446 0.003360000000000003 n: 446
minmax 25.0 325.969334864 446 0.003360000000000003
step: 447 0.0034300000000000034 n: 447
minmax 25.0 325.941234456 447 0.0034300000000000034
step: 448 0.0035000000000000035 n: 448
minmax 25.0 325.929855509 448 0.0035000000000000035
step: 449 0.0035700000000000037 n: 449
minmax 25.0 325.924849795 449 0.0035700000000000037
step: 450 0.003640000000000004 n: 450
minmax 25.0 325.92195924 450 0.003640000000000004
step: 451 0.003710000000000004 n: 451
minmax 25.0 325.919164532 451 0.003710000000000004
step: 452 0.0037800000000000043 n: 452
minmax 25.0 325.915448845 452 0.0037800000000000043
step: 453 0.0038500000000000045 n: 453
minmax 25.0 325.910458341 453 0.0038500000000000045
step: 454 0.003920000000000004 n: 454
minmax 25.0 325.904389549 454 0.003920000000000004
step: 455 0.003990000000000004 n: 455
minmax 25.0 325.898044812 455 0.003990000000000004
step: 456 0.004060000000000004 n: 456
minmax 25.0 325.895941425 456 0.004060000000000004
step: 457 0.0041300000000000035 n: 457
minmax 25.0 325.956906456 457 0.0041300000000000035
step: 458 0.004200000000000003 n: 458
minmax 25.0 327.065173291 458 0.004200000000000003
step: 459 0.004270000000000003 n: 459
minmax 25.0 347.712695734 459 0.004270000000000003
step: 460 0.004340000000000003 n: 460
minmax 25.0 413.01420349 460 0.004340000000000003
step: 461 0.0044100000000000025 n: 461
minmax 25.0 339.268092071 461 0.0044100000000000025
step: 462 0.004480000000000002 n: 462
minmax 25.0 328.807743278 462 0.004480000000000002
step: 463 0.004550000000000002 n: 463
minmax 25.0 326.491077867 463 0.004550000000000002
step: 464 0.004620000000000002 n: 464
minmax 25.0 325.838569454 464 0.004620000000000002
step: 465 0.0046900000000000015 n: 465
minmax 25.0 325.629428153 465 0.0046900000000000015
step: 466 0.004760000000000001 n: 466
minmax 25.0 325.556864162 466 0.004760000000000001
step: 467 0.004830000000000001 n: 467
minmax 25.0 325.530218429 467 0.004830000000000001
step: 468 0.004900000000000001 n: 468
minmax 25.0 325.519944246 468 0.004900000000000001
step: 469 0.0049700000000000005 n: 469
minmax 25.0 325.515641732 469 0.0049700000000000005
step: 470 0.00504 n: 470
minmax 25.0 325.513284243 470 0.00504
step: 471 0.00511 n: 471
minmax 25.0 325.511079849 471 0.00511
step: 472 0.00518 n: 472
minmax 25.0 325.508153571 472 0.00518
step: 473 0.0052499999999999995 n: 473
minmax 25.0 325.504180838 473 0.0052499999999999995
step: 474 0.005319999999999999 n: 474
minmax 25.0 325.499281474 474 0.005319999999999999
step: 475 0.005389999999999999 n: 475
minmax 25.0 325.494080134 475 0.005389999999999999
step: 476 0.005459999999999999 n: 476
minmax 25.0 325.492403975 476 0.005459999999999999
step: 477 0.0055299999999999985 n: 477
minmax 25.0 325.54736204 477 0.0055299999999999985
step: 478 0.005599999999999998 n: 478
minmax 25.0 326.601444715 478 0.005599999999999998
step: 479 0.005669999999999998 n: 479
minmax 25.0 347.020272018 479 0.005669999999999998
step: 480 0.005739999999999998 n: 480
minmax 25.0 412.998641852 480 0.005739999999999998
step: 481 0.0058099999999999975 n: 481
minmax 25.0 339.245264027 481 0.0058099999999999975
step: 482 0.005879999999999997 n: 482
minmax 25.0 328.773833986 482 0.005879999999999997
step: 483 0.005949999999999997 n: 483
minmax 25.0 326.446753609 483 0.005949999999999997
step: 484 0.006019999999999997 n: 484
minmax 25.0 325.787407934 484 0.006019999999999997
step: 485 0.0060899999999999965 n: 485
minmax 25.0 325.574864193 485 0.0060899999999999965
step: 486 0.006159999999999996 n: 486
minmax 25.0 325.501000888 486 0.006159999999999996
step: 487 0.006229999999999996 n: 487
minmax 25.0 325.47402114 487 0.006229999999999996
step: 488 0.006299999999999996 n: 488
minmax 25.0 325.463756037 488 0.006299999999999996
step: 489 0.0063699999999999955 n: 489
minmax 25.0 325.459566716 489 0.0063699999999999955
step: 490 0.006439999999999995 n: 490
minmax 25.0 325.4573961 490 0.006439999999999995
step: 491 0.006509999999999995 n: 491
minmax 25.0 325.45551299 491 0.006509999999999995
step: 492 0.006579999999999995 n: 492
minmax 25.0 325.45311642 492 0.006579999999999995
step: 493 0.0066499999999999945 n: 493
minmax 25.0 325.449914198 493 0.0066499999999999945
step: 494 0.006719999999999994 n: 494
minmax 25.0 325.445990079 494 0.006719999999999994
step: 495 0.006789999999999994 n: 495
minmax 25.0 325.441861521 495 0.006789999999999994
step: 496 0.006859999999999994 n: 496
minmax 25.0 325.441101484 496 0.006859999999999994
step: 497 0.0069299999999999935 n: 497
minmax 25.0 325.495686965 497 0.0069299999999999935
step: 498 0.006999999999999993 n: 498
minmax 25.0 326.542596623 498 0.006999999999999993
step: 499 0.007069999999999993 n: 499
minmax 25.0 346.935674311 499 0.007069999999999993
step: 500 0.007139999999999993 n: 500
minmax 25.0 412.990829978 500 0.007139999999999993
step: 501 0.0072099999999999925 n: 501
minmax 25.0 339.237616022 501 0.0072099999999999925
step: 502 0.007279999999999992 n: 502
minmax 25.0 328.765798697 502 0.007279999999999992
step: 503 0.007349999999999992 n: 503
minmax 25.0 326.437790823 503 0.007349999999999992
step: 504 0.007419999999999992 n: 504
minmax 25.0 325.777463858 504 0.007419999999999992
step: 505 0.0074899999999999915 n: 505
minmax 25.0 325.564188325 505 0.0074899999999999915
step: 506 0.007559999999999991 n: 506
minmax 25.0 325.489893094 506 0.007559999999999991
step: 507 0.007629999999999991 n: 507
minmax 25.0 325.462701834 507 0.007629999999999991
step: 508 0.007699999999999991 n: 508
minmax 25.0 325.452350467 508 0.007699999999999991
step: 509 0.0077699999999999905 n: 509
minmax 25.0 325.448140878 509 0.0077699999999999905
step: 510 0.007839999999999991 n: 510
minmax 25.0 325.446002739 510 0.007839999999999991
step: 511 0.007909999999999992 n: 511
minmax 25.0 325.444228425 511 0.007909999999999992
step: 512 0.007979999999999992 n: 512
minmax 25.0 325.44205663 512 0.007979999999999992
step: 513 0.008049999999999993 n: 513
minmax 25.0 325.439224381 513 0.008049999999999993
step: 514 0.008119999999999994 n: 514
minmax 25.0 325.435813033 514 0.008119999999999994
step: 515 0.008189999999999994 n: 515
minmax 25.0 325.432298486 515 0.008189999999999994
step: 516 0.008259999999999995 n: 516
minmax 25.0 325.432164811 516 0.008259999999999995
step: 517 0.008329999999999995 n: 517
minmax 25.0 325.487161929 517 0.008329999999999995
step: 518 0.008399999999999996 n: 518
minmax 25.0 326.533534352 518 0.008399999999999996
step: 519 0.008469999999999997 n: 519
minmax 25.0 346.92387085 519 0.008469999999999997
step: 520 0.008539999999999997 n: 520
minmax 25.0 412.987280327 520 0.008539999999999997
step: 521 0.008609999999999998 n: 521
minmax 25.0 339.234293341 521 0.008609999999999998
step: 522 0.008679999999999998 n: 522
minmax 25.0 328.762684715 522 0.008679999999999998
step: 523 0.008749999999999999 n: 523
minmax 25.0 326.434733114 523 0.008749999999999999
step: 524 0.00882 n: 524
minmax 25.0 325.774363609 524 0.00882
step: 525 0.00889 n: 525
minmax 25.0 325.561011249 525 0.00889
step: 526 0.008960000000000001 n: 526
minmax 25.0 325.486645607 526 0.008960000000000001
step: 527 0.009030000000000002 n: 527
minmax 25.0 325.459404413 527 0.009030000000000002
step: 528 0.009100000000000002 n: 528
minmax 25.0 325.44902177 528 0.009100000000000002
step: 529 0.009170000000000003 n: 529
minmax 25.0 325.444794245 529 0.009170000000000003
step: 530 0.009240000000000003 n: 530
minmax 25.0 325.442651768 530 0.009240000000000003
step: 531 0.009310000000000004 n: 531
minmax 25.0 325.440896752 531 0.009310000000000004
step: 532 0.009380000000000005 n: 532
minmax 25.0 325.438785752 532 0.009380000000000005
step: 533 0.009450000000000005 n: 533
minmax 25.0 325.436073718 533 0.009450000000000005
step: 534 0.009520000000000006 n: 534
minmax 25.0 325.432850319 534 0.009520000000000006
step: 535 0.009590000000000007 n: 535
minmax 25.0 325.429583881 535 0.009590000000000007
step: 536 0.009660000000000007 n: 536
minmax 25.0 325.429732909 536 0.009660000000000007
step: 537 0.009730000000000008 n: 537
minmax 25.0 325.484995501 537 0.009730000000000008
step: 538 0.009800000000000008 n: 538
minmax 25.0 326.531503405 538 0.009800000000000008
step: 539 0.009870000000000009 n: 539
minmax 25.0 346.921688095 539 0.009870000000000009
step: 540 0.00994000000000001 n: 540
minmax 25.0 412.98596478 540 0.00994000000000001
step: 541 0.01001000000000001 n: 541
minmax 25.0 339.23304302 541 0.01001000000000001
step: 542 0.01008000000000001 n: 542
minmax 25.0 328.761523557 542 0.01008000000000001
step: 543 0.010150000000000011 n: 543
minmax 25.0 326.43362802 543 0.010150000000000011
step: 544 0.010220000000000012 n: 544
minmax 25.0 325.773285316 544 0.010220000000000012
step: 545 0.010290000000000013 n: 545
minmax 25.0 325.559940931 545 0.010290000000000013
step: 546 0.010360000000000013 n: 546
minmax 25.0 325.485573826 546 0.010360000000000013
step: 547 0.010430000000000014 n: 547
minmax 25.0 325.458327734 547 0.010430000000000014
step: 548 0.010500000000000015 n: 548
minmax 25.0 325.447939375 548 0.010500000000000015
step: 549 0.010570000000000015 n: 549
minmax 25.0 325.443705994 549 0.010570000000000015
step: 550 0.010640000000000016 n: 550
minmax 25.0 325.44155842 550 0.010640000000000016
step: 551 0.010710000000000016 n: 551
minmax 25.0 325.439802169 551 0.010710000000000016
step: 552 0.010780000000000017 n: 552
minmax 25.0 325.437699797 552 0.010780000000000017
step: 553 0.010850000000000018 n: 553
minmax 25.0 325.435013752 553 0.010850000000000018
step: 554 0.010920000000000018 n: 554
minmax 25.0 325.431839695 554 0.010920000000000018
step: 555 0.010990000000000019 n: 555
minmax 25.0 325.428647447 555 0.010990000000000019
step: 556 0.01106000000000002 n: 556
minmax 25.0 325.428890893 556 0.01106000000000002
step: 557 0.01113000000000002 n: 557
minmax 25.0 325.484256533 557 0.01113000000000002
step: 558 0.01120000000000002 n: 558
minmax 25.0 326.53085532 558 0.01120000000000002
step: 559 0.011270000000000021 n: 559
minmax 25.0 346.921095353 559 0.011270000000000021
step: 560 0.011340000000000022 n: 560
minmax 25.0 412.98555209 560 0.011340000000000022
step: 561 0.011410000000000023 n: 561
minmax 25.0 339.232641075 561 0.011410000000000023
step: 562 0.011480000000000023 n: 562
minmax 25.0 328.761145403 562 0.011480000000000023
step: 563 0.011550000000000024 n: 563
minmax 25.0 326.433268192 563 0.011550000000000024
step: 564 0.011620000000000024 n: 564
minmax 25.0 325.77293747 564 0.011620000000000024
step: 565 0.011690000000000025 n: 565
minmax 25.0 325.559599999 565 0.011690000000000025
step: 566 0.011760000000000026 n: 566
minmax 25.0 325.485236331 566 0.011760000000000026
step: 567 0.011830000000000026 n: 567
minmax 25.0 325.457991515 567 0.011830000000000026
step: 568 0.011900000000000027 n: 568
minmax 25.0 325.447603069 568 0.011900000000000027
step: 569 0.011970000000000027 n: 569
minmax 25.0 325.443368563 569 0.011970000000000027
step: 570 0.012040000000000028 n: 570
minmax 25.0 325.441219031 570 0.012040000000000028
step: 571 0.012110000000000029 n: 571
minmax 25.0 325.439460613 571 0.012110000000000029
step: 572 0.01218000000000003 n: 572
minmax 25.0 325.437357341 572 0.01218000000000003
step: 573 0.01225000000000003 n: 573
minmax 25.0 325.43467395 573 0.01225000000000003
step: 574 0.01232000000000003 n: 574
minmax 25.0 325.431508559 574 0.01232000000000003
step: 575 0.012390000000000031 n: 575
minmax 25.0 325.428332658 575 0.012390000000000031
step: 576 0.012460000000000032 n: 576
minmax 25.0 325.42860021 576 0.012460000000000032
step: 577 0.012530000000000032 n: 577
minmax 25.0 325.483995795 577 0.012530000000000032
step: 578 0.012600000000000033 n: 578
minmax 25.0 326.530626448 578 0.012600000000000033
step: 579 0.012670000000000034 n: 579
minmax 25.0 346.920896867 579 0.012670000000000034
step: 580 0.012740000000000034 n: 580
minmax 25.0 412.985438588 580 0.012740000000000034
step: 581 0.012810000000000035 n: 581
minmax 25.0 339.23252755 581 0.012810000000000035
step: 582 0.012880000000000036 n: 582
minmax 25.0 328.761036535 582 0.012880000000000036
step: 583 0.012950000000000036 n: 583
minmax 25.0 326.4331636 583 0.012950000000000036
step: 584 0.013020000000000037 n: 584
minmax 25.0 325.772836176 584 0.013020000000000037
step: 585 0.013090000000000037 n: 585
minmax 25.0 325.559501018 585 0.013090000000000037
step: 586 0.013160000000000038 n: 586
minmax 25.0 325.485138841 586 0.013160000000000038
step: 587 0.013230000000000039 n: 587
minmax 25.0 325.457894891 587 0.013230000000000039
step: 588 0.01330000000000004 n: 588
minmax 25.0 325.447506827 588 0.01330000000000004
step: 589 0.01337000000000004 n: 589
minmax 25.0 325.443272272 589 0.01337000000000004
step: 590 0.01344000000000004 n: 590
minmax 25.0 325.441122257 590 0.01344000000000004
step: 591 0.013510000000000041 n: 591
minmax 25.0 325.439362976 591 0.013510000000000041
step: 592 0.013580000000000042 n: 592
minmax 25.0 325.437258708 592 0.013580000000000042
step: 593 0.013650000000000042 n: 593
minmax 25.0 325.43457471 593 0.013650000000000042
step: 594 0.013720000000000043 n: 594
minmax 25.0 325.431409822 594 0.013720000000000043
step: 595 0.013790000000000044 n: 595
minmax 25.0 325.428236236 595 0.013790000000000044
step: 596 0.013860000000000044 n: 596
minmax 25.0 325.428508332 596 0.013860000000000044
step: 597 0.013930000000000045 n: 597
minmax 25.0 325.483910633 597 0.013930000000000045
step: 598 0.014000000000000045 n: 598
minmax 25.0 326.53054962 598 0.014000000000000045
minmax after deposition and before cooling start 25.0 326.53054962 598 0.014000000000000045
cooling step: 599 0.014070000000000046
minmax 25.0 111.98176382 599 0.014070000000000046
cooling step: 600 0.014140000000000047
minmax 25.0 59.8223610001 600 0.014140000000000047
cooling step: 601 0.014210000000000047
minmax 25.0 41.8208000839 601 0.014210000000000047
cooling step: 602 0.014280000000000048
minmax 25.0 33.9925692984 602 0.014280000000000048
cooling step: 603 0.014350000000000048
minmax 25.0 30.0973611947 603 0.014350000000000048
cooling step: 604 0.014420000000000049
minmax 25.0 27.9987308969 604 0.014420000000000049
cooling step: 605 0.01449000000000005
minmax 25.0 26.8723484947 605 0.01449000000000005
cooling step: 606 0.01456000000000005
minmax 25.0 26.1908786664 606 0.01456000000000005
cooling step: 607 0.014630000000000051
minmax 25.0 25.7619494619 607 0.014630000000000051
cooling step: 608 0.014700000000000052
minmax 25.0 25.4902106209 608 0.014700000000000052
cooling step: 609 0.014770000000000052
minmax 25.0 25.3169797948 609 0.014770000000000052
cooling step: 610 0.014840000000000053
minmax 25.0 25.2068199386 610 0.014840000000000053
cooling step: 611 0.014910000000000053
minmax 25.0 25.1360330936 611 0.014910000000000053
cooling step: 612 0.014980000000000054
minmax 25.0 25.0897140011 612 0.014980000000000054
cooling step: 613 0.015050000000000055
minmax 25.0 25.0593188155 613 0.015050000000000055
cooling step: 614 0.015120000000000055
minmax 25.0 25.0393178719 614 0.015120000000000055
cooling step: 615 0.015190000000000056
minmax 25.0 25.0261216934 615 0.015190000000000056
cooling step: 616 0.015260000000000057
minmax 25.0 25.0173930957 616 0.015260000000000057
cooling step: 617 0.015330000000000057
minmax 25.0 25.0116739239 617 0.015330000000000057
cooling step: 618 0.015400000000000058
minmax 25.0 25.0078611137 618 0.015400000000000058
cooling step: 619 0.015470000000000058
minmax 25.0 25.0053009965 619 0.015470000000000058
cooling step: 620 0.015540000000000059
minmax 25.0 25.0035795647 620 0.015540000000000059
cooling step: 621 0.01561000000000006
minmax 25.0 25.0024204263 621 0.01561000000000006
cooling step: 622 0.01568000000000006
minmax 25.0 25.0016388138 622 0.01568000000000006
cooling step: 623 0.01575000000000006
minmax 25.0 25.0011110377 623 0.01575000000000006
cooling step: 624 0.01582000000000006
minmax 25.0 25.0007541771 624 0.01582000000000006
cooling step: 625 0.01589000000000006
minmax 25.0 25.0007541771 625 0.01589000000000006
cooling step: 626 0.01596000000000006
minmax 25.0 25.0007541771 626 0.01596000000000006
cooling step: 627 0.01603000000000006
minmax 25.0 25.0007541771 627 0.01603000000000006
cooling step: 628 0.016100000000000062
minmax 25.0 25.0007541771 628 0.016100000000000062
cooling step: 629 0.016170000000000063
minmax 25.0 25.0007541771 629 0.016170000000000063
cooling step: 630 0.016240000000000063
minmax 25.0 25.0007541771 630 0.016240000000000063
cooling step: 631 0.016310000000000064
minmax 25.0 25.0007541771 631 0.016310000000000064
cooling step: 632 0.016380000000000065
minmax 25.0 25.0007541771 632 0.016380000000000065
cooling step: 633 0.016450000000000065
minmax 25.0 25.0007541771 633 0.016450000000000065
cooling step: 634 0.016520000000000066
minmax 25.0 25.0007541771 634 0.016520000000000066
cooling step: 635 0.016590000000000066
minmax 25.0 25.0007541771 635 0.016590000000000066
cooling step: 636 0.016660000000000067
minmax 25.0 25.0007541771 636 0.016660000000000067
cooling step: 637 0.016730000000000068
minmax 25.0 25.0007541771 637 0.016730000000000068
cooling step: 638 0.01680000000000007
minmax 25.0 25.0007541771 638 0.01680000000000007
cooling step: 639 0.01687000000000007
minmax 25.0 25.0007541771 639 0.01687000000000007
cooling step: 640 0.01694000000000007
minmax 25.0 25.0007541771 640 0.01694000000000007
cooling step: 641 0.01701000000000007
minmax 25.0 25.0007541771 641 0.01701000000000007
cooling step: 642 0.01708000000000007
minmax 25.0 25.0007541771 642 0.01708000000000007
cooling step: 643 0.01715000000000007
minmax 25.0 25.0007541771 643 0.01715000000000007
cooling step: 644 0.017220000000000072
minmax 25.0 25.0007541771 644 0.017220000000000072
cooling step: 645 0.017290000000000073
minmax 25.0 25.0007541771 645 0.017290000000000073
cooling step: 646 0.017360000000000073
minmax 25.0 25.0007541771 646 0.017360000000000073
cooling step: 647 0.017430000000000074
minmax 25.0 25.0007541771 647 0.017430000000000074
cooling step: 648 0.017500000000000075
minmax 25.0 25.0007541771 648 0.017500000000000075
cooling step: 649 0.017570000000000075
minmax 25.0 25.0007541771 649 0.017570000000000075
cooling step: 650 0.017640000000000076
minmax 25.0 25.0007541771 650 0.017640000000000076
cooling step: 651 0.017710000000000076
minmax 25.0 25.0007541771 651 0.017710000000000076
cooling step: 652 0.017780000000000077
minmax 25.0 25.0007541771 652 0.017780000000000077
cooling step: 653 0.017850000000000078
minmax 25.0 25.0007541771 653 0.017850000000000078
cooling step: 654 0.017920000000000078
minmax 25.0 25.0007541771 654 0.017920000000000078
cooling step: 655 0.01799000000000008
minmax 25.0 25.0007541771 655 0.01799000000000008
cooling step: 656 0.01806000000000008
minmax 25.0 25.0007541771 656 0.01806000000000008
cooling step: 657 0.01813000000000008
minmax 25.0 25.0007541771 657 0.01813000000000008
cooling step: 658 0.01820000000000008
minmax 25.0 25.0007541771 658 0.01820000000000008
cooling step: 659 0.01827000000000008
minmax 25.0 25.0007541771 659 0.01827000000000008
cooling step: 660 0.018340000000000082
minmax 25.0 25.0007541771 660 0.018340000000000082
cooling step: 661 0.018410000000000083
minmax 25.0 25.0007541771 661 0.018410000000000083
cooling step: 662 0.018480000000000083
minmax 25.0 25.0007541771 662 0.018480000000000083
cooling step: 663 0.018550000000000084
minmax 25.0 25.0007541771 663 0.018550000000000084
cooling step: 664 0.018620000000000084
minmax 25.0 25.0007541771 664 0.018620000000000084
cooling step: 665 0.018690000000000085
minmax 25.0 25.0007541771 665 0.018690000000000085
cooling step: 666 0.018760000000000086
minmax 25.0 25.0007541771 666 0.018760000000000086
cooling step: 667 0.018830000000000086
minmax 25.0 25.0007541771 667 0.018830000000000086
cooling step: 668 0.018900000000000087
minmax 25.0 25.0007541771 668 0.018900000000000087
cooling step: 669 0.018970000000000087
minmax 25.0 25.0007541771 669 0.018970000000000087
cooling step: 670 0.019040000000000088
minmax 25.0 25.0007541771 670 0.019040000000000088
cooling step: 671 0.01911000000000009
minmax 25.0 25.0007541771 671 0.01911000000000009
cooling step: 672 0.01918000000000009
minmax 25.0 25.0007541771 672 0.01918000000000009
cooling step: 673 0.01925000000000009
minmax 25.0 25.0007541771 673 0.01925000000000009
cooling step: 674 0.01932000000000009
minmax 25.0 25.0007541771 674 0.01932000000000009
cooling step: 675 0.01939000000000009
minmax 25.0 25.0007541771 675 0.01939000000000009
cooling step: 676 0.019460000000000092
minmax 25.0 25.0007541771 676 0.019460000000000092
cooling step: 677 0.019530000000000092
minmax 25.0 25.0007541771 677 0.019530000000000092
cooling step: 678 0.019600000000000093
minmax 25.0 25.0007541771 678 0.019600000000000093
cooling step: 679 0.019670000000000094
minmax 25.0 25.0007541771 679 0.019670000000000094
cooling step: 680 0.019740000000000094
minmax 25.0 25.0007541771 680 0.019740000000000094
cooling step: 681 0.019810000000000095
minmax 25.0 25.0007541771 681 0.019810000000000095
cooling step: 682 0.019880000000000096
minmax 25.0 25.0007541771 682 0.019880000000000096
cooling step: 683 0.019950000000000096
minmax 25.0 25.0007541771 683 0.019950000000000096
cooling step: 684 0.020020000000000097
minmax 25.0 25.0007541771 684 0.020020000000000097
cooling step: 685 0.020090000000000097
minmax 25.0 25.0007541771 685 0.020090000000000097
cooling step: 686 0.020160000000000098
minmax 25.0 25.0007541771 686 0.020160000000000098
cooling step: 687 0.0202300000000001
minmax 25.0 25.0007541771 687 0.0202300000000001
cooling step: 688 0.0203000000000001
minmax 25.0 25.0007541771 688 0.0203000000000001
cooling step: 689 0.0203700000000001
minmax 25.0 25.0007541771 689 0.0203700000000001
cooling step: 690 0.0204400000000001
minmax 25.0 25.0007541771 690 0.0204400000000001
cooling step: 691 0.0205100000000001
minmax 25.0 25.0007541771 691 0.0205100000000001
cooling step: 692 0.0205800000000001
minmax 25.0 25.0007541771 692 0.0205800000000001
cooling step: 693 0.020650000000000102
minmax 25.0 25.0007541771 693 0.020650000000000102
cooling step: 694 0.020720000000000103
minmax 25.0 25.0007541771 694 0.020720000000000103
cooling step: 695 0.020790000000000104
minmax 25.0 25.0007541771 695 0.020790000000000104
cooling step: 696 0.020860000000000104
minmax 25.0 25.0007541771 696 0.020860000000000104
cooling step: 697 0.020930000000000105
minmax 25.0 25.0007541771 697 0.020930000000000105
cooling step: 698 0.021000000000000105
minmax 25.0 25.0007541771 698 0.021000000000000105
cooling step: 699 0.021070000000000106
minmax 25.0 25.0007541771 699 0.021070000000000106
cooling step: 700 0.021140000000000107
minmax 25.0 25.0007541771 700 0.021140000000000107
cooling step: 701 0.021210000000000107
minmax 25.0 25.0007541771 701 0.021210000000000107
cooling step: 702 0.021280000000000108
minmax 25.0 25.0007541771 702 0.021280000000000108
cooling step: 703 0.02135000000000011
minmax 25.0 25.0007541771 703 0.02135000000000011
cooling step: 704 0.02142000000000011
minmax 25.0 25.0007541771 704 0.02142000000000011
cooling step: 705 0.02149000000000011
minmax 25.0 25.0007541771 705 0.02149000000000011
cooling step: 706 0.02156000000000011
minmax 25.0 25.0007541771 706 0.02156000000000011
cooling step: 707 0.02163000000000011
minmax 25.0 25.0007541771 707 0.02163000000000011
cooling step: 708 0.02170000000000011
minmax 25.0 25.0007541771 708 0.02170000000000011
cooling step: 709 0.021770000000000112
minmax 25.0 25.0007541771 709 0.021770000000000112
cooling step: 710 0.021840000000000113
minmax 25.0 25.0007541771 710 0.021840000000000113
cooling step: 711 0.021910000000000113
minmax 25.0 25.0007541771 711 0.021910000000000113
cooling step: 712 0.021980000000000114
minmax 25.0 25.0007541771 712 0.021980000000000114
cooling step: 713 0.022050000000000115
minmax 25.0 25.0007541771 713 0.022050000000000115
cooling step: 714 0.022120000000000115
minmax 25.0 25.0007541771 714 0.022120000000000115
cooling step: 715 0.022190000000000116
minmax 25.0 25.0007541771 715 0.022190000000000116
cooling step: 716 0.022260000000000116
minmax 25.0 25.0007541771 716 0.022260000000000116
cooling step: 717 0.022330000000000117
minmax 25.0 25.0007541771 717 0.022330000000000117
cooling step: 718 0.022400000000000118
minmax 25.0 25.0007541771 718 0.022400000000000118
cooling step: 719 0.02247000000000012
minmax 25.0 25.0007541771 719 0.02247000000000012
cooling step: 720 0.02254000000000012
minmax 25.0 25.0007541771 720 0.02254000000000012
cooling step: 721 0.02261000000000012
minmax 25.0 25.0007541771 721 0.02261000000000012
cooling step: 722 0.02268000000000012
minmax 25.0 25.0007541771 722 0.02268000000000012
cooling step: 723 0.02275000000000012
minmax 25.0 25.0007541771 723 0.02275000000000012
cooling step: 724 0.02282000000000012
minmax 25.0 25.0007541771 724 0.02282000000000012
cooling step: 725 0.022890000000000122
minmax 25.0 25.0007541771 725 0.022890000000000122
cooling step: 726 0.022960000000000123
minmax 25.0 25.0007541771 726 0.022960000000000123
cooling step: 727 0.023030000000000123
minmax 25.0 25.0007541771 727 0.023030000000000123
cooling step: 728 0.023100000000000124
minmax 25.0 25.0007541771 728 0.023100000000000124
cooling step: 729 0.023170000000000125
minmax 25.0 25.0007541771 729 0.023170000000000125
cooling step: 730 0.023240000000000125
minmax 25.0 25.0007541771 730 0.023240000000000125
cooling step: 731 0.023310000000000126
minmax 25.0 25.0007541771 731 0.023310000000000126
cooling step: 732 0.023380000000000126
minmax 25.0 25.0007541771 732 0.023380000000000126
cooling step: 733 0.023450000000000127
minmax 25.0 25.0007541771 733 0.023450000000000127
cooling step: 734 0.023520000000000128
minmax 25.0 25.0007541771 734 0.023520000000000128
cooling step: 735 0.023590000000000128
minmax 25.0 25.0007541771 735 0.023590000000000128
cooling step: 736 0.02366000000000013
minmax 25.0 25.0007541771 736 0.02366000000000013
cooling step: 737 0.02373000000000013
minmax 25.0 25.0007541771 737 0.02373000000000013
cooling step: 738 0.02380000000000013
minmax 25.0 25.0007541771 738 0.02380000000000013
cooling step: 739 0.02387000000000013
minmax 25.0 25.0007541771 739 0.02387000000000013
cooling step: 740 0.02394000000000013
minmax 25.0 25.0007541771 740 0.02394000000000013
cooling step: 741 0.024010000000000132
minmax 25.0 25.0007541771 741 0.024010000000000132
cooling step: 742 0.024080000000000133
minmax 25.0 25.0007541771 742 0.024080000000000133
cooling step: 743 0.024150000000000133
minmax 25.0 25.0007541771 743 0.024150000000000133
cooling step: 744 0.024220000000000134
minmax 25.0 25.0007541771 744 0.024220000000000134
cooling step: 745 0.024290000000000134
minmax 25.0 25.0007541771 745 0.024290000000000134
cooling step: 746 0.024360000000000135
minmax 25.0 25.0007541771 746 0.024360000000000135
cooling step: 747 0.024430000000000136
minmax 25.0 25.0007541771 747 0.024430000000000136
cooling step: 748 0.024500000000000136
minmax 25.0 25.0007541771 748 0.024500000000000136
cooling step: 749 0.024570000000000137
minmax 25.0 25.0007541771 749 0.024570000000000137
cooling step: 750 0.024640000000000137
minmax 25.0 25.0007541771 750 0.024640000000000137
cooling step: 751 0.024710000000000138
minmax 25.0 25.0007541771 751 0.024710000000000138
cooling step: 752 0.02478000000000014
minmax 25.0 25.0007541771 752 0.02478000000000014
cooling step: 753 0.02485000000000014
minmax 25.0 25.0007541771 753 0.02485000000000014
cooling step: 754 0.02492000000000014
minmax 25.0 25.0007541771 754 0.02492000000000014
cooling step: 755 0.02499000000000014
minmax 25.0 25.0007541771 755 0.02499000000000014
cooling step: 756 0.02506000000000014
minmax 25.0 25.0007541771 756 0.02506000000000014
cooling step: 757 0.025130000000000142
minmax 25.0 25.0007541771 757 0.025130000000000142
cooling step: 758 0.025200000000000142
minmax 25.0 25.0007541771 758 0.025200000000000142
cooling step: 759 0.025270000000000143
minmax 25.0 25.0007541771 759 0.025270000000000143
cooling step: 760 0.025340000000000144
minmax 25.0 25.0007541771 760 0.025340000000000144
cooling step: 761 0.025410000000000144
minmax 25.0 25.0007541771 761 0.025410000000000144
cooling step: 762 0.025480000000000145
minmax 25.0 25.0007541771 762 0.025480000000000145
cooling step: 763 0.025550000000000146
minmax 25.0 25.0007541771 763 0.025550000000000146
cooling step: 764 0.025620000000000146
minmax 25.0 25.0007541771 764 0.025620000000000146
cooling step: 765 0.025690000000000147
minmax 25.0 25.0007541771 765 0.025690000000000147
cooling step: 766 0.025760000000000147
minmax 25.0 25.0007541771 766 0.025760000000000147
cooling step: 767 0.025830000000000148
minmax 25.0 25.0007541771 767 0.025830000000000148
cooling step: 768 0.02590000000000015
minmax 25.0 25.0007541771 768 0.02590000000000015
cooling step: 769 0.02597000000000015
minmax 25.0 25.0007541771 769 0.02597000000000015
cooling step: 770 0.02604000000000015
minmax 25.0 25.0007541771 770 0.02604000000000015
cooling step: 771 0.02611000000000015
minmax 25.0 25.0007541771 771 0.02611000000000015
cooling step: 772 0.02618000000000015
minmax 25.0 25.0007541771 772 0.02618000000000015
cooling step: 773 0.02625000000000015
minmax 25.0 25.0007541771 773 0.02625000000000015
cooling step: 774 0.026320000000000152
minmax 25.0 25.0007541771 774 0.026320000000000152
cooling step: 775 0.026390000000000153
minmax 25.0 25.0007541771 775 0.026390000000000153
cooling step: 776 0.026460000000000154
minmax 25.0 25.0007541771 776 0.026460000000000154
cooling step: 777 0.026530000000000154
minmax 25.0 25.0007541771 777 0.026530000000000154
cooling step: 778 0.026600000000000155
minmax 25.0 25.0007541771 778 0.026600000000000155
cooling step: 779 0.026670000000000155
minmax 25.0 25.0007541771 779 0.026670000000000155
cooling step: 780 0.026740000000000156
minmax 25.0 25.0007541771 780 0.026740000000000156
cooling step: 781 0.026810000000000157
minmax 25.0 25.0007541771 781 0.026810000000000157
cooling step: 782 0.026880000000000157
minmax 25.0 25.0007541771 782 0.026880000000000157
cooling step: 783 0.026950000000000158
minmax 25.0 25.0007541771 783 0.026950000000000158
cooling step: 784 0.02702000000000016
minmax 25.0 25.0007541771 784 0.02702000000000016
cooling step: 785 0.02709000000000016
minmax 25.0 25.0007541771 785 0.02709000000000016
cooling step: 786 0.02716000000000016
minmax 25.0 25.0007541771 786 0.02716000000000016
cooling step: 787 0.02723000000000016
minmax 25.0 25.0007541771 787 0.02723000000000016
cooling step: 788 0.02730000000000016
minmax 25.0 25.0007541771 788 0.02730000000000016
cooling step: 789 0.02737000000000016
minmax 25.0 25.0007541771 789 0.02737000000000016
cooling step: 790 0.027440000000000162
minmax 25.0 25.0007541771 790 0.027440000000000162
cooling step: 791 0.027510000000000163
minmax 25.0 25.0007541771 791 0.027510000000000163
cooling step: 792 0.027580000000000163
minmax 25.0 25.0007541771 792 0.027580000000000163
cooling step: 793 0.027650000000000164
minmax 25.0 25.0007541771 793 0.027650000000000164
cooling step: 794 0.027720000000000165
minmax 25.0 25.0007541771 794 0.027720000000000165
cooling step: 795 0.027790000000000165
minmax 25.0 25.0007541771 795 0.027790000000000165
cooling step: 796 0.027860000000000166
minmax 25.0 25.0007541771 796 0.027860000000000166
cooling step: 797 0.027930000000000166
minmax 25.0 25.0007541771 797 0.027930000000000166
cooling step: 798 0.028000000000000167
minmax 25.0 25.0007541771 798 0.028000000000000167
