minima and maxima 400.0 799.888241682 1 0.001
minima and maxima 400.0 799.530153839 2 0.002
minima and maxima 400.0 798.673386292 3 0.003
minima and maxima 400.0 797.037040078 4 0.004
minima and maxima 400.0 794.43723702 5 0.005
minima and maxima 400.0 790.803089231 6 0.006
minima and maxima 400.0 786.164342902 7 0.007
minima and maxima 400.0 780.620058605 8 0.008
minima and maxima 400.0 774.306050632 9 0.009000000000000001
minima and maxima 400.0 767.369567736 10 0.010000000000000002
minima and maxima 400.0 759.952921253 11 0.011000000000000003
minima and maxima 400.0 752.184590447 12 0.012000000000000004
minima and maxima 400.0 744.175524483 13 0.013000000000000005
minima and maxima 400.0 736.018620349 14 0.014000000000000005
minima and maxima 400.0 727.789914935 15 0.015000000000000006
minima and maxima 400.0 719.550551498 16 0.016000000000000007
minima and maxima 400.0 711.348968728 17 0.017000000000000008
minima and maxima 400.0 703.223016964 18 0.01800000000000001
minima and maxima 400.0 695.201862764 19 0.01900000000000001
minima and maxima 400.0 687.307632619 20 0.02000000000000001
minima and maxima 400.0 679.556794381 21 0.02100000000000001
minima and maxima 400.0 671.961297958 22 0.022000000000000013
minima and maxima 400.0 664.529505925 23 0.023000000000000013
minima and maxima 400.0 657.266946321 24 0.024000000000000014
minima and maxima 400.0 650.1769179 25 0.025000000000000015
minima and maxima 400.0 643.260974613 26 0.026000000000000016
minima and maxima 400.0 636.519312091 27 0.027000000000000017
minima and maxima 400.0 629.951075163 28 0.028000000000000018
minima and maxima 400.0 623.55460201 29 0.02900000000000002
minima and maxima 400.0 617.327617652 30 0.03000000000000002
minima and maxima 400.0 611.267387012 31 0.03100000000000002
minima and maxima 400.0 605.370835806 32 0.03200000000000002
minima and maxima 400.0 599.634645819 33 0.03300000000000002
minima and maxima 400.0 594.055329862 34 0.03400000000000002
minima and maxima 400.0 588.629290581 35 0.035000000000000024
minima and maxima 400.0 583.35286647 36 0.036000000000000025
minima and maxima 400.0 578.222367735 37 0.037000000000000026
minima and maxima 400.0 573.234104119 38 0.03800000000000003
minima and maxima 400.0 568.384406371 39 0.03900000000000003
minima and maxima 400.0 563.669642678 40 0.04000000000000003
minima and maxima 400.0 559.086231123 41 0.04100000000000003
minima and maxima 400.0 554.630649004 42 0.04200000000000003
minima and maxima 400.0 550.299439679 43 0.04300000000000003
minima and maxima 400.0 546.089217457 44 0.04400000000000003
minima and maxima 400.0 541.99667097 45 0.04500000000000003
minima and maxima 400.0 538.018565329 46 0.046000000000000034
minima and maxima 400.0 534.151743357 47 0.047000000000000035
minima and maxima 400.0 530.393126081 48 0.048000000000000036
minima and maxima 400.0 526.739712662 49 0.04900000000000004
minima and maxima 400.0 523.188579889 50 0.05000000000000004
minima and maxima 400.0 519.736881339 51 0.05100000000000004
minima and maxima 400.0 516.381846285 52 0.05200000000000004
minima and maxima 400.0 513.120778412 53 0.05300000000000004
minima and maxima 400.0 509.951054404 54 0.05400000000000004
minima and maxima 400.0 506.870122421 55 0.05500000000000004
minima and maxima 400.0 503.875500522 56 0.05600000000000004
minima and maxima 400.0 500.964775035 57 0.057000000000000044
minima and maxima 400.0 498.13559891 58 0.058000000000000045
minima and maxima 400.0 495.38569006 59 0.059000000000000045
minima and maxima 400.0 492.712829712 60 0.060000000000000046
minima and maxima 400.0 490.114860756 61 0.06100000000000005
minima and maxima 400.0 487.58968613 62 0.06200000000000005
minima and maxima 400.0 485.135267216 63 0.06300000000000004
minima and maxima 400.0 482.749622268 64 0.06400000000000004
minima and maxima 400.0 480.430824875 65 0.06500000000000004
minima and maxima 400.0 478.177002445 66 0.06600000000000004
minima and maxima 400.0 475.986334736 67 0.06700000000000005
minima and maxima 400.0 473.857052411 68 0.06800000000000005
minima and maxima 400.0 471.787435636 69 0.06900000000000005
minima and maxima 400.0 469.775812704 70 0.07000000000000005
minima and maxima 400.0 467.820558706 71 0.07100000000000005
minima and maxima 400.0 465.920094223 72 0.07200000000000005
minima and maxima 400.0 464.072884067 73 0.07300000000000005
minima and maxima 400.0 462.277436039 74 0.07400000000000005
minima and maxima 400.0 460.53229974 75 0.07500000000000005
minima and maxima 400.0 458.836065393 76 0.07600000000000005
minima and maxima 400.0 457.187362719 77 0.07700000000000005
minima and maxima 400.0 455.584859821 78 0.07800000000000006
minima and maxima 400.0 454.027262122 79 0.07900000000000006
minima and maxima 400.0 452.513311312 80 0.08000000000000006
minima and maxima 400.0 451.041784337 81 0.08100000000000006
minima and maxima 400.0 449.611492413 82 0.08200000000000006
minima and maxima 400.0 448.221280063 83 0.08300000000000006
minima and maxima 400.0 446.870024187 84 0.08400000000000006
minima and maxima 400.0 445.556633156 85 0.08500000000000006
minima and maxima 400.0 444.280045926 86 0.08600000000000006
minima and maxima 400.0 443.039231187 87 0.08700000000000006
minima and maxima 400.0 441.833186527 88 0.08800000000000006
minima and maxima 400.0 440.660937622 89 0.08900000000000007
minima and maxima 400.0 439.52153745 90 0.09000000000000007
minima and maxima 400.0 438.414065526 91 0.09100000000000007
minima and maxima 400.0 437.337627158 92 0.09200000000000007
minima and maxima 400.0 436.291352727 93 0.09300000000000007
minima and maxima 400.0 435.274396979 94 0.09400000000000007
minima and maxima 400.0 434.285938347 95 0.09500000000000007
minima and maxima 400.0 433.325178287 96 0.09600000000000007
minima and maxima 400.0 432.39134063 97 0.09700000000000007
minima and maxima 400.0 431.483670956 98 0.09800000000000007
minima and maxima 400.0 430.601435988 99 0.09900000000000007
minima and maxima 400.0 429.743922995 100 0.10000000000000007
minima and maxima 400.0 428.910439217 101 0.10100000000000008
minima and maxima 400.0 428.10031131 102 0.10200000000000008
minima and maxima 400.0 427.312884795 103 0.10300000000000008
minima and maxima 400.0 426.547523533 104 0.10400000000000008
minima and maxima 400.0 425.803609214 105 0.10500000000000008
minima and maxima 400.0 425.080540851 106 0.10600000000000008
minima and maxima 400.0 424.377734298 107 0.10700000000000008
minima and maxima 400.0 423.694621781 108 0.10800000000000008
minima and maxima 400.0 423.030651433 109 0.10900000000000008
minima and maxima 400.0 422.385286852 110 0.11000000000000008
minima and maxima 400.0 421.758006668 111 0.11100000000000008
minima and maxima 400.0 421.14830412 112 0.11200000000000009
minima and maxima 400.0 420.555686648 113 0.11300000000000009
minima and maxima 400.0 419.979675494 114 0.11400000000000009
minima and maxima 400.0 419.419805317 115 0.11500000000000009
minima and maxima 400.0 418.875623813 116 0.11600000000000009
minima and maxima 400.0 418.346691356 117 0.11700000000000009
minima and maxima 400.0 417.832580636 118 0.11800000000000009
minima and maxima 400.0 417.33287632 119 0.11900000000000009
minima and maxima 400.0 416.84717471 120 0.12000000000000009
minima and maxima 400.0 416.375083425 121 0.1210000000000001
minima and maxima 400.0 415.916221074 122 0.1220000000000001
minima and maxima 400.0 415.470216957 123 0.1230000000000001
minima and maxima 400.0 415.036710761 124 0.1240000000000001
minima and maxima 400.0 414.61535227 125 0.12500000000000008
minima and maxima 400.0 414.20580108 126 0.12600000000000008
minima and maxima 400.0 413.807726328 127 0.12700000000000009
minima and maxima 400.0 413.420806421 128 0.12800000000000009
minima and maxima 400.0 413.044728777 129 0.1290000000000001
minima and maxima 400.0 412.679189576 130 0.1300000000000001
minima and maxima 400.0 412.32389351 131 0.1310000000000001
minima and maxima 400.0 411.978553544 132 0.1320000000000001
minima and maxima 400.0 411.64289069 133 0.1330000000000001
minima and maxima 400.0 411.316633775 134 0.1340000000000001
minima and maxima 400.0 410.999519228 135 0.1350000000000001
minima and maxima 400.0 410.691290859 136 0.1360000000000001
minima and maxima 400.0 410.391699661 137 0.1370000000000001
minima and maxima 400.0 410.100503604 138 0.1380000000000001
minima and maxima 400.0 409.817467438 139 0.1390000000000001
minima and maxima 400.0 409.542362507 140 0.1400000000000001
minima and maxima 400.0 409.274966563 141 0.1410000000000001
minima and maxima 400.0 409.015063585 142 0.1420000000000001
minima and maxima 400.0 408.762443603 143 0.1430000000000001
minima and maxima 400.0 408.516902535 144 0.1440000000000001
minima and maxima 400.0 408.278242016 145 0.1450000000000001
minima and maxima 400.0 408.046269238 146 0.1460000000000001
minima and maxima 400.0 407.820796798 147 0.1470000000000001
minima and maxima 400.0 407.601642543 148 0.1480000000000001
minima and maxima 400.0 407.388629426 149 0.1490000000000001
minima and maxima 400.0 407.181585359 150 0.1500000000000001
minima and maxima 400.0 406.980343078 151 0.1510000000000001
minima and maxima 400.0 406.784740005 152 0.1520000000000001
minima and maxima 400.0 406.594618119 153 0.1530000000000001
minima and maxima 400.0 406.409823825 154 0.1540000000000001
minima and maxima 400.0 406.230207835 155 0.1550000000000001
minima and maxima 400.0 406.055625041 156 0.1560000000000001
minima and maxima 400.0 405.885934404 157 0.1570000000000001
minima and maxima 400.0 405.720998835 158 0.1580000000000001
minima and maxima 400.0 405.560685089 159 0.1590000000000001
minima and maxima 400.0 405.404863652 160 0.16000000000000011
minima and maxima 400.0 405.253408641 161 0.16100000000000012
minima and maxima 400.0 405.1061977 162 0.16200000000000012
minima and maxima 400.0 404.963111902 163 0.16300000000000012
minima and maxima 400.0 404.824035652 164 0.16400000000000012
minima and maxima 400.0 404.688856594 165 0.16500000000000012
minima and maxima 400.0 404.557465523 166 0.16600000000000012
minima and maxima 400.0 404.42975629 167 0.16700000000000012
minima and maxima 400.0 404.305625723 168 0.16800000000000012
minima and maxima 400.0 404.184973542 169 0.16900000000000012
minima and maxima 400.0 404.067702274 170 0.17000000000000012
minima and maxima 400.0 403.953717179 171 0.17100000000000012
minima and maxima 400.0 403.842926174 172 0.17200000000000013
minima and maxima 400.0 403.735239752 173 0.17300000000000013
minima and maxima 400.0 403.630570918 174 0.17400000000000013
minima and maxima 400.0 403.528835112 175 0.17500000000000013
minima and maxima 400.0 403.429950146 176 0.17600000000000013
minima and maxima 400.0 403.333836132 177 0.17700000000000013
minima and maxima 400.0 403.240415424 178 0.17800000000000013
minima and maxima 400.0 403.14961255 179 0.17900000000000013
minima and maxima 400.0 403.061354153 180 0.18000000000000013
minima and maxima 400.0 402.975568931 181 0.18100000000000013
minima and maxima 400.0 402.892187582 182 0.18200000000000013
minima and maxima 400.0 402.811142743 183 0.18300000000000013
minima and maxima 400.0 402.732368942 184 0.18400000000000014
minima and maxima 400.0 402.655802539 185 0.18500000000000014
minima and maxima 400.0 402.581381679 186 0.18600000000000014
minima and maxima 400.0 402.509046239 187 0.18700000000000014
minima and maxima 400.0 402.438737781 188 0.18800000000000014
minima and maxima 400.0 402.370399506 189 0.18900000000000014
minima and maxima 400.0 402.303976206 190 0.19000000000000014
minima and maxima 400.0 402.239414218 191 0.19100000000000014
minima and maxima 400.0 402.176661385 192 0.19200000000000014
minima and maxima 400.0 402.115667011 193 0.19300000000000014
minima and maxima 400.0 402.056381821 194 0.19400000000000014
minima and maxima 400.0 401.998757919 195 0.19500000000000015
minima and maxima 400.0 401.942748754 196 0.19600000000000015
minima and maxima 400.0 401.888309076 197 0.19700000000000015
minima and maxima 400.0 401.835394907 198 0.19800000000000015
minima and maxima 400.0 401.783963497 199 0.19900000000000015
minima and maxima 400.0 401.733973298 200 0.20000000000000015

