<?xml version="1.0"?>
<VTKFile type="UnstructuredGrid"  version="0.1"  >
<UnstructuredGrid>
<Piece  NumberOfPoints="325" NumberOfCells="1152">
<Points>
<DataArray  type="Float64"  NumberOfComponents="3"  format="ascii">0 0 0  2.5e-05 0 0  2.5e-05 2.5e-05 0  2.5e-05 2.5e-05 2.5e-05  2.5e-05 0 2.5e-05  0 0 2.5e-05  0 2.5e-05 0  0 2.5e-05 2.5e-05  5e-05 0 0  5e-05 2.5e-05 0  5e-05 2.5e-05 2.5e-05  5e-05 0 2.5e-05  7.500000000000001e-05 0 0  7.500000000000001e-05 2.5e-05 0  7.500000000000001e-05 2.5e-05 2.5e-05  7.500000000000001e-05 0 2.5e-05  0.0001 0 0  0.0001 2.5e-05 0  0.0001 2.5e-05 2.5e-05  0.0001 0 2.5e-05  0.000125 0 0  0.000125 2.5e-05 0  0.000125 2.5e-05 2.5e-05  0.000125 0 2.5e-05  0.00015 0 0  0.00015 2.5e-05 0  0.00015 2.5e-05 2.5e-05  0.00015 0 2.5e-05  0.000175 0 0  0.000175 2.5e-05 0  0.000175 2.5e-05 2.5e-05  0.000175 0 2.5e-05  0.0002 0 0  0.0002 2.5e-05 0  0.0002 2.5e-05 2.5e-05  0.0002 0 2.5e-05  0.000225 0 0  0.000225 2.5e-05 0  0.000225 2.5e-05 2.5e-05  0.000225 0 2.5e-05  0.00025 0 0  0.00025 2.5e-05 0  0.00025 2.5e-05 2.5e-05  0.00025 0 2.5e-05  0.000275 0 0  0.000275 2.5e-05 0  0.000275 2.5e-05 2.5e-05  0.000275 0 2.5e-05  0.0003 0 0  0.0003 2.5e-05 0  0.0003 2.5e-05 2.5e-05  0.0003 0 2.5e-05  2.5e-05 5e-05 0  2.5e-05 5e-05 2.5e-05  0 5e-05 0  0 5e-05 2.5e-05  5e-05 5e-05 0  5e-05 5e-05 2.5e-05  7.500000000000001e-05 5e-05 0  7.500000000000001e-05 5e-05 2.5e-05  0.0001 5e-05 0  0.0001 5e-05 2.5e-05  0.000125 5e-05 0  0.000125 5e-05 2.5e-05  0.00015 5e-05 0  0.00015 5e-05 2.5e-05  0.000175 5e-05 0  0.000175 5e-05 2.5e-05  0.0002 5e-05 0  0.0002 5e-05 2.5e-05  0.000225 5e-05 0  0.000225 5e-05 2.5e-05  0.00025 5e-05 0  0.00025 5e-05 2.5e-05  0.000275 5e-05 0  0.000275 5e-05 2.5e-05  0.0003 5e-05 0  0.0003 5e-05 2.5e-05  2.5e-05 7.500000000000001e-05 0  2.5e-05 7.500000000000001e-05 2.5e-05  0 7.500000000000001e-05 0  0 7.500000000000001e-05 2.5e-05  5e-05 7.500000000000001e-05 0  5e-05 7.500000000000001e-05 2.5e-05  7.500000000000001e-05 7.500000000000001e-05 0  7.500000000000001e-05 7.500000000000001e-05 2.5e-05  0.0001 7.500000000000001e-05 0  0.0001 7.500000000000001e-05 2.5e-05  0.000125 7.500000000000001e-05 0  0.000125 7.500000000000001e-05 2.5e-05  0.00015 7.500000000000001e-05 0  0.00015 7.500000000000001e-05 2.5e-05  0.000175 7.500000000000001e-05 0  0.000175 7.500000000000001e-05 2.5e-05  0.0002 7.500000000000001e-05 0  0.0002 7.500000000000001e-05 2.5e-05  0.000225 7.500000000000001e-05 0  0.000225 7.500000000000001e-05 2.5e-05  0.00025 7.500000000000001e-05 0  0.00025 7.500000000000001e-05 2.5e-05  0.000275 7.500000000000001e-05 0  0.000275 7.500000000000001e-05 2.5e-05  0.0003 7.500000000000001e-05 0  0.0003 7.500000000000001e-05 2.5e-05  2.5e-05 0.0001 0  2.5e-05 0.0001 2.5e-05  0 0.0001 0  0 0.0001 2.5e-05  5e-05 0.0001 0  5e-05 0.0001 2.5e-05  7.500000000000001e-05 0.0001 0  7.500000000000001e-05 0.0001 2.5e-05  0.0001 0.0001 0  0.0001 0.0001 2.5e-05  0.000125 0.0001 0  0.000125 0.0001 2.5e-05  0.00015 0.0001 0  0.00015 0.0001 2.5e-05  0.000175 0.0001 0  0.000175 0.0001 2.5e-05  0.0002 0.0001 0  0.0002 0.0001 2.5e-05  0.000225 0.0001 0  0.000225 0.0001 2.5e-05  0.00025 0.0001 0  0.00025 0.0001 2.5e-05  0.000275 0.0001 0  0.000275 0.0001 2.5e-05  0.0003 0.0001 0  0.0003 0.0001 2.5e-05  2.5e-05 2.5e-05 5e-05  2.5e-05 0 5e-05  0 0 5e-05  0 2.5e-05 5e-05  5e-05 2.5e-05 5e-05  5e-05 0 5e-05  7.500000000000001e-05 2.5e-05 5e-05  7.500000000000001e-05 0 5e-05  0.0001 2.5e-05 5e-05  0.0001 0 5e-05  0.000125 2.5e-05 5e-05  0.000125 0 5e-05  0.00015 2.5e-05 5e-05  0.00015 0 5e-05  0.000175 2.5e-05 5e-05  0.000175 0 5e-05  0.0002 2.5e-05 5e-05  0.0002 0 5e-05  0.000225 2.5e-05 5e-05  0.000225 0 5e-05  0.00025 2.5e-05 5e-05  0.00025 0 5e-05  0.000275 2.5e-05 5e-05  0.000275 0 5e-05  0.0003 2.5e-05 5e-05  0.0003 0 5e-05  2.5e-05 5e-05 5e-05  0 5e-05 5e-05  5e-05 5e-05 5e-05  7.500000000000001e-05 5e-05 5e-05  0.0001 5e-05 5e-05  0.000125 5e-05 5e-05  0.00015 5e-05 5e-05  0.000175 5e-05 5e-05  0.0002 5e-05 5e-05  0.000225 5e-05 5e-05  0.00025 5e-05 5e-05  0.000275 5e-05 5e-05  0.0003 5e-05 5e-05  2.5e-05 7.500000000000001e-05 5e-05  0 7.500000000000001e-05 5e-05  5e-05 7.500000000000001e-05 5e-05  7.500000000000001e-05 7.500000000000001e-05 5e-05  0.0001 7.500000000000001e-05 5e-05  0.000125 7.500000000000001e-05 5e-05  0.00015 7.500000000000001e-05 5e-05  0.000175 7.500000000000001e-05 5e-05  0.0002 7.500000000000001e-05 5e-05  0.000225 7.500000000000001e-05 5e-05  0.00025 7.500000000000001e-05 5e-05  0.000275 7.500000000000001e-05 5e-05  0.0003 7.500000000000001e-05 5e-05  2.5e-05 0.0001 5e-05  0 0.0001 5e-05  5e-05 0.0001 5e-05  7.500000000000001e-05 0.0001 5e-05  0.0001 0.0001 5e-05  0.000125 0.0001 5e-05  0.00015 0.0001 5e-05  0.000175 0.0001 5e-05  0.0002 0.0001 5e-05  0.000225 0.0001 5e-05  0.00025 0.0001 5e-05  0.000275 0.0001 5e-05  0.0003 0.0001 5e-05  2.5e-05 2.5e-05 7.500000000000001e-05  2.5e-05 0 7.500000000000001e-05  0 0 7.500000000000001e-05  0 2.5e-05 7.500000000000001e-05  5e-05 2.5e-05 7.500000000000001e-05  5e-05 0 7.500000000000001e-05  7.500000000000001e-05 2.5e-05 7.500000000000001e-05  7.500000000000001e-05 0 7.500000000000001e-05  0.0001 2.5e-05 7.500000000000001e-05  0.0001 0 7.500000000000001e-05  0.000125 2.5e-05 7.500000000000001e-05  0.000125 0 7.500000000000001e-05  0.00015 2.5e-05 7.500000000000001e-05  0.00015 0 7.500000000000001e-05  0.000175 2.5e-05 7.500000000000001e-05  0.000175 0 7.500000000000001e-05  0.0002 2.5e-05 7.500000000000001e-05  0.0002 0 7.500000000000001e-05  0.000225 2.5e-05 7.500000000000001e-05  0.000225 0 7.500000000000001e-05  0.00025 2.5e-05 7.500000000000001e-05  0.00025 0 7.500000000000001e-05  0.000275 2.5e-05 7.500000000000001e-05  0.000275 0 7.500000000000001e-05  0.0003 2.5e-05 7.500000000000001e-05  0.0003 0 7.500000000000001e-05  2.5e-05 5e-05 7.500000000000001e-05  0 5e-05 7.500000000000001e-05  5e-05 5e-05 7.500000000000001e-05  7.500000000000001e-05 5e-05 7.500000000000001e-05  0.0001 5e-05 7.500000000000001e-05  0.000125 5e-05 7.500000000000001e-05  0.00015 5e-05 7.500000000000001e-05  0.000175 5e-05 7.500000000000001e-05  0.0002 5e-05 7.500000000000001e-05  0.000225 5e-05 7.500000000000001e-05  0.00025 5e-05 7.500000000000001e-05  0.000275 5e-05 7.500000000000001e-05  0.0003 5e-05 7.500000000000001e-05  2.5e-05 7.500000000000001e-05 7.500000000000001e-05  0 7.500000000000001e-05 7.500000000000001e-05  5e-05 7.500000000000001e-05 7.500000000000001e-05  7.500000000000001e-05 7.500000000000001e-05 7.500000000000001e-05  0.0001 7.500000000000001e-05 7.500000000000001e-05  0.000125 7.500000000000001e-05 7.500000000000001e-05  0.00015 7.500000000000001e-05 7.500000000000001e-05  0.000175 7.500000000000001e-05 7.500000000000001e-05  0.0002 7.500000000000001e-05 7.500000000000001e-05  0.000225 7.500000000000001e-05 7.500000000000001e-05  0.00025 7.500000000000001e-05 7.500000000000001e-05  0.000275 7.500000000000001e-05 7.500000000000001e-05  0.0003 7.500000000000001e-05 7.500000000000001e-05  2.5e-05 0.0001 7.500000000000001e-05  0 0.0001 7.500000000000001e-05  5e-05 0.0001 7.500000000000001e-05  7.500000000000001e-05 0.0001 7.500000000000001e-05  0.0001 0.0001 7.500000000000001e-05  0.000125 0.0001 7.500000000000001e-05  0.00015 0.0001 7.500000000000001e-05  0.000175 0.0001 7.500000000000001e-05  0.0002 0.0001 7.500000000000001e-05  0.000225 0.0001 7.500000000000001e-05  0.00025 0.0001 7.500000000000001e-05  0.000275 0.0001 7.500000000000001e-05  0.0003 0.0001 7.500000000000001e-05  2.5e-05 2.5e-05 0.0001  2.5e-05 0 0.0001  0 0 0.0001  0 2.5e-05 0.0001  5e-05 2.5e-05 0.0001  5e-05 0 0.0001  7.500000000000001e-05 2.5e-05 0.0001  7.500000000000001e-05 0 0.0001  0.0001 2.5e-05 0.0001  0.0001 0 0.0001  0.000125 2.5e-05 0.0001  0.000125 0 0.0001  0.00015 2.5e-05 0.0001  0.00015 0 0.0001  0.000175 2.5e-05 0.0001  0.000175 0 0.0001  0.0002 2.5e-05 0.0001  0.0002 0 0.0001  0.000225 2.5e-05 0.0001  0.000225 0 0.0001  0.00025 2.5e-05 0.0001  0.00025 0 0.0001  0.000275 2.5e-05 0.0001  0.000275 0 0.0001  0.0003 2.5e-05 0.0001  0.0003 0 0.0001  2.5e-05 5e-05 0.0001  0 5e-05 0.0001  5e-05 5e-05 0.0001  7.500000000000001e-05 5e-05 0.0001  0.0001 5e-05 0.0001  0.000125 5e-05 0.0001  0.00015 5e-05 0.0001  0.000175 5e-05 0.0001  0.0002 5e-05 0.0001  0.000225 5e-05 0.0001  0.00025 5e-05 0.0001  0.000275 5e-05 0.0001  0.0003 5e-05 0.0001  2.5e-05 7.500000000000001e-05 0.0001  0 7.500000000000001e-05 0.0001  5e-05 7.500000000000001e-05 0.0001  7.500000000000001e-05 7.500000000000001e-05 0.0001  0.0001 7.500000000000001e-05 0.0001  0.000125 7.500000000000001e-05 0.0001  0.00015 7.500000000000001e-05 0.0001  0.000175 7.500000000000001e-05 0.0001  0.0002 7.500000000000001e-05 0.0001  0.000225 7.500000000000001e-05 0.0001  0.00025 7.500000000000001e-05 0.0001  0.000275 7.500000000000001e-05 0.0001  0.0003 7.500000000000001e-05 0.0001  2.5e-05 0.0001 0.0001  0 0.0001 0.0001  5e-05 0.0001 0.0001  7.500000000000001e-05 0.0001 0.0001  0.0001 0.0001 0.0001  0.000125 0.0001 0.0001  0.00015 0.0001 0.0001  0.000175 0.0001 0.0001  0.0002 0.0001 0.0001  0.000225 0.0001 0.0001  0.00025 0.0001 0.0001  0.000275 0.0001 0.0001  0.0003 0.0001 0.0001  </DataArray>
</Points>
<Cells>
<DataArray  type="UInt32"  Name="connectivity"  format="ascii">0 1 2 3  0 1 4 3  0 5 4 3  0 6 2 3  0 5 7 3  0 6 7 3  1 8 9 10  1 8 11 10  1 4 11 10  1 2 9 10  1 4 3 10  1 2 3 10  8 12 13 14  8 12 15 14  8 11 15 14  8 9 13 14  8 11 10 14  8 9 10 14  12 16 17 18  12 16 19 18  12 15 19 18  12 13 17 18  12 15 14 18  12 13 14 18  16 20 21 22  16 20 23 22  16 19 23 22  16 17 21 22  16 19 18 22  16 17 18 22  20 24 25 26  20 24 27 26  20 23 27 26  20 21 25 26  20 23 22 26  20 21 22 26  24 28 29 30  24 28 31 30  24 27 31 30  24 25 29 30  24 27 26 30  24 25 26 30  28 32 33 34  28 32 35 34  28 31 35 34  28 29 33 34  28 31 30 34  28 29 30 34  32 36 37 38  32 36 39 38  32 35 39 38  32 33 37 38  32 35 34 38  32 33 34 38  36 40 41 42  36 40 43 42  36 39 43 42  36 37 41 42  36 39 38 42  36 37 38 42  40 44 45 46  40 44 47 46  40 43 47 46  40 41 45 46  40 43 42 46  40 41 42 46  44 48 49 50  44 48 51 50  44 47 51 50  44 45 49 50  44 47 46 50  44 45 46 50  6 2 52 53  6 2 3 53  6 7 3 53  6 54 52 53  6 7 55 53  6 54 55 53  2 9 56 57  2 9 10 57  2 3 10 57  2 52 56 57  2 3 53 57  2 52 53 57  9 13 58 59  9 13 14 59  9 10 14 59  9 56 58 59  9 10 57 59  9 56 57 59  13 17 60 61  13 17 18 61  13 14 18 61  13 58 60 61  13 14 59 61  13 58 59 61  17 21 62 63  17 21 22 63  17 18 22 63  17 60 62 63  17 18 61 63  17 60 61 63  21 25 64 65  21 25 26 65  21 22 26 65  21 62 64 65  21 22 63 65  21 62 63 65  25 29 66 67  25 29 30 67  25 26 30 67  25 64 66 67  25 26 65 67  25 64 65 67  29 33 68 69  29 33 34 69  29 30 34 69  29 66 68 69  29 30 67 69  29 66 67 69  33 37 70 71  33 37 38 71  33 34 38 71  33 68 70 71  33 34 69 71  33 68 69 71  37 41 72 73  37 41 42 73  37 38 42 73  37 70 72 73  37 38 71 73  37 70 71 73  41 45 74 75  41 45 46 75  41 42 46 75  41 72 74 75  41 42 73 75  41 72 73 75  45 49 76 77  45 49 50 77  45 46 50 77  45 74 76 77  45 46 75 77  45 74 75 77  54 52 78 79  54 52 53 79  54 55 53 79  54 80 78 79  54 55 81 79  54 80 81 79  52 56 82 83  52 56 57 83  52 53 57 83  52 78 82 83  52 53 79 83  52 78 79 83  56 58 84 85  56 58 59 85  56 57 59 85  56 82 84 85  56 57 83 85  56 82 83 85  58 60 86 87  58 60 61 87  58 59 61 87  58 84 86 87  58 59 85 87  58 84 85 87  60 62 88 89  60 62 63 89  60 61 63 89  60 86 88 89  60 61 87 89  60 86 87 89  62 64 90 91  62 64 65 91  62 63 65 91  62 88 90 91  62 63 89 91  62 88 89 91  64 66 92 93  64 66 67 93  64 65 67 93  64 90 92 93  64 65 91 93  64 90 91 93  66 68 94 95  66 68 69 95  66 67 69 95  66 92 94 95  66 67 93 95  66 92 93 95  68 70 96 97  68 70 71 97  68 69 71 97  68 94 96 97  68 69 95 97  68 94 95 97  70 72 98 99  70 72 73 99  70 71 73 99  70 96 98 99  70 71 97 99  70 96 97 99  72 74 100 101  72 74 75 101  72 73 75 101  72 98 100 101  72 73 99 101  72 98 99 101  74 76 102 103  74 76 77 103  74 75 77 103  74 100 102 103  74 75 101 103  74 100 101 103  80 78 104 105  80 78 79 105  80 81 79 105  80 106 104 105  80 81 107 105  80 106 107 105  78 82 108 109  78 82 83 109  78 79 83 109  78 104 108 109  78 79 105 109  78 104 105 109  82 84 110 111  82 84 85 111  82 83 85 111  82 108 110 111  82 83 109 111  82 108 109 111  84 86 112 113  84 86 87 113  84 85 87 113  84 110 112 113  84 85 111 113  84 110 111 113  86 88 114 115  86 88 89 115  86 87 89 115  86 112 114 115  86 87 113 115  86 112 113 115  88 90 116 117  88 90 91 117  88 89 91 117  88 114 116 117  88 89 115 117  88 114 115 117  90 92 118 119  90 92 93 119  90 91 93 119  90 116 118 119  90 91 117 119  90 116 117 119  92 94 120 121  92 94 95 121  92 93 95 121  92 118 120 121  92 93 119 121  92 118 119 121  94 96 122 123  94 96 97 123  94 95 97 123  94 120 122 123  94 95 121 123  94 120 121 123  96 98 124 125  96 98 99 125  96 97 99 125  96 122 124 125  96 97 123 125  96 122 123 125  98 100 126 127  98 100 101 127  98 99 101 127  98 124 126 127  98 99 125 127  98 124 125 127  100 102 128 129  100 102 103 129  100 101 103 129  100 126 128 129  100 101 127 129  100 126 127 129  5 4 3 130  5 4 131 130  5 132 131 130  5 7 3 130  5 132 133 130  5 7 133 130  4 11 10 134  4 11 135 134  4 131 135 134  4 3 10 134  4 131 130 134  4 3 130 134  11 15 14 136  11 15 137 136  11 135 137 136  11 10 14 136  11 135 134 136  11 10 134 136  15 19 18 138  15 19 139 138  15 137 139 138  15 14 18 138  15 137 136 138  15 14 136 138  19 23 22 140  19 23 141 140  19 139 141 140  19 18 22 140  19 139 138 140  19 18 138 140  23 27 26 142  23 27 143 142  23 141 143 142  23 22 26 142  23 141 140 142  23 22 140 142  27 31 30 144  27 31 145 144  27 143 145 144  27 26 30 144  27 143 142 144  27 26 142 144  31 35 34 146  31 35 147 146  31 145 147 146  31 30 34 146  31 145 144 146  31 30 144 146  35 39 38 148  35 39 149 148  35 147 149 148  35 34 38 148  35 147 146 148  35 34 146 148  39 43 42 150  39 43 151 150  39 149 151 150  39 38 42 150  39 149 148 150  39 38 148 150  43 47 46 152  43 47 153 152  43 151 153 152  43 42 46 152  43 151 150 152  43 42 150 152  47 51 50 154  47 51 155 154  47 153 155 154  47 46 50 154  47 153 152 154  47 46 152 154  7 3 53 156  7 3 130 156  7 133 130 156  7 55 53 156  7 133 157 156  7 55 157 156  3 10 57 158  3 10 134 158  3 130 134 158  3 53 57 158  3 130 156 158  3 53 156 158  10 14 59 159  10 14 136 159  10 134 136 159  10 57 59 159  10 134 158 159  10 57 158 159  14 18 61 160  14 18 138 160  14 136 138 160  14 59 61 160  14 136 159 160  14 59 159 160  18 22 63 161  18 22 140 161  18 138 140 161  18 61 63 161  18 138 160 161  18 61 160 161  22 26 65 162  22 26 142 162  22 140 142 162  22 63 65 162  22 140 161 162  22 63 161 162  26 30 67 163  26 30 144 163  26 142 144 163  26 65 67 163  26 142 162 163  26 65 162 163  30 34 69 164  30 34 146 164  30 144 146 164  30 67 69 164  30 144 163 164  30 67 163 164  34 38 71 165  34 38 148 165  34 146 148 165  34 69 71 165  34 146 164 165  34 69 164 165  38 42 73 166  38 42 150 166  38 148 150 166  38 71 73 166  38 148 165 166  38 71 165 166  42 46 75 167  42 46 152 167  42 150 152 167  42 73 75 167  42 150 166 167  42 73 166 167  46 50 77 168  46 50 154 168  46 152 154 168  46 75 77 168  46 152 167 168  46 75 167 168  55 53 79 169  55 53 156 169  55 157 156 169  55 81 79 169  55 157 170 169  55 81 170 169  53 57 83 171  53 57 158 171  53 156 158 171  53 79 83 171  53 156 169 171  53 79 169 171  57 59 85 172  57 59 159 172  57 158 159 172  57 83 85 172  57 158 171 172  57 83 171 172  59 61 87 173  59 61 160 173  59 159 160 173  59 85 87 173  59 159 172 173  59 85 172 173  61 63 89 174  61 63 161 174  61 160 161 174  61 87 89 174  61 160 173 174  61 87 173 174  63 65 91 175  63 65 162 175  63 161 162 175  63 89 91 175  63 161 174 175  63 89 174 175  65 67 93 176  65 67 163 176  65 162 163 176  65 91 93 176  65 162 175 176  65 91 175 176  67 69 95 177  67 69 164 177  67 163 164 177  67 93 95 177  67 163 176 177  67 93 176 177  69 71 97 178  69 71 165 178  69 164 165 178  69 95 97 178  69 164 177 178  69 95 177 178  71 73 99 179  71 73 166 179  71 165 166 179  71 97 99 179  71 165 178 179  71 97 178 179  73 75 101 180  73 75 167 180  73 166 167 180  73 99 101 180  73 166 179 180  73 99 179 180  75 77 103 181  75 77 168 181  75 167 168 181  75 101 103 181  75 167 180 181  75 101 180 181  81 79 105 182  81 79 169 182  81 170 169 182  81 107 105 182  81 170 183 182  81 107 183 182  79 83 109 184  79 83 171 184  79 169 171 184  79 105 109 184  79 169 182 184  79 105 182 184  83 85 111 185  83 85 172 185  83 171 172 185  83 109 111 185  83 171 184 185  83 109 184 185  85 87 113 186  85 87 173 186  85 172 173 186  85 111 113 186  85 172 185 186  85 111 185 186  87 89 115 187  87 89 174 187  87 173 174 187  87 113 115 187  87 173 186 187  87 113 186 187  89 91 117 188  89 91 175 188  89 174 175 188  89 115 117 188  89 174 187 188  89 115 187 188  91 93 119 189  91 93 176 189  91 175 176 189  91 117 119 189  91 175 188 189  91 117 188 189  93 95 121 190  93 95 177 190  93 176 177 190  93 119 121 190  93 176 189 190  93 119 189 190  95 97 123 191  95 97 178 191  95 177 178 191  95 121 123 191  95 177 190 191  95 121 190 191  97 99 125 192  97 99 179 192  97 178 179 192  97 123 125 192  97 178 191 192  97 123 191 192  99 101 127 193  99 101 180 193  99 179 180 193  99 125 127 193  99 179 192 193  99 125 192 193  101 103 129 194  101 103 181 194  101 180 181 194  101 127 129 194  101 180 193 194  101 127 193 194  132 131 130 195  132 131 196 195  132 197 196 195  132 133 130 195  132 197 198 195  132 133 198 195  131 135 134 199  131 135 200 199  131 196 200 199  131 130 134 199  131 196 195 199  131 130 195 199  135 137 136 201  135 137 202 201  135 200 202 201  135 134 136 201  135 200 199 201  135 134 199 201  137 139 138 203  137 139 204 203  137 202 204 203  137 136 138 203  137 202 201 203  137 136 201 203  139 141 140 205  139 141 206 205  139 204 206 205  139 138 140 205  139 204 203 205  139 138 203 205  141 143 142 207  141 143 208 207  141 206 208 207  141 140 142 207  141 206 205 207  141 140 205 207  143 145 144 209  143 145 210 209  143 208 210 209  143 142 144 209  143 208 207 209  143 142 207 209  145 147 146 211  145 147 212 211  145 210 212 211  145 144 146 211  145 210 209 211  145 144 209 211  147 149 148 213  147 149 214 213  147 212 214 213  147 146 148 213  147 212 211 213  147 146 211 213  149 151 150 215  149 151 216 215  149 214 216 215  149 148 150 215  149 214 213 215  149 148 213 215  151 153 152 217  151 153 218 217  151 216 218 217  151 150 152 217  151 216 215 217  151 150 215 217  153 155 154 219  153 155 220 219  153 218 220 219  153 152 154 219  153 218 217 219  153 152 217 219  133 130 156 221  133 130 195 221  133 198 195 221  133 157 156 221  133 198 222 221  133 157 222 221  130 134 158 223  130 134 199 223  130 195 199 223  130 156 158 223  130 195 221 223  130 156 221 223  134 136 159 224  134 136 201 224  134 199 201 224  134 158 159 224  134 199 223 224  134 158 223 224  136 138 160 225  136 138 203 225  136 201 203 225  136 159 160 225  136 201 224 225  136 159 224 225  138 140 161 226  138 140 205 226  138 203 205 226  138 160 161 226  138 203 225 226  138 160 225 226  140 142 162 227  140 142 207 227  140 205 207 227  140 161 162 227  140 205 226 227  140 161 226 227  142 144 163 228  142 144 209 228  142 207 209 228  142 162 163 228  142 207 227 228  142 162 227 228  144 146 164 229  144 146 211 229  144 209 211 229  144 163 164 229  144 209 228 229  144 163 228 229  146 148 165 230  146 148 213 230  146 211 213 230  146 164 165 230  146 211 229 230  146 164 229 230  148 150 166 231  148 150 215 231  148 213 215 231  148 165 166 231  148 213 230 231  148 165 230 231  150 152 167 232  150 152 217 232  150 215 217 232  150 166 167 232  150 215 231 232  150 166 231 232  152 154 168 233  152 154 219 233  152 217 219 233  152 167 168 233  152 217 232 233  152 167 232 233  157 156 169 234  157 156 221 234  157 222 221 234  157 170 169 234  157 222 235 234  157 170 235 234  156 158 171 236  156 158 223 236  156 221 223 236  156 169 171 236  156 221 234 236  156 169 234 236  158 159 172 237  158 159 224 237  158 223 224 237  158 171 172 237  158 223 236 237  158 171 236 237  159 160 173 238  159 160 225 238  159 224 225 238  159 172 173 238  159 224 237 238  159 172 237 238  160 161 174 239  160 161 226 239  160 225 226 239  160 173 174 239  160 225 238 239  160 173 238 239  161 162 175 240  161 162 227 240  161 226 227 240  161 174 175 240  161 226 239 240  161 174 239 240  162 163 176 241  162 163 228 241  162 227 228 241  162 175 176 241  162 227 240 241  162 175 240 241  163 164 177 242  163 164 229 242  163 228 229 242  163 176 177 242  163 228 241 242  163 176 241 242  164 165 178 243  164 165 230 243  164 229 230 243  164 177 178 243  164 229 242 243  164 177 242 243  165 166 179 244  165 166 231 244  165 230 231 244  165 178 179 244  165 230 243 244  165 178 243 244  166 167 180 245  166 167 232 245  166 231 232 245  166 179 180 245  166 231 244 245  166 179 244 245  167 168 181 246  167 168 233 246  167 232 233 246  167 180 181 246  167 232 245 246  167 180 245 246  170 169 182 247  170 169 234 247  170 235 234 247  170 183 182 247  170 235 248 247  170 183 248 247  169 171 184 249  169 171 236 249  169 234 236 249  169 182 184 249  169 234 247 249  169 182 247 249  171 172 185 250  171 172 237 250  171 236 237 250  171 184 185 250  171 236 249 250  171 184 249 250  172 173 186 251  172 173 238 251  172 237 238 251  172 185 186 251  172 237 250 251  172 185 250 251  173 174 187 252  173 174 239 252  173 238 239 252  173 186 187 252  173 238 251 252  173 186 251 252  174 175 188 253  174 175 240 253  174 239 240 253  174 187 188 253  174 239 252 253  174 187 252 253  175 176 189 254  175 176 241 254  175 240 241 254  175 188 189 254  175 240 253 254  175 188 253 254  176 177 190 255  176 177 242 255  176 241 242 255  176 189 190 255  176 241 254 255  176 189 254 255  177 178 191 256  177 178 243 256  177 242 243 256  177 190 191 256  177 242 255 256  177 190 255 256  178 179 192 257  178 179 244 257  178 243 244 257  178 191 192 257  178 243 256 257  178 191 256 257  179 180 193 258  179 180 245 258  179 244 245 258  179 192 193 258  179 244 257 258  179 192 257 258  180 181 194 259  180 181 246 259  180 245 246 259  180 193 194 259  180 245 258 259  180 193 258 259  197 196 195 260  197 196 261 260  197 262 261 260  197 198 195 260  197 262 263 260  197 198 263 260  196 200 199 264  196 200 265 264  196 261 265 264  196 195 199 264  196 261 260 264  196 195 260 264  200 202 201 266  200 202 267 266  200 265 267 266  200 199 201 266  200 265 264 266  200 199 264 266  202 204 203 268  202 204 269 268  202 267 269 268  202 201 203 268  202 267 266 268  202 201 266 268  204 206 205 270  204 206 271 270  204 269 271 270  204 203 205 270  204 269 268 270  204 203 268 270  206 208 207 272  206 208 273 272  206 271 273 272  206 205 207 272  206 271 270 272  206 205 270 272  208 210 209 274  208 210 275 274  208 273 275 274  208 207 209 274  208 273 272 274  208 207 272 274  210 212 211 276  210 212 277 276  210 275 277 276  210 209 211 276  210 275 274 276  210 209 274 276  212 214 213 278  212 214 279 278  212 277 279 278  212 211 213 278  212 277 276 278  212 211 276 278  214 216 215 280  214 216 281 280  214 279 281 280  214 213 215 280  214 279 278 280  214 213 278 280  216 218 217 282  216 218 283 282  216 281 283 282  216 215 217 282  216 281 280 282  216 215 280 282  218 220 219 284  218 220 285 284  218 283 285 284  218 217 219 284  218 283 282 284  218 217 282 284  198 195 221 286  198 195 260 286  198 263 260 286  198 222 221 286  198 263 287 286  198 222 287 286  195 199 223 288  195 199 264 288  195 260 264 288  195 221 223 288  195 260 286 288  195 221 286 288  199 201 224 289  199 201 266 289  199 264 266 289  199 223 224 289  199 264 288 289  199 223 288 289  201 203 225 290  201 203 268 290  201 266 268 290  201 224 225 290  201 266 289 290  201 224 289 290  203 205 226 291  203 205 270 291  203 268 270 291  203 225 226 291  203 268 290 291  203 225 290 291  205 207 227 292  205 207 272 292  205 270 272 292  205 226 227 292  205 270 291 292  205 226 291 292  207 209 228 293  207 209 274 293  207 272 274 293  207 227 228 293  207 272 292 293  207 227 292 293  209 211 229 294  209 211 276 294  209 274 276 294  209 228 229 294  209 274 293 294  209 228 293 294  211 213 230 295  211 213 278 295  211 276 278 295  211 229 230 295  211 276 294 295  211 229 294 295  213 215 231 296  213 215 280 296  213 278 280 296  213 230 231 296  213 278 295 296  213 230 295 296  215 217 232 297  215 217 282 297  215 280 282 297  215 231 232 297  215 280 296 297  215 231 296 297  217 219 233 298  217 219 284 298  217 282 284 298  217 232 233 298  217 282 297 298  217 232 297 298  222 221 234 299  222 221 286 299  222 287 286 299  222 235 234 299  222 287 300 299  222 235 300 299  221 223 236 301  221 223 288 301  221 286 288 301  221 234 236 301  221 286 299 301  221 234 299 301  223 224 237 302  223 224 289 302  223 288 289 302  223 236 237 302  223 288 301 302  223 236 301 302  224 225 238 303  224 225 290 303  224 289 290 303  224 237 238 303  224 289 302 303  224 237 302 303  225 226 239 304  225 226 291 304  225 290 291 304  225 238 239 304  225 290 303 304  225 238 303 304  226 227 240 305  226 227 292 305  226 291 292 305  226 239 240 305  226 291 304 305  226 239 304 305  227 228 241 306  227 228 293 306  227 292 293 306  227 240 241 306  227 292 305 306  227 240 305 306  228 229 242 307  228 229 294 307  228 293 294 307  228 241 242 307  228 293 306 307  228 241 306 307  229 230 243 308  229 230 295 308  229 294 295 308  229 242 243 308  229 294 307 308  229 242 307 308  230 231 244 309  230 231 296 309  230 295 296 309  230 243 244 309  230 295 308 309  230 243 308 309  231 232 245 310  231 232 297 310  231 296 297 310  231 244 245 310  231 296 309 310  231 244 309 310  232 233 246 311  232 233 298 311  232 297 298 311  232 245 246 311  232 297 310 311  232 245 310 311  235 234 247 312  235 234 299 312  235 300 299 312  235 248 247 312  235 300 313 312  235 248 313 312  234 236 249 314  234 236 301 314  234 299 301 314  234 247 249 314  234 299 312 314  234 247 312 314  236 237 250 315  236 237 302 315  236 301 302 315  236 249 250 315  236 301 314 315  236 249 314 315  237 238 251 316  237 238 303 316  237 302 303 316  237 250 251 316  237 302 315 316  237 250 315 316  238 239 252 317  238 239 304 317  238 303 304 317  238 251 252 317  238 303 316 317  238 251 316 317  239 240 253 318  239 240 305 318  239 304 305 318  239 252 253 318  239 304 317 318  239 252 317 318  240 241 254 319  240 241 306 319  240 305 306 319  240 253 254 319  240 305 318 319  240 253 318 319  241 242 255 320  241 242 307 320  241 306 307 320  241 254 255 320  241 306 319 320  241 254 319 320  242 243 256 321  242 243 308 321  242 307 308 321  242 255 256 321  242 307 320 321  242 255 320 321  243 244 257 322  243 244 309 322  243 308 309 322  243 256 257 322  243 308 321 322  243 256 321 322  244 245 258 323  244 245 310 323  244 309 310 323  244 257 258 323  244 309 322 323  244 257 322 323  245 246 259 324  245 246 311 324  245 310 311 324  245 258 259 324  245 310 323 324  245 258 323 324  </DataArray>
<DataArray  type="UInt32"  Name="offsets"  format="ascii">4 8 12 16 20 24 28 32 36 40 44 48 52 56 60 64 68 72 76 80 84 88 92 96 100 104 108 112 116 120 124 128 132 136 140 144 148 152 156 160 164 168 172 176 180 184 188 192 196 200 204 208 212 216 220 224 228 232 236 240 244 248 252 256 260 264 268 272 276 280 284 288 292 296 300 304 308 312 316 320 324 328 332 336 340 344 348 352 356 360 364 368 372 376 380 384 388 392 396 400 404 408 412 416 420 424 428 432 436 440 444 448 452 456 460 464 468 472 476 480 484 488 492 496 500 504 508 512 516 520 524 528 532 536 540 544 548 552 556 560 564 568 572 576 580 584 588 592 596 600 604 608 612 616 620 624 628 632 636 640 644 648 652 656 660 664 668 672 676 680 684 688 692 696 700 704 708 712 716 720 724 728 732 736 740 744 748 752 756 760 764 768 772 776 780 784 788 792 796 800 804 808 812 816 820 824 828 832 836 840 844 848 852 856 860 864 868 872 876 880 884 888 892 896 900 904 908 912 916 920 924 928 932 936 940 944 948 952 956 960 964 968 972 976 980 984 988 992 996 1000 1004 1008 1012 1016 1020 1024 1028 1032 1036 1040 1044 1048 1052 1056 1060 1064 1068 1072 1076 1080 1084 1088 1092 1096 1100 1104 1108 1112 1116 1120 1124 1128 1132 1136 1140 1144 1148 1152 1156 1160 1164 1168 1172 1176 1180 1184 1188 1192 1196 1200 1204 1208 1212 1216 1220 1224 1228 1232 1236 1240 1244 1248 1252 1256 1260 1264 1268 1272 1276 1280 1284 1288 1292 1296 1300 1304 1308 1312 1316 1320 1324 1328 1332 1336 1340 1344 1348 1352 1356 1360 1364 1368 1372 1376 1380 1384 1388 1392 1396 1400 1404 1408 1412 1416 1420 1424 1428 1432 1436 1440 1444 1448 1452 1456 1460 1464 1468 1472 1476 1480 1484 1488 1492 1496 1500 1504 1508 1512 1516 1520 1524 1528 1532 1536 1540 1544 1548 1552 1556 1560 1564 1568 1572 1576 1580 1584 1588 1592 1596 1600 1604 1608 1612 1616 1620 1624 1628 1632 1636 1640 1644 1648 1652 1656 1660 1664 1668 1672 1676 1680 1684 1688 1692 1696 1700 1704 1708 1712 1716 1720 1724 1728 1732 1736 1740 1744 1748 1752 1756 1760 1764 1768 1772 1776 1780 1784 1788 1792 1796 1800 1804 1808 1812 1816 1820 1824 1828 1832 1836 1840 1844 1848 1852 1856 1860 1864 1868 1872 1876 1880 1884 1888 1892 1896 1900 1904 1908 1912 1916 1920 1924 1928 1932 1936 1940 1944 1948 1952 1956 1960 1964 1968 1972 1976 1980 1984 1988 1992 1996 2000 2004 2008 2012 2016 2020 2024 2028 2032 2036 2040 2044 2048 2052 2056 2060 2064 2068 2072 2076 2080 2084 2088 2092 2096 2100 2104 2108 2112 2116 2120 2124 2128 2132 2136 2140 2144 2148 2152 2156 2160 2164 2168 2172 2176 2180 2184 2188 2192 2196 2200 2204 2208 2212 2216 2220 2224 2228 2232 2236 2240 2244 2248 2252 2256 2260 2264 2268 2272 2276 2280 2284 2288 2292 2296 2300 2304 2308 2312 2316 2320 2324 2328 2332 2336 2340 2344 2348 2352 2356 2360 2364 2368 2372 2376 2380 2384 2388 2392 2396 2400 2404 2408 2412 2416 2420 2424 2428 2432 2436 2440 2444 2448 2452 2456 2460 2464 2468 2472 2476 2480 2484 2488 2492 2496 2500 2504 2508 2512 2516 2520 2524 2528 2532 2536 2540 2544 2548 2552 2556 2560 2564 2568 2572 2576 2580 2584 2588 2592 2596 2600 2604 2608 2612 2616 2620 2624 2628 2632 2636 2640 2644 2648 2652 2656 2660 2664 2668 2672 2676 2680 2684 2688 2692 2696 2700 2704 2708 2712 2716 2720 2724 2728 2732 2736 2740 2744 2748 2752 2756 2760 2764 2768 2772 2776 2780 2784 2788 2792 2796 2800 2804 2808 2812 2816 2820 2824 2828 2832 2836 2840 2844 2848 2852 2856 2860 2864 2868 2872 2876 2880 2884 2888 2892 2896 2900 2904 2908 2912 2916 2920 2924 2928 2932 2936 2940 2944 2948 2952 2956 2960 2964 2968 2972 2976 2980 2984 2988 2992 2996 3000 3004 3008 3012 3016 3020 3024 3028 3032 3036 3040 3044 3048 3052 3056 3060 3064 3068 3072 3076 3080 3084 3088 3092 3096 3100 3104 3108 3112 3116 3120 3124 3128 3132 3136 3140 3144 3148 3152 3156 3160 3164 3168 3172 3176 3180 3184 3188 3192 3196 3200 3204 3208 3212 3216 3220 3224 3228 3232 3236 3240 3244 3248 3252 3256 3260 3264 3268 3272 3276 3280 3284 3288 3292 3296 3300 3304 3308 3312 3316 3320 3324 3328 3332 3336 3340 3344 3348 3352 3356 3360 3364 3368 3372 3376 3380 3384 3388 3392 3396 3400 3404 3408 3412 3416 3420 3424 3428 3432 3436 3440 3444 3448 3452 3456 3460 3464 3468 3472 3476 3480 3484 3488 3492 3496 3500 3504 3508 3512 3516 3520 3524 3528 3532 3536 3540 3544 3548 3552 3556 3560 3564 3568 3572 3576 3580 3584 3588 3592 3596 3600 3604 3608 3612 3616 3620 3624 3628 3632 3636 3640 3644 3648 3652 3656 3660 3664 3668 3672 3676 3680 3684 3688 3692 3696 3700 3704 3708 3712 3716 3720 3724 3728 3732 3736 3740 3744 3748 3752 3756 3760 3764 3768 3772 3776 3780 3784 3788 3792 3796 3800 3804 3808 3812 3816 3820 3824 3828 3832 3836 3840 3844 3848 3852 3856 3860 3864 3868 3872 3876 3880 3884 3888 3892 3896 3900 3904 3908 3912 3916 3920 3924 3928 3932 3936 3940 3944 3948 3952 3956 3960 3964 3968 3972 3976 3980 3984 3988 3992 3996 4000 4004 4008 4012 4016 4020 4024 4028 4032 4036 4040 4044 4048 4052 4056 4060 4064 4068 4072 4076 4080 4084 4088 4092 4096 4100 4104 4108 4112 4116 4120 4124 4128 4132 4136 4140 4144 4148 4152 4156 4160 4164 4168 4172 4176 4180 4184 4188 4192 4196 4200 4204 4208 4212 4216 4220 4224 4228 4232 4236 4240 4244 4248 4252 4256 4260 4264 4268 4272 4276 4280 4284 4288 4292 4296 4300 4304 4308 4312 4316 4320 4324 4328 4332 4336 4340 4344 4348 4352 4356 4360 4364 4368 4372 4376 4380 4384 4388 4392 4396 4400 4404 4408 4412 4416 4420 4424 4428 4432 4436 4440 4444 4448 4452 4456 4460 4464 4468 4472 4476 4480 4484 4488 4492 4496 4500 4504 4508 4512 4516 4520 4524 4528 4532 4536 4540 4544 4548 4552 4556 4560 4564 4568 4572 4576 4580 4584 4588 4592 4596 4600 4604 4608 </DataArray>
<DataArray  type="UInt8"  Name="types"  format="ascii">10 10 10 10 10 10 10 10 10 10 10 10 10 10 10 10 10 10 10 10 10 10 10 10 10 10 10 10 10 10 10 10 10 10 10 10 10 10 10 10 10 10 10 10 10 10 10 10 10 10 10 10 10 10 10 10 10 10 10 10 10 10 10 10 10 10 10 10 10 10 10 10 10 10 10 10 10 10 10 10 10 10 10 10 10 10 10 10 10 10 10 10 10 10 10 10 10 10 10 10 10 10 10 10 10 10 10 10 10 10 10 10 10 10 10 10 10 10 10 10 10 10 10 10 10 10 10 10 10 10 10 10 10 10 10 10 10 10 10 10 10 10 10 10 10 10 10 10 10 10 10 10 10 10 10 10 10 10 10 10 10 10 10 10 10 10 10 10 10 10 10 10 10 10 10 10 10 10 10 10 10 10 10 10 10 10 10 10 10 10 10 10 10 10 10 10 10 10 10 10 10 10 10 10 10 10 10 10 10 10 10 10 10 10 10 10 10 10 10 10 10 10 10 10 10 10 10 10 10 10 10 10 10 10 10 10 10 10 10 10 10 10 10 10 10 10 10 10 10 10 10 10 10 10 10 10 10 10 10 10 10 10 10 10 10 10 10 10 10 10 10 10 10 10 10 10 10 10 10 10 10 10 10 10 10 10 10 10 10 10 10 10 10 10 10 10 10 10 10 10 10 10 10 10 10 10 10 10 10 10 10 10 10 10 10 10 10 10 10 10 10 10 10 10 10 10 10 10 10 10 10 10 10 10 10 10 10 10 10 10 10 10 10 10 10 10 10 10 10 10 10 10 10 10 10 10 10 10 10 10 10 10 10 10 10 10 10 10 10 10 10 10 10 10 10 10 10 10 10 10 10 10 10 10 10 10 10 10 10 10 10 10 10 10 10 10 10 10 10 10 10 10 10 10 10 10 10 10 10 10 10 10 10 10 10 10 10 10 10 10 10 10 10 10 10 10 10 10 10 10 10 10 10 10 10 10 10 10 10 10 10 10 10 10 10 10 10 10 10 10 10 10 10 10 10 10 10 10 10 10 10 10 10 10 10 10 10 10 10 10 10 10 10 10 10 10 10 10 10 10 10 10 10 10 10 10 10 10 10 10 10 10 10 10 10 10 10 10 10 10 10 10 10 10 10 10 10 10 10 10 10 10 10 10 10 10 10 10 10 10 10 10 10 10 10 10 10 10 10 10 10 10 10 10 10 10 10 10 10 10 10 10 10 10 10 10 10 10 10 10 10 10 10 10 10 10 10 10 10 10 10 10 10 10 10 10 10 10 10 10 10 10 10 10 10 10 10 10 10 10 10 10 10 10 10 10 10 10 10 10 10 10 10 10 10 10 10 10 10 10 10 10 10 10 10 10 10 10 10 10 10 10 10 10 10 10 10 10 10 10 10 10 10 10 10 10 10 10 10 10 10 10 10 10 10 10 10 10 10 10 10 10 10 10 10 10 10 10 10 10 10 10 10 10 10 10 10 10 10 10 10 10 10 10 10 10 10 10 10 10 10 10 10 10 10 10 10 10 10 10 10 10 10 10 10 10 10 10 10 10 10 10 10 10 10 10 10 10 10 10 10 10 10 10 10 10 10 10 10 10 10 10 10 10 10 10 10 10 10 10 10 10 10 10 10 10 10 10 10 10 10 10 10 10 10 10 10 10 10 10 10 10 10 10 10 10 10 10 10 10 10 10 10 10 10 10 10 10 10 10 10 10 10 10 10 10 10 10 10 10 10 10 10 10 10 10 10 10 10 10 10 10 10 10 10 10 10 10 10 10 10 10 10 10 10 10 10 10 10 10 10 10 10 10 10 10 10 10 10 10 10 10 10 10 10 10 10 10 10 10 10 10 10 10 10 10 10 10 10 10 10 10 10 10 10 10 10 10 10 10 10 10 10 10 10 10 10 10 10 10 10 10 10 10 10 10 10 10 10 10 10 10 10 10 10 10 10 10 10 10 10 10 10 10 10 10 10 10 10 10 10 10 10 10 10 10 10 10 10 10 10 10 10 10 10 10 10 10 10 10 10 10 10 10 10 10 10 10 10 10 10 10 10 10 10 10 10 10 10 10 10 10 10 10 10 10 10 10 10 10 10 10 10 10 10 10 10 10 10 10 10 10 10 10 10 10 10 10 10 10 10 10 10 10 10 10 10 10 10 10 10 10 10 10 10 10 10 10 10 10 10 10 10 10 10 10 10 10 10 10 10 10 10 10 10 10 10 10 10 10 10 10 10 10 10 10 10 10 10 10 10 10 10 10 10 10 10 10 10 10 10 10 10 10 10 10 10 10 10 10 10 10 10 10 10 10 10 10 10 10 10 10 10 10 10 10 10 10 10 10 10 10 10 10 10 10 10 10 10 10 10 10 10 10 10 10 10 10 10 10 10 10 10 10 10 10 10 10 10 10 10 10 10 10 10 10 10 10 10 10 10 10 10 10 10 10 10 10 10 10 10 10 10 10 10 10 10 10 10 10 10 10 10 10 10 10 10 10 10 10 10 10 10 10 10 10 10 10 10 10 10 10 10 10 10 10 10 10 10 10 10 10 10 10 10 10 10 10 10 10 10 10 10 10 10 10 10 10 10 10 10 10 </DataArray>
</Cells>
<CellData  Scalars="f">
<DataArray  type="Float64"  Name="f"  format="ascii">0 1 2 3 4 5 6 7 8 9 10 11 12 13 14 15 16 17 18 19 20 21 22 23 24 25 26 27 28 29 30 31 32 33 34 35 36 37 38 39 40 41 42 43 44 45 46 47 48 49 50 51 52 53 54 55 56 57 58 59 60 61 62 63 64 65 66 67 68 69 70 71 72 73 74 75 76 77 78 79 80 81 82 83 84 85 86 87 88 89 90 91 92 93 94 95 96 97 98 99 100 101 102 103 104 105 106 107 108 109 110 111 112 113 114 115 116 117 118 119 120 121 122 123 124 125 126 127 128 129 130 131 132 133 134 135 136 137 138 139 140 141 142 143 144 145 146 147 148 149 150 151 152 153 154 155 156 157 158 159 160 161 162 163 164 165 166 167 168 169 170 171 172 173 174 175 176 177 178 179 180 181 182 183 184 185 186 187 188 189 190 191 192 193 194 195 196 197 198 199 200 201 202 203 204 205 206 207 208 209 210 211 212 213 214 215 216 217 218 219 220 221 222 223 224 225 226 227 228 229 230 231 232 233 234 235 236 237 238 239 240 241 242 243 244 245 246 247 248 249 250 251 252 253 254 255 256 257 258 259 260 261 262 263 264 265 266 267 268 269 270 271 272 273 274 275 276 277 278 279 280 281 282 283 284 285 286 287 288 289 290 291 292 293 294 295 296 297 298 299 300 301 302 303 304 305 306 307 308 309 310 311 312 313 314 315 316 317 318 319 320 321 322 323 324 325 326 327 328 329 330 331 332 333 334 335 336 337 338 339 340 341 342 343 344 345 346 347 348 349 350 351 352 353 354 355 356 357 358 359 360 361 362 363 364 365 366 367 368 369 370 371 372 373 374 375 376 377 378 379 380 381 382 383 384 385 386 387 388 389 390 391 392 393 394 395 396 397 398 399 400 401 402 403 404 405 406 407 408 409 410 411 412 413 414 415 416 417 418 419 420 421 422 423 424 425 426 427 428 429 430 431 432 433 434 435 436 437 438 439 440 441 442 443 444 445 446 447 448 449 450 451 452 453 454 455 456 457 458 459 460 461 462 463 464 465 466 467 468 469 470 471 472 473 474 475 476 477 478 479 480 481 482 483 484 485 486 487 488 489 490 491 492 493 494 495 496 497 498 499 500 501 502 503 504 505 506 507 508 509 510 511 512 513 514 515 516 517 518 519 520 521 522 523 524 525 526 527 528 529 530 531 532 533 534 535 536 537 538 539 540 541 542 543 544 545 546 547 548 549 550 551 552 553 554 555 556 557 558 559 560 561 562 563 564 565 566 567 568 569 570 571 572 573 574 575 576 577 578 579 580 581 582 583 584 585 586 587 588 589 590 591 592 593 594 595 596 597 598 599 600 601 602 603 604 605 606 607 608 609 610 611 612 613 614 615 616 617 618 619 620 621 622 623 624 625 626 627 628 629 630 631 632 633 634 635 636 637 638 639 640 641 642 643 644 645 646 647 648 649 650 651 652 653 654 655 656 657 658 659 660 661 662 663 664 665 666 667 668 669 670 671 672 673 674 675 676 677 678 679 680 681 682 683 684 685 686 687 688 689 690 691 692 693 694 695 696 697 698 699 700 701 702 703 704 705 706 707 708 709 710 711 712 713 714 715 716 717 718 719 720 721 722 723 724 725 726 727 728 729 730 731 732 733 734 735 736 737 738 739 740 741 742 743 744 745 746 747 748 749 750 751 752 753 754 755 756 757 758 759 760 761 762 763 764 765 766 767 768 769 770 771 772 773 774 775 776 777 778 779 780 781 782 783 784 785 786 787 788 789 790 791 792 793 794 795 796 797 798 799 800 801 802 803 804 805 806 807 808 809 810 811 812 813 814 815 816 817 818 819 820 821 822 823 824 825 826 827 828 829 830 831 832 833 834 835 836 837 838 839 840 841 842 843 844 845 846 847 848 849 850 851 852 853 854 855 856 857 858 859 860 861 862 863 864 865 866 867 868 869 870 871 872 873 874 875 876 877 878 879 880 881 882 883 884 885 886 887 888 889 890 891 892 893 894 895 896 897 898 899 900 901 902 903 904 905 906 907 908 909 910 911 912 913 914 915 916 917 918 919 920 921 922 923 924 925 926 927 928 929 930 931 932 933 934 935 936 937 938 939 940 941 942 943 944 945 946 947 948 949 950 951 952 953 954 955 956 957 958 959 960 961 962 963 964 965 966 967 968 969 970 971 972 973 974 975 976 977 978 979 980 981 982 983 984 985 986 987 988 989 990 991 992 993 994 995 996 997 998 999 1000 1001 1002 1003 1004 1005 1006 1007 1008 1009 1010 1011 1012 1013 1014 1015 1016 1017 1018 1019 1020 1021 1022 1023 1024 1025 1026 1027 1028 1029 1030 1031 1032 1033 1034 1035 1036 1037 1038 1039 1040 1041 1042 1043 1044 1045 1046 1047 1048 1049 1050 1051 1052 1053 1054 1055 1056 1057 1058 1059 1060 1061 1062 1063 1064 1065 1066 1067 1068 1069 1070 1071 1072 1073 1074 1075 1076 1077 1078 1079 1080 1081 1082 1083 1084 1085 1086 1087 1088 1089 1090 1091 1092 1093 1094 1095 1096 1097 1098 1099 1100 1101 1102 1103 1104 1105 1106 1107 1108 1109 1110 1111 1112 1113 1114 1115 1116 1117 1118 1119 1120 1121 1122 1123 1124 1125 1126 1127 1128 1129 1130 1131 1132 1133 1134 1135 1136 1137 1138 1139 1140 1141 1142 1143 1144 1145 1146 1147 1148 1149 1150 1151 </DataArray>
</CellData>
</Piece>
</UnstructuredGrid>
</VTKFile>