fenics@dad73002d25f:~/shared/thermoplastic_analysis/from_Marco/code$ sudo python3 thermal_analysis.py 
Machine: dad73002d25f
2D-heat-DED version 1.0
xhi, grid_x, grid_d 1 1580 0.0006329113924050633
reading mesh from file input_mesh_files/unit_cube_3d_12_elem.xml
step: 1 0.001
minmax 390.08176103 686.463376394 1 0.001
step: 2 0.002
minmax 397.158732562 621.895765042 2 0.002
step: 3 0.003
minmax 397.208481433 582.699804488 3 0.003
step: 4 0.004
minmax 398.915478855 557.24006344 4 0.004
step: 5 0.005
minmax 398.887367162 539.599797925 5 0.005
step: 6 0.006
minmax 399.396774072 526.665414075 6 0.006
step: 7 0.007
minmax 399.526255533 516.728329257 7 0.007
step: 8 0.008
minmax 399.615562759 508.805105549 8 0.008
step: 9 0.009000000000000001
minmax 399.798639672 502.300632188 9 0.009000000000000001
step: 10 0.010000000000000002
minmax 399.801318279 496.836764377 10 0.010000000000000002
step: 11 0.011000000000000003
minmax 399.85319355 492.162156772 11 0.011000000000000003
step: 12 0.012000000000000004
minmax 399.906778664 488.102953319 12 0.012000000000000004
step: 13 0.013000000000000005
minmax 399.91268688 484.534690778 13 0.013000000000000005
step: 14 0.014000000000000005
minmax 399.937677037 481.365617246 14 0.014000000000000005
step: 15 0.015000000000000006
minmax 399.956132321 478.526390426 15 0.015000000000000006
step: 16 0.016000000000000007
minmax 399.959748282 475.963480242 16 0.016000000000000007
step: 17 0.017000000000000008
minmax 399.971322535 473.634803114 17 0.017000000000000008
step: 18 0.01800000000000001
minmax 399.980469126 471.506747782 18 0.01800000000000001
step: 19 0.01900000000000001
minmax 399.982782526 469.552096551 19 0.01900000000000001
step: 20 0.02000000000000001
minmax 399.988497869 467.748539251 20 0.02000000000000001
step: 21 0.02100000000000001
minmax 399.998225071 466.077589553 21 0.02100000000000001
step: 22 0.022000000000000013
minmax 400.0 464.523780651 22 0.022000000000000013
step: 23 0.023000000000000013
minmax 400.0 463.074058822 23 0.023000000000000013
step: 24 0.024000000000000014
minmax 400.0 461.717319694 24 0.024000000000000014
step: 25 0.025000000000000015
minmax 400.0 460.444049095 25 0.025000000000000015
step: 26 0.026000000000000016
minmax 400.0 459.24604167 26 0.026000000000000016
step: 27 0.027000000000000017
minmax 400.0 458.116178093 27 0.027000000000000017
step: 28 0.028000000000000018
minmax 400.0 457.048246977 28 0.028000000000000018
step: 29 0.02900000000000002
minmax 400.0 456.036801226 29 0.02900000000000002
step: 30 0.03000000000000002
minmax 400.0 455.077041244 30 0.03000000000000002
step: 31 0.03100000000000002
minmax 400.0 454.164719235 31 0.03100000000000002
step: 32 0.03200000000000002
minmax 400.0 453.296060252 32 0.03200000000000002
step: 33 0.03300000000000002
minmax 400.0 452.467696624 33 0.03300000000000002
step: 34 0.03400000000000002
minmax 400.0 451.676613167 34 0.03400000000000002
step: 35 0.035000000000000024
minmax 400.0 450.920101139 35 0.035000000000000024
step: 36 0.036000000000000025
minmax 400.0 450.195719342 36 0.036000000000000025
step: 37 0.037000000000000026
minmax 400.0 449.501261087 37 0.037000000000000026
step: 38 0.03800000000000003
minmax 400.0 448.834726012 38 0.03800000000000003
step: 39 0.03900000000000003
minmax 400.0 448.194295931 39 0.03900000000000003
step: 40 0.04000000000000003
minmax 400.0 447.578314046 40 0.04000000000000003
step: 41 0.04100000000000003
minmax 400.0 446.985266985 41 0.04100000000000003
step: 42 0.04200000000000003
minmax 400.0 446.413769221 42 0.04200000000000003
step: 43 0.04300000000000003
minmax 400.0 445.86254951 43 0.04300000000000003
step: 44 0.04400000000000003
minmax 400.0 445.330439042 44 0.04400000000000003
step: 45 0.04500000000000003
minmax 400.0 444.816361058 45 0.04500000000000003
step: 46 0.046000000000000034
minmax 400.0 444.319321719 46 0.046000000000000034
step: 47 0.047000000000000035
minmax 400.0 443.838402061 47 0.047000000000000035
step: 48 0.048000000000000036
minmax 400.0 443.372750876 48 0.048000000000000036
step: 49 0.04900000000000004
minmax 400.0 442.921578398 49 0.04900000000000004
step: 50 0.05000000000000004
minmax 400.0 442.484150698 50 0.05000000000000004
step: 51 0.05100000000000004
minmax 400.0 442.059784682 51 0.05100000000000004
step: 52 0.05200000000000004
minmax 400.0 441.647843626 52 0.05200000000000004
step: 53 0.05300000000000004
minmax 400.0 441.24773318 53 0.05300000000000004
step: 54 0.05400000000000004
minmax 400.0 440.858897778 54 0.05400000000000004
step: 55 0.05500000000000004
minmax 400.0 440.480817418 55 0.05500000000000004
step: 56 0.05600000000000004
minmax 400.0 440.113004751 56 0.05600000000000004
step: 57 0.057000000000000044
minmax 400.0 439.755002468 57 0.057000000000000044
step: 58 0.058000000000000045
minmax 400.0 439.406380923 58 0.058000000000000045
step: 59 0.059000000000000045
minmax 400.0 439.066735991 59 0.059000000000000045
step: 60 0.060000000000000046
minmax 400.0 438.735687117 60 0.060000000000000046
step: 61 0.06100000000000005
minmax 400.0 438.41287555 61 0.06100000000000005
step: 62 0.06200000000000005
minmax 400.0 438.097962733 62 0.06200000000000005
step: 63 0.06300000000000004
minmax 400.0 437.790628832 63 0.06300000000000004
step: 64 0.06400000000000004
minmax 400.0 437.490571402 64 0.06400000000000004
step: 65 0.06500000000000004
minmax 400.0 437.197504161 65 0.06500000000000004
step: 66 0.06600000000000004
minmax 400.0 436.911155871 66 0.06600000000000004
step: 67 0.06700000000000005
minmax 400.0 436.631269312 67 0.06700000000000005
step: 68 0.06800000000000005
minmax 400.0 436.35760034 68 0.06800000000000005
step: 69 0.06900000000000005
minmax 400.0 436.089917026 69 0.06900000000000005
step: 70 0.07000000000000005
minmax 400.0 435.827998859 70 0.07000000000000005
step: 71 0.07100000000000005
minmax 400.0 435.571636015 71 0.07100000000000005
step: 72 0.07200000000000005
minmax 400.0 435.320628684 72 0.07200000000000005
step: 73 0.07300000000000005
minmax 400.0 435.07478645 73 0.07300000000000005
step: 74 0.07400000000000005
minmax 400.0 434.833927711 74 0.07400000000000005
step: 75 0.07500000000000005
minmax 400.0 434.597879156 75 0.07500000000000005
step: 76 0.07600000000000005
minmax 400.0 434.366475269 76 0.07600000000000005
step: 77 0.07700000000000005
minmax 400.0 434.139557875 77 0.07700000000000005
step: 78 0.07800000000000006
minmax 400.0 433.91697572 78 0.07800000000000006
step: 79 0.07900000000000006
minmax 400.0 433.698584078 79 0.07900000000000006
step: 80 0.08000000000000006
minmax 400.0 433.484244389 80 0.08000000000000006
step: 81 0.08100000000000006
minmax 400.0 433.273823918 81 0.08100000000000006
step: 82 0.08200000000000006
minmax 400.0 433.067195445 82 0.08200000000000006
step: 83 0.08300000000000006
minmax 400.0 432.864236968 83 0.08300000000000006
step: 84 0.08400000000000006
minmax 400.0 432.66483143 84 0.08400000000000006
step: 85 0.08500000000000006
minmax 400.0 432.468866465 85 0.08500000000000006
step: 86 0.08600000000000006
minmax 400.0 432.276234159 86 0.08600000000000006
step: 87 0.08700000000000006
minmax 400.0 432.08683083 87 0.08700000000000006
step: 88 0.08800000000000006
minmax 400.0 431.900556814 88 0.08800000000000006
step: 89 0.08900000000000007
minmax 400.0 431.717316271 89 0.08900000000000007
step: 90 0.09000000000000007
minmax 400.0 431.537017006 90 0.09000000000000007
step: 91 0.09100000000000007
minmax 400.0 431.359570293 91 0.09100000000000007
step: 92 0.09200000000000007
minmax 400.0 431.184890713 92 0.09200000000000007
step: 93 0.09300000000000007
minmax 400.0 431.012896004 93 0.09300000000000007
step: 94 0.09400000000000007
minmax 400.0 430.843506916 94 0.09400000000000007
step: 95 0.09500000000000007
minmax 400.0 430.67664708 95 0.09500000000000007
step: 96 0.09600000000000007
minmax 400.0 430.512242877 96 0.09600000000000007
step: 97 0.09700000000000007
minmax 400.0 430.350223319 97 0.09700000000000007
step: 98 0.09800000000000007
minmax 400.0 430.190519937 98 0.09800000000000007
step: 99 0.09900000000000007
minmax 400.0 430.033066674 99 0.09900000000000007
step: 100 0.10000000000000007
minmax 400.0 429.877799782 100 0.10000000000000007
step: 101 0.10100000000000008
minmax 400.0 429.72465773 101 0.10100000000000008
step: 102 0.10200000000000008
minmax 400.0 429.573581108 102 0.10200000000000008
step: 103 0.10300000000000008
minmax 400.0 429.424512545 103 0.10300000000000008
step: 104 0.10400000000000008
minmax 400.0 429.277396625 104 0.10400000000000008
step: 105 0.10500000000000008
minmax 400.0 429.132179813 105 0.10500000000000008
step: 106 0.10600000000000008
minmax 400.0 428.988810374 106 0.10600000000000008
step: 107 0.10700000000000008
minmax 400.0 428.847238313 107 0.10700000000000008
step: 108 0.10800000000000008
minmax 400.0 428.707415298 108 0.10800000000000008
step: 109 0.10900000000000008
minmax 400.0 428.569294603 109 0.10900000000000008
step: 110 0.11000000000000008
minmax 400.0 428.432831047 110 0.11000000000000008
step: 111 0.11100000000000008
minmax 400.0 428.297980932 111 0.11100000000000008
step: 112 0.11200000000000009
minmax 400.0 428.164701992 112 0.11200000000000009
step: 113 0.11300000000000009
minmax 400.0 428.032953339 113 0.11300000000000009
step: 114 0.11400000000000009
minmax 400.0 427.902695411 114 0.11400000000000009
step: 115 0.11500000000000009
minmax 400.0 427.773889928 115 0.11500000000000009
step: 116 0.11600000000000009
minmax 400.0 427.646499841 116 0.11600000000000009
step: 117 0.11700000000000009
minmax 400.0 427.520489289 117 0.11700000000000009
step: 118 0.11800000000000009
minmax 400.0 427.395823562 118 0.11800000000000009
step: 119 0.11900000000000009
minmax 400.0 427.272469054 119 0.11900000000000009
step: 120 0.12000000000000009
minmax 400.0 427.150393224 120 0.12000000000000009
step: 121 0.1210000000000001
minmax 400.0 427.029564567 121 0.1210000000000001
step: 122 0.1220000000000001
minmax 400.0 426.909952568 122 0.1220000000000001
step: 123 0.1230000000000001
minmax 400.0 426.791527675 123 0.1230000000000001
step: 124 0.1240000000000001
minmax 400.0 426.674261261 124 0.1240000000000001
step: 125 0.12500000000000008
minmax 400.0 426.558125598 125 0.12500000000000008
step: 126 0.12600000000000008
minmax 400.0 426.44309382 126 0.12600000000000008
step: 127 0.12700000000000009
minmax 400.0 426.329139899 127 0.12700000000000009
step: 128 0.12800000000000009
minmax 400.0 426.216238614 128 0.12800000000000009
step: 129 0.1290000000000001
minmax 400.0 426.104365526 129 0.1290000000000001
step: 130 0.1300000000000001
minmax 400.0 425.99349695 130 0.1300000000000001
step: 131 0.1310000000000001
minmax 400.0 425.88360993 131 0.1310000000000001
step: 132 0.1320000000000001
minmax 400.0 425.774682216 132 0.1320000000000001
step: 133 0.1330000000000001
minmax 400.0 425.66669224 133 0.1330000000000001
step: 134 0.1340000000000001
minmax 400.0 425.559619094 134 0.1340000000000001
step: 135 0.1350000000000001
minmax 400.0 425.453442507 135 0.1350000000000001
step: 136 0.1360000000000001
minmax 400.0 425.348142825 136 0.1360000000000001
step: 137 0.1370000000000001
minmax 400.0 425.243700994 137 0.1370000000000001
step: 138 0.1380000000000001
minmax 400.0 425.140098532 138 0.1380000000000001
step: 139 0.1390000000000001
minmax 400.0 425.03731752 139 0.1390000000000001
step: 140 0.1400000000000001
minmax 400.0 424.935340579 140 0.1400000000000001
step: 141 0.1410000000000001
minmax 400.0 424.834150852 141 0.1410000000000001
step: 142 0.1420000000000001
minmax 400.0 424.733731988 142 0.1420000000000001
step: 143 0.1430000000000001
minmax 400.0 424.634068128 143 0.1430000000000001
step: 144 0.1440000000000001
minmax 400.0 424.535143885 144 0.1440000000000001
step: 145 0.1450000000000001
minmax 400.0 424.436944331 145 0.1450000000000001
step: 146 0.1460000000000001
minmax 400.0 424.339454985 146 0.1460000000000001
step: 147 0.1470000000000001
minmax 400.0 424.242661794 147 0.1470000000000001
step: 148 0.1480000000000001
minmax 400.0 424.14655112 148 0.1480000000000001
step: 149 0.1490000000000001
minmax 400.0 424.051109732 149 0.1490000000000001
step: 150 0.1500000000000001
minmax 400.0 423.956324785 150 0.1500000000000001
step: 151 0.1510000000000001
minmax 400.0 423.862183816 151 0.1510000000000001
step: 152 0.1520000000000001
minmax 400.0 423.768674725 152 0.1520000000000001
step: 153 0.1530000000000001
minmax 400.0 423.675785768 153 0.1530000000000001
step: 154 0.1540000000000001
minmax 400.0 423.583505542 154 0.1540000000000001
step: 155 0.1550000000000001
minmax 400.0 423.491822979 155 0.1550000000000001
step: 156 0.1560000000000001
minmax 400.0 423.40072733 156 0.1560000000000001
step: 157 0.1570000000000001
minmax 400.0 423.310208161 157 0.1570000000000001
step: 158 0.1580000000000001
minmax 400.0 423.220255337 158 0.1580000000000001
step: 159 0.1590000000000001
minmax 400.0 423.130859016 159 0.1590000000000001
step: 160 0.16000000000000011
minmax 400.0 423.042009639 160 0.16000000000000011
step: 161 0.16100000000000012
minmax 400.0 422.953697923 161 0.16100000000000012
step: 162 0.16200000000000012
minmax 400.0 422.865914849 162 0.16200000000000012
step: 163 0.16300000000000012
minmax 400.0 422.778651655 163 0.16300000000000012
step: 164 0.16400000000000012
minmax 400.0 422.691899829 164 0.16400000000000012
step: 165 0.16500000000000012
minmax 400.0 422.6056511 165 0.16500000000000012
step: 166 0.16600000000000012
minmax 400.0 422.519897432 166 0.16600000000000012
step: 167 0.16700000000000012
minmax 400.0 422.434631014 167 0.16700000000000012
step: 168 0.16800000000000012
minmax 400.0 422.349844256 168 0.16800000000000012
step: 169 0.16900000000000012
minmax 400.0 422.265529779 169 0.16900000000000012
step: 170 0.17000000000000012
minmax 400.0 422.181680412 170 0.17000000000000012
step: 171 0.17100000000000012
minmax 400.0 422.098289183 171 0.17100000000000012
step: 172 0.17200000000000013
minmax 400.0 422.015349312 172 0.17200000000000013
step: 173 0.17300000000000013
minmax 400.0 421.932854207 173 0.17300000000000013
step: 174 0.17400000000000013
minmax 400.0 421.850797459 174 0.17400000000000013
step: 175 0.17500000000000013
minmax 400.0 421.769172834 175 0.17500000000000013
step: 176 0.17600000000000013
minmax 400.0 421.687974267 176 0.17600000000000013
step: 177 0.17700000000000013
minmax 400.0 421.607195861 177 0.17700000000000013
step: 178 0.17800000000000013
minmax 400.0 421.526831877 178 0.17800000000000013
step: 179 0.17900000000000013
minmax 400.0 421.446876732 179 0.17900000000000013
step: 180 0.18000000000000013
minmax 400.0 421.367324991 180 0.18000000000000013
step: 181 0.18100000000000013
minmax 400.0 421.288171369 181 0.18100000000000013
step: 182 0.18200000000000013
minmax 400.0 421.209410718 182 0.18200000000000013
step: 183 0.18300000000000013
minmax 400.0 421.131038029 183 0.18300000000000013
step: 184 0.18400000000000014
minmax 400.0 421.053048424 184 0.18400000000000014
step: 185 0.18500000000000014
minmax 400.0 420.975437156 185 0.18500000000000014
step: 186 0.18600000000000014
minmax 400.0 420.8981996 186 0.18600000000000014
step: 187 0.18700000000000014
minmax 400.0 420.821331251 187 0.18700000000000014
step: 188 0.18800000000000014
minmax 400.0 420.744827725 188 0.18800000000000014
step: 189 0.18900000000000014
minmax 400.0 420.668684747 189 0.18900000000000014
step: 190 0.19000000000000014
minmax 400.0 420.592898154 190 0.19000000000000014
step: 191 0.19100000000000014
minmax 400.0 420.517463889 191 0.19100000000000014
step: 192 0.19200000000000014
minmax 400.0 420.442377997 192 0.19200000000000014
step: 193 0.19300000000000014
minmax 400.0 420.367636626 193 0.19300000000000014
step: 194 0.19400000000000014
minmax 400.0 420.293236019 194 0.19400000000000014
step: 195 0.19500000000000015
minmax 400.0 420.219172511 195 0.19500000000000015
step: 196 0.19600000000000015
minmax 400.0 420.145442533 196 0.19600000000000015
step: 197 0.19700000000000015
minmax 400.0 420.072042599 197 0.19700000000000015
step: 198 0.19800000000000015
minmax 400.0 419.998969313 198 0.19800000000000015
step: 199 0.19900000000000015
minmax 400.0 419.926219359 199 0.19900000000000015
step: 200 0.20000000000000015
minmax 400.0 419.853789503 200 0.20000000000000015

