minmax 400.0 799.310234445 1 1.0
step: 2 2.0
minmax 400.0 799.305829895 2 2.0
step: 3 3.0
minmax 400.0 799.301369723 3 3.0
step: 4 4.0
minmax 400.0 799.296858448 4 4.0
step: 5 5.0
minmax 400.0 799.292300315 5 5.0
step: 6 6.0
minmax 400.0 799.287699298 6 6.0
step: 7 7.0
minmax 400.0 799.283059102 7 7.0
step: 8 8.0
minmax 400.0 799.278383163 8 8.0
step: 9 9.0
minmax 400.0 799.273674659 9 9.0
step: 10 10.0
minmax 400.0 799.268936516 10 10.0
step: 11 11.0
minmax 400.0 799.264171421 11 11.0
step: 12 12.0
minmax 400.0 799.259381828 12 12.0
step: 13 13.0
minmax 400.0 799.254569975 13 13.0
step: 14 14.0
minmax 400.0 799.24973789 14 14.0
step: 15 15.0
minmax 400.0 799.244887408 15 15.0
step: 16 16.0
minmax 400.0 799.240151386 16 16.0
step: 17 17.0
minmax 400.0 799.23555963 17 17.0
step: 18 18.0
minmax 400.0 799.23097232 18 18.0
step: 19 19.0
minmax 400.0 799.226389164 19 19.0
step: 20 20.0
minmax 400.0 799.221809891 20 20.0
step: 21 21.0
minmax 400.0 799.217234252 21 21.0
step: 22 22.0
minmax 400.0 799.212662013 22 22.0
step: 23 23.0
minmax 400.0 799.208092961 23 23.0
step: 24 24.0
minmax 400.0 799.203526896 24 24.0
step: 25 25.0
minmax 400.0 799.198963635 25 25.0
step: 26 26.0
minmax 400.0 799.19440301 26 26.0
step: 27 27.0
minmax 400.0 799.189844867 27 27.0
step: 28 28.0
minmax 400.0 799.185289063 28 28.0
step: 29 29.0
minmax 400.0 799.180735468 29 29.0
step: 30 30.0
minmax 400.0 799.176183966 30 30.0
step: 31 31.0
minmax 400.0 799.171634449 31 31.0
step: 32 32.0
minmax 400.0 799.167086821 32 32.0
step: 33 33.0
minmax 400.0 799.162540996 33 33.0
step: 34 34.0
minmax 400.0 799.157996898 34 34.0
step: 35 35.0
minmax 400.0 799.153454459 35 35.0
step: 36 36.0
minmax 400.0 799.148913622 36 36.0
step: 37 37.0
minmax 400.0 799.144374334 37 37.0
step: 38 38.0
minmax 400.0 799.139836555 38 38.0
step: 39 39.0
minmax 400.0 799.135300248 39 39.0
step: 40 40.0
minmax 400.0 799.130765386 40 40.0
step: 41 41.0
minmax 400.0 799.126231947 41 41.0
step: 42 42.0
minmax 400.0 799.121699915 42 42.0
step: 43 43.0
minmax 400.0 799.117169282 43 43.0
step: 44 44.0
minmax 400.0 799.112640043 44 44.0
step: 45 45.0
minmax 400.0 799.108112199 45 45.0
step: 46 46.0
minmax 400.0 799.103585756 46 46.0
step: 47 47.0
minmax 400.0 799.099060725 47 47.0
step: 48 48.0
minmax 400.0 799.09453712 48 48.0
step: 49 49.0
minmax 400.0 799.090014959 49 49.0
step: 50 50.0
minmax 400.0 799.085494262 50 50.0

