<?xml version="1.0"?>
<VTKFile type="UnstructuredGrid"  version="0.1"  >
<UnstructuredGrid>
<Piece  NumberOfPoints="125" NumberOfCells="384">
<Points>
<DataArray  type="Float64"  NumberOfComponents="3"  format="ascii">0 0 0  0.25 0 0  0.25 0.25 0  0.25 0.25 0.25  0.25 0 0.25  0 0 0.25  0 0.25 0  0 0.25 0.25  0.5 0 0  0.5 0.25 0  0.5 0.25 0.25  0.5 0 0.25  0.75 0 0  0.75 0.25 0  0.75 0.25 0.25  0.75 0 0.25  1 0 0  1 0.25 0  1 0.25 0.25  1 0 0.25  0.25 0.5 0  0.25 0.5 0.25  0 0.5 0  0 0.5 0.25  0.5 0.5 0  0.5 0.5 0.25  0.75 0.5 0  0.75 0.5 0.25  1 0.5 0  1 0.5 0.25  0.25 0.75 0  0.25 0.75 0.25  0 0.75 0  0 0.75 0.25  0.5 0.75 0  0.5 0.75 0.25  0.75 0.75 0  0.75 0.75 0.25  1 0.75 0  1 0.75 0.25  0.25 1 0  0.25 1 0.25  0 1 0  0 1 0.25  0.5 1 0  0.5 1 0.25  0.75 1 0  0.75 1 0.25  1 1 0  1 1 0.25  0.25 0.25 0.5  0.25 0 0.5  0 0 0.5  0 0.25 0.5  0.5 0.25 0.5  0.5 0 0.5  0.75 0.25 0.5  0.75 0 0.5  1 0.25 0.5  1 0 0.5  0.25 0.5 0.5  0 0.5 0.5  0.5 0.5 0.5  0.75 0.5 0.5  1 0.5 0.5  0.25 0.75 0.5  0 0.75 0.5  0.5 0.75 0.5  0.75 0.75 0.5  1 0.75 0.5  0.25 1 0.5  0 1 0.5  0.5 1 0.5  0.75 1 0.5  1 1 0.5  0.25 0.25 0.75  0.25 0 0.75  0 0 0.75  0 0.25 0.75  0.5 0.25 0.75  0.5 0 0.75  0.75 0.25 0.75  0.75 0 0.75  1 0.25 0.75  1 0 0.75  0.25 0.5 0.75  0 0.5 0.75  0.5 0.5 0.75  0.75 0.5 0.75  1 0.5 0.75  0.25 0.75 0.75  0 0.75 0.75  0.5 0.75 0.75  0.75 0.75 0.75  1 0.75 0.75  0.25 1 0.75  0 1 0.75  0.5 1 0.75  0.75 1 0.75  1 1 0.75  0.25 0.25 1  0.25 0 1  0 0 1  0 0.25 1  0.5 0.25 1  0.5 0 1  0.75 0.25 1  0.75 0 1  1 0.25 1  1 0 1  0.25 0.5 1  0 0.5 1  0.5 0.5 1  0.75 0.5 1  1 0.5 1  0.25 0.75 1  0 0.75 1  0.5 0.75 1  0.75 0.75 1  1 0.75 1  0.25 1 1  0 1 1  0.5 1 1  0.75 1 1  1 1 1  </DataArray>
</Points>
<Cells>
<DataArray  type="UInt32"  Name="connectivity"  format="ascii">0 1 2 3  0 1 4 3  0 5 4 3  0 6 2 3  0 5 7 3  0 6 7 3  1 8 9 10  1 8 11 10  1 4 11 10  1 2 9 10  1 4 3 10  1 2 3 10  8 12 13 14  8 12 15 14  8 11 15 14  8 9 13 14  8 11 10 14  8 9 10 14  12 16 17 18  12 16 19 18  12 15 19 18  12 13 17 18  12 15 14 18  12 13 14 18  6 2 20 21  6 2 3 21  6 7 3 21  6 22 20 21  6 7 23 21  6 22 23 21  2 9 24 25  2 9 10 25  2 3 10 25  2 20 24 25  2 3 21 25  2 20 21 25  9 13 26 27  9 13 14 27  9 10 14 27  9 24 26 27  9 10 25 27  9 24 25 27  13 17 28 29  13 17 18 29  13 14 18 29  13 26 28 29  13 14 27 29  13 26 27 29  22 20 30 31  22 20 21 31  22 23 21 31  22 32 30 31  22 23 33 31  22 32 33 31  20 24 34 35  20 24 25 35  20 21 25 35  20 30 34 35  20 21 31 35  20 30 31 35  24 26 36 37  24 26 27 37  24 25 27 37  24 34 36 37  24 25 35 37  24 34 35 37  26 28 38 39  26 28 29 39  26 27 29 39  26 36 38 39  26 27 37 39  26 36 37 39  32 30 40 41  32 30 31 41  32 33 31 41  32 42 40 41  32 33 43 41  32 42 43 41  30 34 44 45  30 34 35 45  30 31 35 45  30 40 44 45  30 31 41 45  30 40 41 45  34 36 46 47  34 36 37 47  34 35 37 47  34 44 46 47  34 35 45 47  34 44 45 47  36 38 48 49  36 38 39 49  36 37 39 49  36 46 48 49  36 37 47 49  36 46 47 49  5 4 3 50  5 4 51 50  5 52 51 50  5 7 3 50  5 52 53 50  5 7 53 50  4 11 10 54  4 11 55 54  4 51 55 54  4 3 10 54  4 51 50 54  4 3 50 54  11 15 14 56  11 15 57 56  11 55 57 56  11 10 14 56  11 55 54 56  11 10 54 56  15 19 18 58  15 19 59 58  15 57 59 58  15 14 18 58  15 57 56 58  15 14 56 58  7 3 21 60  7 3 50 60  7 53 50 60  7 23 21 60  7 53 61 60  7 23 61 60  3 10 25 62  3 10 54 62  3 50 54 62  3 21 25 62  3 50 60 62  3 21 60 62  10 14 27 63  10 14 56 63  10 54 56 63  10 25 27 63  10 54 62 63  10 25 62 63  14 18 29 64  14 18 58 64  14 56 58 64  14 27 29 64  14 56 63 64  14 27 63 64  23 21 31 65  23 21 60 65  23 61 60 65  23 33 31 65  23 61 66 65  23 33 66 65  21 25 35 67  21 25 62 67  21 60 62 67  21 31 35 67  21 60 65 67  21 31 65 67  25 27 37 68  25 27 63 68  25 62 63 68  25 35 37 68  25 62 67 68  25 35 67 68  27 29 39 69  27 29 64 69  27 63 64 69  27 37 39 69  27 63 68 69  27 37 68 69  33 31 41 70  33 31 65 70  33 66 65 70  33 43 41 70  33 66 71 70  33 43 71 70  31 35 45 72  31 35 67 72  31 65 67 72  31 41 45 72  31 65 70 72  31 41 70 72  35 37 47 73  35 37 68 73  35 67 68 73  35 45 47 73  35 67 72 73  35 45 72 73  37 39 49 74  37 39 69 74  37 68 69 74  37 47 49 74  37 68 73 74  37 47 73 74  52 51 50 75  52 51 76 75  52 77 76 75  52 53 50 75  52 77 78 75  52 53 78 75  51 55 54 79  51 55 80 79  51 76 80 79  51 50 54 79  51 76 75 79  51 50 75 79  55 57 56 81  55 57 82 81  55 80 82 81  55 54 56 81  55 80 79 81  55 54 79 81  57 59 58 83  57 59 84 83  57 82 84 83  57 56 58 83  57 82 81 83  57 56 81 83  53 50 60 85  53 50 75 85  53 78 75 85  53 61 60 85  53 78 86 85  53 61 86 85  50 54 62 87  50 54 79 87  50 75 79 87  50 60 62 87  50 75 85 87  50 60 85 87  54 56 63 88  54 56 81 88  54 79 81 88  54 62 63 88  54 79 87 88  54 62 87 88  56 58 64 89  56 58 83 89  56 81 83 89  56 63 64 89  56 81 88 89  56 63 88 89  61 60 65 90  61 60 85 90  61 86 85 90  61 66 65 90  61 86 91 90  61 66 91 90  60 62 67 92  60 62 87 92  60 85 87 92  60 65 67 92  60 85 90 92  60 65 90 92  62 63 68 93  62 63 88 93  62 87 88 93  62 67 68 93  62 87 92 93  62 67 92 93  63 64 69 94  63 64 89 94  63 88 89 94  63 68 69 94  63 88 93 94  63 68 93 94  66 65 70 95  66 65 90 95  66 91 90 95  66 71 70 95  66 91 96 95  66 71 96 95  65 67 72 97  65 67 92 97  65 90 92 97  65 70 72 97  65 90 95 97  65 70 95 97  67 68 73 98  67 68 93 98  67 92 93 98  67 72 73 98  67 92 97 98  67 72 97 98  68 69 74 99  68 69 94 99  68 93 94 99  68 73 74 99  68 93 98 99  68 73 98 99  77 76 75 100  77 76 101 100  77 102 101 100  77 78 75 100  77 102 103 100  77 78 103 100  76 80 79 104  76 80 105 104  76 101 105 104  76 75 79 104  76 101 100 104  76 75 100 104  80 82 81 106  80 82 107 106  80 105 107 106  80 79 81 106  80 105 104 106  80 79 104 106  82 84 83 108  82 84 109 108  82 107 109 108  82 81 83 108  82 107 106 108  82 81 106 108  78 75 85 110  78 75 100 110  78 103 100 110  78 86 85 110  78 103 111 110  78 86 111 110  75 79 87 112  75 79 104 112  75 100 104 112  75 85 87 112  75 100 110 112  75 85 110 112  79 81 88 113  79 81 106 113  79 104 106 113  79 87 88 113  79 104 112 113  79 87 112 113  81 83 89 114  81 83 108 114  81 106 108 114  81 88 89 114  81 106 113 114  81 88 113 114  86 85 90 115  86 85 110 115  86 111 110 115  86 91 90 115  86 111 116 115  86 91 116 115  85 87 92 117  85 87 112 117  85 110 112 117  85 90 92 117  85 110 115 117  85 90 115 117  87 88 93 118  87 88 113 118  87 112 113 118  87 92 93 118  87 112 117 118  87 92 117 118  88 89 94 119  88 89 114 119  88 113 114 119  88 93 94 119  88 113 118 119  88 93 118 119  91 90 95 120  91 90 115 120  91 116 115 120  91 96 95 120  91 116 121 120  91 96 121 120  90 92 97 122  90 92 117 122  90 115 117 122  90 95 97 122  90 115 120 122  90 95 120 122  92 93 98 123  92 93 118 123  92 117 118 123  92 97 98 123  92 117 122 123  92 97 122 123  93 94 99 124  93 94 119 124  93 118 119 124  93 98 99 124  93 118 123 124  93 98 123 124  </DataArray>
<DataArray  type="UInt32"  Name="offsets"  format="ascii">4 8 12 16 20 24 28 32 36 40 44 48 52 56 60 64 68 72 76 80 84 88 92 96 100 104 108 112 116 120 124 128 132 136 140 144 148 152 156 160 164 168 172 176 180 184 188 192 196 200 204 208 212 216 220 224 228 232 236 240 244 248 252 256 260 264 268 272 276 280 284 288 292 296 300 304 308 312 316 320 324 328 332 336 340 344 348 352 356 360 364 368 372 376 380 384 388 392 396 400 404 408 412 416 420 424 428 432 436 440 444 448 452 456 460 464 468 472 476 480 484 488 492 496 500 504 508 512 516 520 524 528 532 536 540 544 548 552 556 560 564 568 572 576 580 584 588 592 596 600 604 608 612 616 620 624 628 632 636 640 644 648 652 656 660 664 668 672 676 680 684 688 692 696 700 704 708 712 716 720 724 728 732 736 740 744 748 752 756 760 764 768 772 776 780 784 788 792 796 800 804 808 812 816 820 824 828 832 836 840 844 848 852 856 860 864 868 872 876 880 884 888 892 896 900 904 908 912 916 920 924 928 932 936 940 944 948 952 956 960 964 968 972 976 980 984 988 992 996 1000 1004 1008 1012 1016 1020 1024 1028 1032 1036 1040 1044 1048 1052 1056 1060 1064 1068 1072 1076 1080 1084 1088 1092 1096 1100 1104 1108 1112 1116 1120 1124 1128 1132 1136 1140 1144 1148 1152 1156 1160 1164 1168 1172 1176 1180 1184 1188 1192 1196 1200 1204 1208 1212 1216 1220 1224 1228 1232 1236 1240 1244 1248 1252 1256 1260 1264 1268 1272 1276 1280 1284 1288 1292 1296 1300 1304 1308 1312 1316 1320 1324 1328 1332 1336 1340 1344 1348 1352 1356 1360 1364 1368 1372 1376 1380 1384 1388 1392 1396 1400 1404 1408 1412 1416 1420 1424 1428 1432 1436 1440 1444 1448 1452 1456 1460 1464 1468 1472 1476 1480 1484 1488 1492 1496 1500 1504 1508 1512 1516 1520 1524 1528 1532 1536 </DataArray>
<DataArray  type="UInt8"  Name="types"  format="ascii">10 10 10 10 10 10 10 10 10 10 10 10 10 10 10 10 10 10 10 10 10 10 10 10 10 10 10 10 10 10 10 10 10 10 10 10 10 10 10 10 10 10 10 10 10 10 10 10 10 10 10 10 10 10 10 10 10 10 10 10 10 10 10 10 10 10 10 10 10 10 10 10 10 10 10 10 10 10 10 10 10 10 10 10 10 10 10 10 10 10 10 10 10 10 10 10 10 10 10 10 10 10 10 10 10 10 10 10 10 10 10 10 10 10 10 10 10 10 10 10 10 10 10 10 10 10 10 10 10 10 10 10 10 10 10 10 10 10 10 10 10 10 10 10 10 10 10 10 10 10 10 10 10 10 10 10 10 10 10 10 10 10 10 10 10 10 10 10 10 10 10 10 10 10 10 10 10 10 10 10 10 10 10 10 10 10 10 10 10 10 10 10 10 10 10 10 10 10 10 10 10 10 10 10 10 10 10 10 10 10 10 10 10 10 10 10 10 10 10 10 10 10 10 10 10 10 10 10 10 10 10 10 10 10 10 10 10 10 10 10 10 10 10 10 10 10 10 10 10 10 10 10 10 10 10 10 10 10 10 10 10 10 10 10 10 10 10 10 10 10 10 10 10 10 10 10 10 10 10 10 10 10 10 10 10 10 10 10 10 10 10 10 10 10 10 10 10 10 10 10 10 10 10 10 10 10 10 10 10 10 10 10 10 10 10 10 10 10 10 10 10 10 10 10 10 10 10 10 10 10 10 10 10 10 10 10 10 10 10 10 10 10 10 10 10 10 10 10 10 10 10 10 10 10 10 10 10 10 10 10 10 10 10 10 10 10 10 10 10 10 10 10 10 10 10 10 10 10 10 10 10 10 10 10 </DataArray>
</Cells>
<CellData  Scalars="f">
<DataArray  type="Float64"  Name="f"  format="ascii">0 1 2 3 4 5 6 7 8 9 10 11 12 13 14 15 16 17 18 19 20 21 22 23 24 25 26 27 28 29 30 31 32 33 34 35 36 37 38 39 40 41 42 43 44 45 46 47 48 49 50 51 52 53 54 55 56 57 58 59 60 61 62 63 64 65 66 67 68 69 70 71 72 73 74 75 76 77 78 79 80 81 82 83 84 85 86 87 88 89 90 91 92 93 94 95 96 97 98 99 100 101 102 103 104 105 106 107 108 109 110 111 112 113 114 115 116 117 118 119 120 121 122 123 124 125 126 127 128 129 130 131 132 133 134 135 136 137 138 139 140 141 142 143 144 145 146 147 148 149 150 151 152 153 154 155 156 157 158 159 160 161 162 163 164 165 166 167 168 169 170 171 172 173 174 175 176 177 178 179 180 181 182 183 184 185 186 187 188 189 190 191 192 193 194 195 196 197 198 199 200 201 202 203 204 205 206 207 208 209 210 211 212 213 214 215 216 217 218 219 220 221 222 223 224 225 226 227 228 229 230 231 232 233 234 235 236 237 238 239 240 241 242 243 244 245 246 247 248 249 250 251 252 253 254 255 256 257 258 259 260 261 262 263 264 265 266 267 268 269 270 271 272 273 274 275 276 277 278 279 280 281 282 283 284 285 286 287 288 289 290 291 292 293 294 295 296 297 298 299 300 301 302 303 304 305 306 307 308 309 310 311 312 313 314 315 316 317 318 319 320 321 322 323 324 325 326 327 328 329 330 331 332 333 334 335 336 337 338 339 340 341 342 343 344 345 346 347 348 349 350 351 352 353 354 355 356 357 358 359 360 361 362 363 364 365 366 367 368 369 370 371 372 373 374 375 376 377 378 379 380 381 382 383 </DataArray>
</CellData>
</Piece>
</UnstructuredGrid>
</VTKFile>