Probe result for submesh number :     0
[ 0.00099468  0.00261536  0.00266828]
Probe id = 0
Number of evaluations = 1
Coordinates:
3.000000e-01 9.000000e-02 6.000000e-01
Values for all components:
9.946819e-04 

Probe id = 1
Number of evaluations = 1
Coordinates:
3.000000e-01 5.800000e-01 6.000000e-01
Values for all components:
2.615357e-03 

Probe id = 2
Number of evaluations = 1
Coordinates:
3.000000e-01 9.100000e-01 6.000000e-01
Values for all components:
2.668284e-03 

None
####################################################


Probe result for submesh number :     1
[ 0.00099468  0.0026179   0.00266828]
Probe id = 0
Number of evaluations = 1
Coordinates:
3.000000e-01 9.000000e-02 6.000000e-01
Values for all components:
9.946819e-04 

Probe id = 1
Number of evaluations = 1
Coordinates:
3.000000e-01 5.800000e-01 6.000000e-01
Values for all components:
2.617905e-03 

Probe id = 2
Number of evaluations = 1
Coordinates:
3.000000e-01 9.100000e-01 6.000000e-01
Values for all components:
2.668284e-03 

None
####################################################


Probe result for submesh number :     2
[ 0.00105039  0.0026179   0.00267152]
Probe id = 0
Number of evaluations = 1
Coordinates:
3.000000e-01 9.000000e-02 6.000000e-01
Values for all components:
1.050386e-03 

Probe id = 1
Number of evaluations = 1
Coordinates:
3.000000e-01 5.800000e-01 6.000000e-01
Values for all components:
2.617905e-03 

Probe id = 2
Number of evaluations = 1
Coordinates:
3.000000e-01 9.100000e-01 6.000000e-01
Values for all components:
2.671521e-03 

None
####################################################


