Newton iteration 0: r (abs) = 1.036e-01 (tol = 1.000e-15) r (rel) = 1.000e+00 (tol = 1.000e-06)
Newton iteration 1: r (abs) = 1.073e-02 (tol = 1.000e-15) r (rel) = 1.037e-01 (tol = 1.000e-06)
Newton iteration 2: r (abs) = 7.898e-05 (tol = 1.000e-15) r (rel) = 7.627e-04 (tol = 1.000e-06)
Newton iteration 3: r (abs) = 2.041e-07 (tol = 1.000e-15) r (rel) = 1.971e-06 (tol = 1.000e-06)
Newton iteration 4: r (abs) = 8.329e-12 (tol = 1.000e-15) r (rel) = 8.044e-11 (tol = 1.000e-06)
Newton solver finished in 5 iterations and 5 linear solver iterations.
Newton iteration 0: r (abs) = 1.045e-01 (tol = 1.000e-15) r (rel) = 1.000e+00 (tol = 1.000e-06)
Newton iteration 1: r (abs) = 1.114e-02 (tol = 1.000e-15) r (rel) = 1.067e-01 (tol = 1.000e-06)
Newton iteration 2: r (abs) = 6.962e-04 (tol = 1.000e-15) r (rel) = 6.664e-03 (tol = 1.000e-06)
Newton iteration 3: r (abs) = 3.181e-05 (tol = 1.000e-15) r (rel) = 3.045e-04 (tol = 1.000e-06)
Newton iteration 4: r (abs) = 1.160e-07 (tol = 1.000e-15) r (rel) = 1.111e-06 (tol = 1.000e-06)
Newton iteration 5: r (abs) = 1.851e-12 (tol = 1.000e-15) r (rel) = 1.771e-11 (tol = 1.000e-06)
