fenics@b45e321923ef:~/shared/thermoplastic_analysis/from_Marco/code$ sudo python3 thermal_analysis.py 
Machine: b45e321923ef
2D-heat-DED version 1.0
xhi, grid_x, grid_d 1 1580 0.0006329113924050633
reading mesh from file input_mesh_files/unit_cube_3d_12_elem.xml
step: 1 0.001
minmax 400.0 800.0 1 0.001
step: 2 0.002
minmax 400.0 800.0 2 0.002
step: 3 0.003
minmax 400.0 800.0 3 0.003
step: 4 0.004
minmax 400.0 800.0 4 0.004
step: 5 0.005
minmax 400.0 800.0 5 0.005
step: 6 0.006
minmax 400.0 800.0 6 0.006
step: 7 0.007
minmax 400.0 800.0 7 0.007
step: 8 0.008
minmax 400.0 800.0 8 0.008
step: 9 0.009000000000000001
minmax 400.0 800.0 9 0.009000000000000001
step: 10 0.010000000000000002
minmax 400.0 800.0 10 0.010000000000000002
step: 11 0.011000000000000003
minmax 400.0 800.0 11 0.011000000000000003
step: 12 0.012000000000000004
minmax 400.0 800.0 12 0.012000000000000004
step: 13 0.013000000000000005
minmax 400.0 800.0 13 0.013000000000000005
step: 14 0.014000000000000005
minmax 400.0 800.0 14 0.014000000000000005
step: 15 0.015000000000000006
minmax 400.0 800.0 15 0.015000000000000006
step: 16 0.016000000000000007
minmax 400.0 800.0 16 0.016000000000000007
step: 17 0.017000000000000008
minmax 400.0 800.0 17 0.017000000000000008
step: 18 0.01800000000000001
minmax 400.0 800.0 18 0.01800000000000001
step: 19 0.01900000000000001
minmax 400.0 800.0 19 0.01900000000000001
step: 20 0.02000000000000001
minmax 400.0 800.0 20 0.02000000000000001
step: 21 0.02100000000000001
minmax 400.0 800.0 21 0.02100000000000001
step: 22 0.022000000000000013
minmax 400.0 800.0 22 0.022000000000000013
step: 23 0.023000000000000013
minmax 400.0 800.0 23 0.023000000000000013
step: 24 0.024000000000000014
minmax 400.0 800.0 24 0.024000000000000014
step: 25 0.025000000000000015
minmax 400.0 800.0 25 0.025000000000000015
step: 26 0.026000000000000016
minmax 400.0 800.0 26 0.026000000000000016
step: 27 0.027000000000000017
minmax 400.0 800.0 27 0.027000000000000017
step: 28 0.028000000000000018
minmax 400.0 800.0 28 0.028000000000000018
step: 29 0.02900000000000002
minmax 400.0 800.0 29 0.02900000000000002
step: 30 0.03000000000000002
minmax 400.0 800.0 30 0.03000000000000002
step: 31 0.03100000000000002
minmax 400.0 800.0 31 0.03100000000000002
step: 32 0.03200000000000002
minmax 400.0 800.0 32 0.03200000000000002
step: 33 0.03300000000000002
minmax 400.0 800.0 33 0.03300000000000002
step: 34 0.03400000000000002
minmax 400.0 800.0 34 0.03400000000000002
step: 35 0.035000000000000024
minmax 400.0 800.0 35 0.035000000000000024
step: 36 0.036000000000000025
minmax 400.0 800.0 36 0.036000000000000025
step: 37 0.037000000000000026
minmax 400.0 800.0 37 0.037000000000000026
step: 38 0.03800000000000003
minmax 400.0 800.000000001 38 0.03800000000000003
step: 39 0.03900000000000003
minmax 400.0 800.000000001 39 0.03900000000000003
step: 40 0.04000000000000003
minmax 400.0 800.000000001 40 0.04000000000000003
step: 41 0.04100000000000003
minmax 400.0 800.000000001 41 0.04100000000000003
step: 42 0.04200000000000003
minmax 400.0 800.000000001 42 0.04200000000000003
step: 43 0.04300000000000003
minmax 400.0 800.000000001 43 0.04300000000000003
step: 44 0.04400000000000003
minmax 400.0 800.000000001 44 0.04400000000000003
step: 45 0.04500000000000003
minmax 400.0 800.000000001 45 0.04500000000000003
step: 46 0.046000000000000034
minmax 400.0 800.000000001 46 0.046000000000000034
step: 47 0.047000000000000035
minmax 400.0 800.000000001 47 0.047000000000000035
step: 48 0.048000000000000036
minmax 400.0 800.000000001 48 0.048000000000000036
step: 49 0.04900000000000004
minmax 400.0 800.000000001 49 0.04900000000000004
step: 50 0.05000000000000004
minmax 400.0 800.000000001 50 0.05000000000000004
