0,0,0
0.08,0,0
0.16,0,0
0.24,0,0
0.32,0,0
0.4,0,0
0.48,0,0
0.56,0,0
0.64,0,0
0.72,0,0
0.8,0,0
0.88,0,0
0.96,0,0
1,0,0
1,0.08,0
1,0.16,0
1,0.24,0
1,0.32,0
1,0.4,0
1,0.48,0
1,0.56,0
1,0.64,0
1,0.72,0
1,0.8,0
1,0.88,0
1,0.96,0
1,1,0
0.96,1,0
0.88,1,0
0.8,1,0
0.72,1,0
0.64,1,0
0.56,1,0
0.48,1,0
0.4,1,0
0.32,1,0
0.24,1,0
0.16,1,0
0.08,1,0
0,1,0
0,0.96,0
0,0.88,0
0,0.8,0
0,0.72,0
0,0.64,0
0,0.56,0
0,0.48,0
0,0.4,0
0,0.32,0
0,0.24,0
0,0.16,0
0,0.08,0
0,0,0
